MIPS/mipsr3000/tf.vcd
$date
     Jan 29, 2022       19:08:49
$end

$version
 SystemC 2.3.3-Accellera --- Jan 24 2022 19:05:10
$end

$timescale
     1 ps
$end

$scope module SystemC $end
$var wire    1  aaaaa  CLK       $end
$var wire    1  aaaab  RESET_RX       $end
$var wire   32  aaaac  IR_RI [31:0]  $end
$var wire   25  aaaad  I_TYPE_SD [24:0]  $end
$var wire   25  aaaae  I_TYPE_RD [24:0]  $end
$var wire   32  aaaaf  NEXTPC_RD [31:0]  $end
$var wire   32  aaaag  JMPADR_SD [31:0]  $end
$var wire   32  aaaah  R1 [31:0]  $end
$var wire   32  aaaai  R12 [31:0]  $end
$var wire   32  aaaaj  R13 [31:0]  $end
$var wire   32  aaaak  R14 [31:0]  $end
$var wire   32  aaaal  R15 [31:0]  $end
$var wire   32  aaaam  R16 [31:0]  $end
$var wire   32  aaaan  R26 [31:0]  $end
$var wire   32  aaaao  R30 [31:0]  $end
$var wire   32  aaaap  RLOGIC_SE [31:0]  $end
$var wire   32  aaaaq  IOPER_SD [31:0]  $end
$var wire   32  aaaar  IOPER_RD [31:0]  $end
$var wire   32  aaaas  RES_RE [31:0]  $end
$var wire    1  aaaat  HZD_SDE_SD       $end
$var wire    1  aaaau  SEL_ROMR       $end
$var wire    1  aaaav  SEL_ROMU       $end
$var wire    1  aaaaw  SEL_ROMX       $end
$var wire   32  aaaax  TOPER_RD [31:0]  $end
$var wire   32  aaaay  Y_SE [31:0]  $end
$var wire   32  aaaaz  WDATA_RE [31:0]  $end
$var wire    4  aaaba  BYTE_SEL [3:0]  $end
$var wire    4  aaabb  BYTE [3:0]  $end
$var wire    4  aaabc  E_RAMU [3:0]  $end
$var wire   32  aaabd  D_OUT [31:0]  $end
$var wire   32  aaabe  D_IN [31:0]  $end
$var wire    1  aaabf  W_N       $end
$var wire    2  aaabg  D_ATYPE [1:0]  $end
$var wire   32  aaabh  D_A [31:0]  $end
$var wire    1  aaabi  HAZARDS_SE       $end
$var wire    1  aaabj  HAZARDS_SD       $end
$var wire    5  aaabk  WRC [4:0]  $end
$var wire   32  aaabl  YOPER_SE [31:0]  $end
$var wire   32  aaabm  XOPER_SE [31:0]  $end
$var wire    1  aaabn  I_WRITE_SM       $end
$var wire    5  aaabo  RD [4:0]  $end
$var wire   32  aaabp  NEXTPC_SD [31:0]  $end
$var wire    5  aaabq  RD_SD [4:0]  $end
$var wire    5  aaabr  RT_SD [4:0]  $end
$var wire    5  aaabs  RS_SD [4:0]  $end
$var wire    1  aaabt  I_BRNCH_SD       $end
$var wire   32  aaabu  I [31:0]  $end
$upscope $end
$enddefinitions  $end

$comment
All initial values are dumped below at time 0 sec = 0 timescale units.
$end

$dumpvars
0aaaaa
0aaaab
b0 aaaac
b1010111100010010000000 aaaad
b0 aaaae
b0 aaaaf
b0 aaaag
b0 aaaah
b0 aaaai
b0 aaaaj
b0 aaaak
b0 aaaal
b0 aaaam
b0 aaaan
b0 aaaao
b0 aaaap
b0 aaaaq
b0 aaaar
b0 aaaas
0aaaat
0aaaau
0aaaav
0aaaaw
b0 aaaax
b0 aaaay
b0 aaaaz
b1111 aaaba
b0 aaabb
b0 aaabc
b0 aaabd
b0 aaabe
1aaabf
b1 aaabg
b0 aaabh
0aaabi
0aaabj
b0 aaabk
b0 aaabl
b0 aaabm
0aaabn
b0 aaabo
b100 aaabp
b0 aaabq
b0 aaabr
b0 aaabs
0aaabt
b0 aaabu
$end

#1000
1aaaaa
1aaaab
b1010111100010010000000 aaaae
b100 aaaaf
b1000 aaabp

#2000
0aaaaa
b100001 aaaac
b1011111000000010000000 aaaad
b10000100 aaaag
b100001 aaaaq

#3000
1aaaaa
b1011101000000010000000 aaaae
b10000000000000000000000010000000 aaaaf
b10000000000000000000000010000100 aaaag
1aaabn
b10000000000000000000000010000100 aaabp

#4000
0aaaaa
1aaaaw
b10001000000000000000000000000000 aaabu

#5000
1aaaaa
b10111111110000000000000000000000 aaaaf
b10110000000000000000000010000100 aaaag
0aaaaw
b10111111110000000000000000000100 aaabp
b0 aaabu

#6000
0aaaaa
1aaaau
b111100000111101100000000000000 aaabu

#7000
1aaaaa
0aaaab
0aaaau
b0 aaabu

#8000
0aaaaa
b0 aaaac
b1010111100010010000000 aaaad
b10110000000000000000000000000000 aaaag
b0 aaaaq
1aaaau
b111100000111101100000000000000 aaabu

#9000
1aaaaa
b111100000111101100000000000000 aaaac
b10000010000010010000000 aaaad
b1010111100010010000000 aaaae
b10111111110000000000000000000100 aaaaf
b10110000011110110000000000000000 aaaag
b11000000000000000000000000000000 aaaaq
0aaaau
b10111111110000000000000000001000 aaabp
b11110 aaabq
b11110 aaabr
b0 aaabu

#10000
0aaaaa
b0 aaaac
b1010111100010010000000 aaaad
b10110000000000000000000000000000 aaaag
b0 aaaaq
1aaaau
b0 aaabq
b0 aaabr
b110111110111100000000000000000 aaabu

#11000
1aaaaa
b110111110111100000000000000000 aaaac
b10011001010000010000000 aaaad
b10111111110000000000000000001000 aaaaf
b10111111011110000000000000000000 aaaag
0aaaau
b10111111110000000000000000001100 aaabp
b11110 aaabq
b11110 aaabr
b11110 aaabs
b0 aaabu

#12000
0aaaaa
b0 aaaac
b1010111100010010000000 aaaad
b10110000000000000000000000000000 aaaag
1aaaau
b0 aaabq
b0 aaabr
b0 aaabs
b111100000000010000000000000000 aaabu

#13000
1aaaaa
b111100000000010000000000000000 aaaac
b10000010000010010000000 aaaad
b10111111110000000000000000001100 aaaaf
b10110000000001000000000000000000 aaaag
0aaaau
b10111111110000000000000000010000 aaabp
b1 aaabq
b1 aaabr
b0 aaabu

#14000
0aaaaa
b0 aaaac
b1010111100010010000000 aaaad
b10110000000000000000000000000000 aaaag
1aaaau
b0 aaabq
b0 aaabr
b110100001000011111111100111100 aaabu

#15000
1aaaaa
b110100001000011111111100111100 aaaac
b10011001010000010000000 aaaad
b10111111110000000000000000010000 aaaaf
b10110000100001111111110011110000 aaaag
b1111111100111100 aaaaq
0aaaau
b10111111110000000000000000010100 aaabp
b1 aaabq
b1 aaabr
b1 aaabs
b0 aaabu

#16000
0aaaaa
b0 aaaac
b1010111100010010000000 aaaad
b10110000000000000000000000000000 aaaag
b0 aaaaq
1aaaau
b0 aaabq
b0 aaabr
b0 aaabs
b1000000100000010110000000000000 aaabu

#17000
1aaaaa
b1000000100000010110000000000000 aaaac
b1000000011000010000000000 aaaad
b10111111110000000000000000010100 aaaaf
b10110010000001011000000000000000 aaaag
b110000000000000 aaaaq
0aaaau
b10111111110000000000000000011000 aaabp
b1 aaabr
b100 aaabs
b0 aaabu

#18000
0aaaaa
b0 aaaac
b1010111100010010000000 aaaad
b10110000000000000000000000000000 aaaag
b0 aaaaq
1aaaau
b0 aaabr
b0 aaabs
b111100000000010000000000000000 aaabu

#19000
1aaaaa
b111100000000010000000000000000 aaaac
b10000010000010010000000 aaaad
b10111111110000000000000000011000 aaaaf
b10110000000001000000000000000000 aaaag
0aaaau
b10111111110000000000000000011100 aaabp
b1 aaabq
b1 aaabr
b0 aaabu

#20000
0aaaaa
b0 aaaac
b1010111100010010000000 aaaad
b10110000000000000000000000000000 aaaag
1aaaau
b0 aaabq
b0 aaabr
b110100001000010000000000000000 aaabu

#21000
1aaaaa
b110100001000010000000000000000 aaaac
b10011001010000010000000 aaaad
b10111111110000000000000000011100 aaaaf
b10110000100001000000000000000000 aaaag
0aaaau
b10111111110000000000000000100000 aaabp
b1 aaabq
b1 aaabr
b1 aaabs
b0 aaabu

#22000
0aaaaa
b0 aaaac
b1010111100010010000000 aaaad
b10110000000000000000000000000000 aaaag
1aaaau
b0 aaabq
b0 aaabr
b0 aaabs
b1000000100000010110100000000000 aaabu

#23000
1aaaaa
b1000000100000010110100000000000 aaaac
b1000000011000010000000000 aaaad
b10111111110000000000000000100000 aaaaf
b10110010000001011010000000000000 aaaag
b110100000000000 aaaaq
0aaaau
b10111111110000000000000000100100 aaabp
b1 aaabr
b100 aaabs
b0 aaabu

#24000
0aaaaa
b0 aaaac
b1010111100010010000000 aaaad
b10110000000000000000000000000000 aaaag
b0 aaaaq
1aaaau
b0 aaabr
b0 aaabs
b111100000110100000000001000000 aaabu

#25000
1aaaaa
b111100000110100000000001000000 aaaac
b10000010000010010000000 aaaad
b10111111110000000000000000100100 aaaaf
b10110000011010000000000100000000 aaaag
b10000000000000000000000 aaaaq
0aaaau
b10111111110000000000000000101000 aaabp
b11010 aaabq
b11010 aaabr
b0 aaabu

#26000
0aaaaa
b0 aaaac
b1010111100010010000000 aaaad
b10110000000000000000000000000000 aaaag
b0 aaaaq
1aaaau
b0 aaabq
b0 aaabr
b110111010110100000000000000000 aaabu

#27000
1aaaaa
b110111010110100000000000000000 aaaac
b10011001010000010000000 aaaad
b10111111110000000000000000101000 aaaaf
b10111101011010000000000000000000 aaaag
0aaaau
b10111111110000000000000000101100 aaabp
b11010 aaabq
b11010 aaabr
b11010 aaabs
b0 aaabu

#28000
0aaaaa
b0 aaaac
b1010111100010010000000 aaaad
b10110000000000000000000000000000 aaaag
1aaaau
b0 aaabq
b0 aaabr
b0 aaabs
b11010000000000000000001000 aaabu

#29000
1aaaaa
b11010000000000000000001000 aaaac
b1101011000010000100000 aaaad
b10111111110000000000000000101100 aaaaf
b10111101000000000000000000100000 aaaag
b1000 aaaaq
0aaaau
b0 aaabp
b11010 aaabs
1aaabt
b0 aaabu

#30000
0aaaaa
b0 aaaac
b1010111100010010000000 aaaad
b10110000000000000000000000000000 aaaag
b0 aaaaq
1aaaau
b10111111110000000000000000110000 aaabp
b0 aaabs
0aaabt
b1000010000000000000000000010000 aaabu

#31000
1aaaaa
b1000010000000000000000000010000 aaaac
b1000011000010000000000 aaaad
b10111111110000000000000000110000 aaaaf
b10111000000000000000000001000000 aaaag
b10000 aaaaq
0aaaau
b10111111110000000000000000110100 aaabp
b10000 aaabs
b0 aaabu

#32000
0aaaaa
b0 aaaac
b1010111100010010000000 aaaad
b10110000000000000000000000000000 aaaag
b0 aaaaq
1aaaau
b0 aaabs

#33000
1aaaaa
b10111111110000000000000000110100 aaaaf
0aaaau
b10111111110000000000000000111000 aaabp

#34000
0aaaaa
1aaaau

#35000
1aaaaa
b10111111110000000000000000111000 aaaaf
0aaaau
b10111111110000000000000000111100 aaabp

#36000
0aaaaa
1aaaau

#37000
1aaaaa
b10111111110000000000000000111100 aaaaf
0aaaau
b10111111110000000000000001000000 aaabp

#38000
0aaaaa
1aaaau

#39000
1aaaaa
b10111111110000000000000001000000 aaaaf
0aaaau
b10111111110000000000000001000100 aaabp

#40000
0aaaaa
1aaaau

#41000
1aaaaa
b10111111110000000000000001000100 aaaaf
0aaaau
b10111111110000000000000001001000 aaabp

#42000
0aaaaa
1aaaau

#43000
1aaaaa
b10111111110000000000000001001000 aaaaf
0aaaau
b10111111110000000000000001001100 aaabp

#44000
0aaaaa
1aaaau

#45000
1aaaaa
b10111111110000000000000001001100 aaaaf
0aaaau
b10111111110000000000000001010000 aaabp

#46000
0aaaaa
1aaaau

#47000
1aaaaa
b10111111110000000000000001010000 aaaaf
0aaaau
b10111111110000000000000001010100 aaabp

#48000
0aaaaa
1aaaau

#49000
1aaaaa
b10111111110000000000000001010100 aaaaf
0aaaau
b10111111110000000000000001011000 aaabp

#50000
0aaaaa
1aaaau

#51000
1aaaaa
b10111111110000000000000001011000 aaaaf
0aaaau
b10111111110000000000000001011100 aaabp

#52000
0aaaaa
1aaaau

#53000
1aaaaa
b10111111110000000000000001011100 aaaaf
0aaaau
b10111111110000000000000001100000 aaabp

#54000
0aaaaa
1aaaau

#55000
1aaaaa
b10111111110000000000000001100000 aaaaf
0aaaau
b10111111110000000000000001100100 aaabp

#56000
0aaaaa
1aaaau

#57000
1aaaaa
b10111111110000000000000001100100 aaaaf
0aaaau
b10111111110000000000000001101000 aaabp

#58000
0aaaaa
1aaaau

#59000
1aaaaa
b10111111110000000000000001101000 aaaaf
0aaaau
b10111111110000000000000001101100 aaabp

#60000
0aaaaa
1aaaau

#61000
1aaaaa
b10111111110000000000000001101100 aaaaf
0aaaau
b10111111110000000000000001110000 aaabp

#62000
0aaaaa
1aaaau

#63000
1aaaaa
b10111111110000000000000001110000 aaaaf
0aaaau
b10111111110000000000000001110100 aaabp

#64000
0aaaaa
1aaaau

#65000
1aaaaa
b10111111110000000000000001110100 aaaaf
0aaaau
b10111111110000000000000001111000 aaabp

