MIPS/mipsr3000/tf.vcd
$date
     Feb 03, 2022       16:26:19
$end

$version
 SystemC 2.3.3-Accellera --- Feb  3 2022 14:23:02
$end

$timescale
     1 ps
$end

$scope module SystemC $end
$var wire    1  aaaaa  CLK       $end
$var wire    1  aaaab  RESET_RX       $end
$var wire   32  aaaac  IR_RI [31:0]  $end
$var wire   25  aaaad  I_TYPE_SD [24:0]  $end
$var wire   25  aaaae  I_TYPE_RD [24:0]  $end
$var wire   32  aaaaf  NEXTPC_RD [31:0]  $end
$var wire   32  aaaag  JMPADR_SD [31:0]  $end
$var wire   32  aaaah  R1 [31:0]  $end
$var wire   32  aaaai  R12 [31:0]  $end
$var wire   32  aaaaj  R13 [31:0]  $end
$var wire   32  aaaak  R14 [31:0]  $end
$var wire   32  aaaal  R15 [31:0]  $end
$var wire   32  aaaam  R16 [31:0]  $end
$var wire   32  aaaan  R26 [31:0]  $end
$var wire   32  aaaao  R30 [31:0]  $end
$var wire   32  aaaap  RLOGIC_SE [31:0]  $end
$var wire   32  aaaaq  XARITH_SE [31:0]  $end
$var wire   32  aaaar  YARITH_SE [31:0]  $end
$var wire   33  aaaas  CARITH_SE [32:0]  $end
$var wire   32  aaaat  IOPER_SD [31:0]  $end
$var wire   32  aaaau  IOPER_RD [31:0]  $end
$var wire   32  aaaav  RES_RE [31:0]  $end
$var wire    1  aaaaw  HZD_SDE_SD       $end
$var wire    1  aaaax  SEL_ROMR       $end
$var wire    1  aaaay  SEL_ROMU       $end
$var wire    1  aaaaz  SEL_ROMX       $end
$var wire   32  aaaba  TOPER_RD [31:0]  $end
$var wire   32  aaabb  Y_SE [31:0]  $end
$var wire   32  aaabc  WDATA_RE [31:0]  $end
$var wire    4  aaabd  BYTE_SEL [3:0]  $end
$var wire    4  aaabe  BYTE [3:0]  $end
$var wire    4  aaabf  E_RAMU [3:0]  $end
$var wire   32  aaabg  D_OUT [31:0]  $end
$var wire   32  aaabh  D_IN [31:0]  $end
$var wire    1  aaabi  W_N       $end
$var wire    2  aaabj  D_ATYPE [1:0]  $end
$var wire   32  aaabk  D_A [31:0]  $end
$var wire    1  aaabl  HAZARDS_SE       $end
$var wire    1  aaabm  HAZARDS_SD       $end
$var wire    5  aaabn  WRC [4:0]  $end
$var wire   32  aaabo  YOPER_SE [31:0]  $end
$var wire   32  aaabp  XOPER_SE [31:0]  $end
$var wire    1  aaabq  I_WRITE_SM       $end
$var wire    5  aaabr  RD [4:0]  $end
$var wire   32  aaabs  NEXTPC_SD [31:0]  $end
$var wire    5  aaabt  RD_SD [4:0]  $end
$var wire    5  aaabu  RT_SD [4:0]  $end
$var wire    5  aaabv  RS_SD [4:0]  $end
$var wire    1  aaabw  I_BRNCH_SD       $end
$var wire   32  aaabx  I [31:0]  $end
$upscope $end
$enddefinitions  $end

$comment
All initial values are dumped below at time 0 sec = 0 timescale units.
$end

$dumpvars
0aaaaa
0aaaab
b0 aaaac
b1010111100010010000000 aaaad
b0 aaaae
b0 aaaaf
b0 aaaag
b0 aaaah
b0 aaaai
b0 aaaaj
b0 aaaak
b0 aaaal
b0 aaaam
b0 aaaan
b0 aaaao
b0 aaaap
b0 aaaaq
b0 aaaar
b0 aaaas
b0 aaaat
b0 aaaau
b0 aaaav
0aaaaw
0aaaax
0aaaay
0aaaaz
b0 aaaba
b0 aaabb
b0 aaabc
b1111 aaabd
b0 aaabe
b0 aaabf
b0 aaabg
b0 aaabh
1aaabi
b1 aaabj
b0 aaabk
0aaabl
0aaabm
b0 aaabn
b0 aaabo
b0 aaabp
0aaabq
b0 aaabr
b100 aaabs
b0 aaabt
b0 aaabu
b0 aaabv
0aaabw
b0 aaabx
$end

#1000
1aaaaa
1aaaab
b1010111100010010000000 aaaae
b100 aaaaf
b1000 aaabs

#2000
0aaaaa
b100001 aaaac
b1011111000000010000000 aaaad
b10000100 aaaag
b100001 aaaat

#3000
1aaaaa
b1011101000000010000000 aaaae
b10000000000000000000000010000000 aaaaf
b10000000000000000000000010000100 aaaag
1aaabq
b10000000000000000000000010000100 aaabs

#4000
0aaaaa
1aaaaz
b10001000000000000000000000000000 aaabx

#5000
1aaaaa
b10111111110000000000000000000000 aaaaf
b10110000000000000000000010000100 aaaag
0aaaaz
b10111111110000000000000000000100 aaabs
b0 aaabx

#6000
0aaaaa
1aaaax
b111100000111101100000000000000 aaabx

#7000
1aaaaa
0aaaab
0aaaax
b0 aaabx

#8000
0aaaaa
b0 aaaac
b1010111100010010000000 aaaad
b10110000000000000000000000000000 aaaag
b0 aaaat
1aaaax
b111100000111101100000000000000 aaabx

#9000
1aaaaa
b111100000111101100000000000000 aaaac
b10000010000010010000000 aaaad
b1010111100010010000000 aaaae
b10111111110000000000000000000100 aaaaf
b10110000011110110000000000000000 aaaag
b11000000000000000000000000000000 aaaat
0aaaax
b10111111110000000000000000001000 aaabs
b11110 aaabt
b11110 aaabu
b0 aaabx

#10000
0aaaaa
b0 aaaac
b1010111100010010000000 aaaad
b10110000000000000000000000000000 aaaag
b0 aaaat
1aaaax
b0 aaabt
b0 aaabu
b110111110111100000000000000000 aaabx

#11000
1aaaaa
b110111110111100000000000000000 aaaac
b10011001010000010000000 aaaad
b10111111110000000000000000001000 aaaaf
b10111111011110000000000000000000 aaaag
0aaaax
b10111111110000000000000000001100 aaabs
b11110 aaabt
b11110 aaabu
b11110 aaabv
b0 aaabx

#12000
0aaaaa
b0 aaaac
b1010111100010010000000 aaaad
b10110000000000000000000000000000 aaaag
1aaaax
b0 aaabt
b0 aaabu
b0 aaabv
b111100000000010000000000000000 aaabx

#13000
1aaaaa
b111100000000010000000000000000 aaaac
b10000010000010010000000 aaaad
b10111111110000000000000000001100 aaaaf
b10110000000001000000000000000000 aaaag
0aaaax
b10111111110000000000000000010000 aaabs
b1 aaabt
b1 aaabu
b0 aaabx

#14000
0aaaaa
b0 aaaac
b1010111100010010000000 aaaad
b10110000000000000000000000000000 aaaag
1aaaax
b0 aaabt
b0 aaabu
b110100001000011111111100111100 aaabx

#15000
1aaaaa
b110100001000011111111100111100 aaaac
b10011001010000010000000 aaaad
b10111111110000000000000000010000 aaaaf
b10110000100001111111110011110000 aaaag
b1111111100111100 aaaat
0aaaax
b10111111110000000000000000010100 aaabs
b1 aaabt
b1 aaabu
b1 aaabv
b0 aaabx

#16000
0aaaaa
b0 aaaac
b1010111100010010000000 aaaad
b10110000000000000000000000000000 aaaag
b0 aaaat
1aaaax
b0 aaabt
b0 aaabu
b0 aaabv
b1000000100000010110000000000000 aaabx

#17000
1aaaaa
b1000000100000010110000000000000 aaaac
b1000000011000010000000000 aaaad
b10111111110000000000000000010100 aaaaf
b10110010000001011000000000000000 aaaag
b110000000000000 aaaat
0aaaax
b10111111110000000000000000011000 aaabs
b1 aaabu
b100 aaabv
b0 aaabx

#18000
0aaaaa
b0 aaaac
b1010111100010010000000 aaaad
b10110000000000000000000000000000 aaaag
b0 aaaat
1aaaax
b0 aaabu
b0 aaabv
b111100000000010000000000000000 aaabx

#19000
1aaaaa
b111100000000010000000000000000 aaaac
b10000010000010010000000 aaaad
b10111111110000000000000000011000 aaaaf
b10110000000001000000000000000000 aaaag
0aaaax
b10111111110000000000000000011100 aaabs
b1 aaabt
b1 aaabu
b0 aaabx

#20000
0aaaaa
b0 aaaac
b1010111100010010000000 aaaad
b10110000000000000000000000000000 aaaag
1aaaax
b0 aaabt
b0 aaabu
b110100001000010000000000000000 aaabx

#21000
1aaaaa
b110100001000010000000000000000 aaaac
b10011001010000010000000 aaaad
b10111111110000000000000000011100 aaaaf
b10110000100001000000000000000000 aaaag
0aaaax
b10111111110000000000000000100000 aaabs
b1 aaabt
b1 aaabu
b1 aaabv
b0 aaabx

#22000
0aaaaa
b0 aaaac
b1010111100010010000000 aaaad
b10110000000000000000000000000000 aaaag
1aaaax
b0 aaabt
b0 aaabu
b0 aaabv
b1000000100000010110100000000000 aaabx

#23000
1aaaaa
b1000000100000010110100000000000 aaaac
b1000000011000010000000000 aaaad
b10111111110000000000000000100000 aaaaf
b10110010000001011010000000000000 aaaag
b110100000000000 aaaat
0aaaax
b10111111110000000000000000100100 aaabs
b1 aaabu
b100 aaabv
b0 aaabx

#24000
0aaaaa
b0 aaaac
b1010111100010010000000 aaaad
b10110000000000000000000000000000 aaaag
b0 aaaat
1aaaax
b0 aaabu
b0 aaabv
b111100000110100000000001000000 aaabx

#25000
1aaaaa
b111100000110100000000001000000 aaaac
b10000010000010010000000 aaaad
b10111111110000000000000000100100 aaaaf
b10110000011010000000000100000000 aaaag
b10000000000000000000000 aaaat
0aaaax
b10111111110000000000000000101000 aaabs
b11010 aaabt
b11010 aaabu
b0 aaabx

#26000
0aaaaa
b0 aaaac
b1010111100010010000000 aaaad
b10110000000000000000000000000000 aaaag
b0 aaaat
1aaaax
b0 aaabt
b0 aaabu
b110111010110100000000000000000 aaabx

#27000
1aaaaa
b110111010110100000000000000000 aaaac
b10011001010000010000000 aaaad
b10111111110000000000000000101000 aaaaf
b10111101011010000000000000000000 aaaag
0aaaax
b10111111110000000000000000101100 aaabs
b11010 aaabt
b11010 aaabu
b11010 aaabv
b0 aaabx

#28000
0aaaaa
b0 aaaac
b1010111100010010000000 aaaad
b10110000000000000000000000000000 aaaag
1aaaax
b0 aaabt
b0 aaabu
b0 aaabv
b11010000000000000000001000 aaabx

#29000
1aaaaa
b11010000000000000000001000 aaaac
b1101011000010000100000 aaaad
b10111111110000000000000000101100 aaaaf
b10111101000000000000000000100000 aaaag
b1000 aaaat
0aaaax
b0 aaabs
b11010 aaabv
1aaabw
b0 aaabx

#30000
0aaaaa
b0 aaaac
b1010111100010010000000 aaaad
b10110000000000000000000000000000 aaaag
b0 aaaat
1aaaax
b10111111110000000000000000110000 aaabs
b0 aaabv
0aaabw
b1000010000000000000000000010000 aaabx

#31000
1aaaaa
b1000010000000000000000000010000 aaaac
b1000011000010000000000 aaaad
b10111111110000000000000000110000 aaaaf
b10111000000000000000000001000000 aaaag
b10000 aaaat
0aaaax
b10111111110000000000000000110100 aaabs
b10000 aaabv
b0 aaabx

#32000
0aaaaa
b0 aaaac
b1010111100010010000000 aaaad
b10110000000000000000000000000000 aaaag
b0 aaaat
1aaaax
b0 aaabv

#33000
1aaaaa
b10111111110000000000000000110100 aaaaf
0aaaax
b10111111110000000000000000111000 aaabs

#34000
0aaaaa
1aaaax

#35000
1aaaaa
b10111111110000000000000000111000 aaaaf
0aaaax
b10111111110000000000000000111100 aaabs

#36000
0aaaaa
1aaaax

#37000
1aaaaa
b10111111110000000000000000111100 aaaaf
0aaaax
b10111111110000000000000001000000 aaabs

#38000
0aaaaa
1aaaax

#39000
1aaaaa
b10111111110000000000000001000000 aaaaf
0aaaax
b10111111110000000000000001000100 aaabs

#40000
0aaaaa
1aaaax

#41000
1aaaaa
b10111111110000000000000001000100 aaaaf
0aaaax
b10111111110000000000000001001000 aaabs

#42000
0aaaaa
1aaaax

#43000
1aaaaa
b10111111110000000000000001001000 aaaaf
0aaaax
b10111111110000000000000001001100 aaabs

#44000
0aaaaa
1aaaax

#45000
1aaaaa
b10111111110000000000000001001100 aaaaf
0aaaax
b10111111110000000000000001010000 aaabs

#46000
0aaaaa
1aaaax

#47000
1aaaaa
b10111111110000000000000001010000 aaaaf
0aaaax
b10111111110000000000000001010100 aaabs

#48000
0aaaaa
1aaaax

#49000
1aaaaa
b10111111110000000000000001010100 aaaaf
0aaaax
b10111111110000000000000001011000 aaabs

#50000
0aaaaa
1aaaax

#51000
1aaaaa
b10111111110000000000000001011000 aaaaf
0aaaax
b10111111110000000000000001011100 aaabs

#52000
0aaaaa
1aaaax

#53000
1aaaaa
b10111111110000000000000001011100 aaaaf
0aaaax
b10111111110000000000000001100000 aaabs

#54000
0aaaaa
1aaaax

#55000
1aaaaa
b10111111110000000000000001100000 aaaaf
0aaaax
b10111111110000000000000001100100 aaabs

#56000
0aaaaa
1aaaax

#57000
1aaaaa
b10111111110000000000000001100100 aaaaf
0aaaax
b10111111110000000000000001101000 aaabs

#58000
0aaaaa
1aaaax

#59000
1aaaaa
b10111111110000000000000001101000 aaaaf
0aaaax
b10111111110000000000000001101100 aaabs

#60000
0aaaaa
1aaaax

#61000
1aaaaa
b10111111110000000000000001101100 aaaaf
0aaaax
b10111111110000000000000001110000 aaabs

#62000
0aaaaa
1aaaax

#63000
1aaaaa
b10111111110000000000000001110000 aaaaf
0aaaax
b10111111110000000000000001110100 aaabs

#64000
0aaaaa
1aaaax

#65000
1aaaaa
b10111111110000000000000001110100 aaaaf
0aaaax
b10111111110000000000000001111000 aaabs

