CORE/REG/tf.vcd
$date
     Feb 02, 2022       03:54:22
$end

$version
 SystemC 2.3.3-Accellera --- Jan 11 2022 05:11:53
$end

$timescale
     1 ps
$end

$scope module SystemC $end
$var wire    1  aaabh  REG_VALID0       $end
$var wire    1  aaabi  REG_VALID1       $end
$var wire    1  aaabj  REG_VALID2       $end
$var wire    1  aaabk  REG_VALID3       $end
$var wire    1  aaabl  REG_VALID4       $end
$var wire    1  aaabm  REG_VALID5       $end
$var wire    1  aaabn  REG_VALID6       $end
$var wire    1  aaabo  REG_VALID7       $end
$var wire    1  aaabp  REG_VALID8       $end
$var wire    1  aaabq  REG_VALID9       $end
$var wire    1  aaabr  REG_VALID10       $end
$var wire    1  aaabs  REG_VALID11       $end
$var wire    1  aaabt  REG_VALID12       $end
$var wire    1  aaabu  REG_VALID13       $end
$var wire    1  aaabv  REG_VALID14       $end
$var wire    1  aaabw  REG_VALID15       $end
$var wire    1  aaabx  REG_VALID16       $end
$var wire    1  aaaby  REG_VALID17       $end
$var wire    1  aaabz  REG_VALID18       $end
$var wire    1  aaaca  REG_VALID19       $end
$var wire    1  aaacb  REG_VALID20       $end
$var wire    1  aaacc  REG_VALID21       $end
$var wire    1  aaacd  REG_VALID22       $end
$var wire    1  aaace  REG_VALID23       $end
$var wire    1  aaacf  REG_VALID24       $end
$var wire    1  aaacg  REG_VALID25       $end
$var wire    1  aaach  REG_VALID26       $end
$var wire    1  aaaci  REG_VALID27       $end
$var wire    1  aaacj  REG_VALID28       $end
$var wire    1  aaack  REG_VALID29       $end
$var wire    1  aaacl  REG_VALID30       $end
$var wire    1  aaacm  REG_VALID31       $end
$var wire    1  aaacn  REG_VALID32       $end
$var wire    1  aaaco  RESET_N       $end
$var wire    1  aaacp  CLK       $end
$var wire    1  aaacq  READ_PC_VALID       $end
$var wire    1  aaacr  INC_PC_VALID       $end
$var wire   32  aaacs  READ_PC [31:0]  $end
$var wire   32  aaact  WADR1_DATA [31:0]  $end
$var wire    1  aaacu  WADR1_VALID       $end
$var wire    6  aaacv  WADR1 [5:0]  $end
$var wire   32  aaacw  RADR2_DATA [31:0]  $end
$var wire   32  aaacx  RADR1_DATA [31:0]  $end
$var wire    1  aaacy  RADR2_VALID       $end
$var wire    1  aaacz  RADR1_VALID       $end
$var wire    6  aaada  RADR2 [5:0]  $end
$var wire    6  aaadb  RADR1 [5:0]  $end
$scope module reg_inst $end
$var wire   32  aaaaa  REG0 [31:0]  $end
$var wire   32  aaaab  REG1 [31:0]  $end
$var wire   32  aaaac  REG2 [31:0]  $end
$var wire   32  aaaad  REG3 [31:0]  $end
$var wire   32  aaaae  REG4 [31:0]  $end
$var wire   32  aaaaf  REG5 [31:0]  $end
$var wire   32  aaaag  REG6 [31:0]  $end
$var wire   32  aaaah  REG7 [31:0]  $end
$var wire   32  aaaai  REG8 [31:0]  $end
$var wire   32  aaaaj  REG9 [31:0]  $end
$var wire   32  aaaak  REG10 [31:0]  $end
$var wire   32  aaaal  REG11 [31:0]  $end
$var wire   32  aaaam  REG12 [31:0]  $end
$var wire   32  aaaan  REG13 [31:0]  $end
$var wire   32  aaaao  REG14 [31:0]  $end
$var wire   32  aaaap  REG15 [31:0]  $end
$var wire   32  aaaaq  REG16 [31:0]  $end
$var wire   32  aaaar  REG17 [31:0]  $end
$var wire   32  aaaas  REG18 [31:0]  $end
$var wire   32  aaaat  REG19 [31:0]  $end
$var wire   32  aaaau  REG20 [31:0]  $end
$var wire   32  aaaav  REG21 [31:0]  $end
$var wire   32  aaaaw  REG22 [31:0]  $end
$var wire   32  aaaax  REG23 [31:0]  $end
$var wire   32  aaaay  REG24 [31:0]  $end
$var wire   32  aaaaz  REG25 [31:0]  $end
$var wire   32  aaaba  REG26 [31:0]  $end
$var wire   32  aaabb  REG27 [31:0]  $end
$var wire   32  aaabc  REG28 [31:0]  $end
$var wire   32  aaabd  REG29 [31:0]  $end
$var wire   32  aaabe  REG30 [31:0]  $end
$var wire   32  aaabf  REG31 [31:0]  $end
$var wire   32  aaabg  REG32 [31:0]  $end
$upscope $end
$upscope $end
$enddefinitions  $end

$comment
All initial values are dumped below at time 0 sec = 0 timescale units.
$end

$dumpvars
b0 aaaaa
b0 aaaab
b0 aaaac
b0 aaaad
b0 aaaae
b0 aaaaf
b0 aaaag
b0 aaaah
b0 aaaai
b0 aaaaj
b0 aaaak
b0 aaaal
b0 aaaam
b0 aaaan
b0 aaaao
b0 aaaap
b0 aaaaq
b0 aaaar
b0 aaaas
b0 aaaat
b0 aaaau
b0 aaaav
b0 aaaaw
b0 aaaax
b0 aaaay
b0 aaaaz
b0 aaaba
b0 aaabb
b0 aaabc
b0 aaabd
b0 aaabe
b0 aaabf
b0 aaabg
1aaabh
1aaabi
1aaabj
1aaabk
1aaabl
1aaabm
1aaabn
1aaabo
1aaabp
1aaabq
1aaabr
1aaabs
1aaabt
1aaabu
1aaabv
1aaabw
1aaabx
1aaaby
1aaabz
1aaaca
1aaacb
1aaacc
1aaacd
1aaace
1aaacf
1aaacg
1aaach
1aaaci
1aaacj
1aaack
1aaacl
1aaacm
1aaacn
0aaaco
1aaacp
0aaacq
0aaacr
b0 aaacs
b0 aaact
0aaacu
b0 aaacv
b0 aaacw
b0 aaacx
1aaacy
1aaacz
b0 aaada
b0 aaadb
$end

#500
0aaacp

#1000
1aaacp

#1500
0aaacp

#2000
1aaacp

#2500
0aaacp

#3000
1aaaco
1aaacp
1aaacr
b1110100101100001101110001010001 aaact
1aaacu
b110 aaacv
b1010 aaada
b11100 aaadb

#3500
0aaacp

#4000
1aaacp
b111101000110110101100010111010 aaact
b11 aaacv
b110 aaada
b10110 aaadb

#4500
0aaacp

#5000
1aaacp
0aaacr
b1010001010111110000000001111100 aaact
0aaacu
b11101 aaacv
b11001 aaada
b101 aaadb

#5500
0aaacp

#6000
1aaacp
1aaacr
b10001100100001100110111100111 aaact
b100000 aaacv
b10110 aaada
b1101 aaadb

#6500
0aaacp

#7000
1aaacp
b1111111110111001100001000110011 aaact
1aaacu
b1011 aaacv
b10001 aaada
b11010 aaadb

#7500
0aaacp

#8000
1aaacp
b1010001100110110101000000001101 aaact
0aaacu
b10101 aaacv
b10010 aaada
b100000 aaadb

#8500
0aaacp

#9000
1aaacp
b1000011011011000110000100100101 aaact
b1101 aaacv
b10011 aaada
b111 aaadb

#9500
0aaacp

#10000
1aaacp
0aaacr
b1100111011000111000010001011110 aaact
1aaacu
b1011 aaacv
b10111 aaada
b1111 aaadb

#10500
0aaacp

#11000
1aaacp
b11000100110100111011010011011 aaact
0aaacu
b1000 aaacv
b110 aaada
b11101 aaadb

#11500
0aaacp

#12000
1aaacp
1aaacr
b111010100101011111100001110100 aaact
b10001 aaacv

#12500
0aaacp

#13000
1aaacp
b100010001000100001101001110000 aaact
1aaacu
b11010 aaacv
b1111 aaada
b1111 aaadb

#13500
0aaacp

#14000
1aaacp
b1000100000010111010110111111100 aaact
b100 aaacv
b11000 aaada
b1010 aaadb

#14500
0aaacp

#15000
1aaacp
0aaacr
b100100011000111011100111101010 aaact
b1011 aaacv
b1111 aaada
b1001 aaadb

#15500
0aaacp

#16000
1aaacp
b111000010101010101100001011100 aaact
0aaacu
b111 aaacv
b10100 aaada
b110 aaadb

#16500
0aaacp

#17000
1aaacp
1aaacr
b101100110110001001101000110010 aaact
1aaacu
b11000 aaacv
b1001 aaada
b1110 aaadb

#17500
0aaacp

#18000
1aaacp
0aaacr
b111000010000110111111111011011 aaact
0aaacu
b10100 aaacv
b11110 aaada
b110 aaadb

#18500
0aaacp

#19000
1aaacp
b111101110000100100000011111011 aaact
1aaacu
b11011 aaacv
b1001 aaada
b10000 aaadb

#19500
0aaacp

#20000
1aaacp
b1010010000011101110110111010001 aaact
b101 aaacv
b111 aaada
b1000 aaadb

#20500
0aaacp

#21000
1aaacp
b111001001110000110010101110101 aaact
0aaacu
b10000 aaacv
b11110 aaada
b10010 aaadb

#21500
0aaacp

#22000
1aaacp
1aaacr
b10101101101011010111101011100 aaact
1aaacu
b110 aaacv
b10110 aaada
b1000 aaadb

#22500
0aaacp

#23000
1aaacp
b1111110000011000101011110110001 aaact
b1111 aaacv
b11000 aaada
b100 aaadb

#23500
0aaacp

#24000
1aaacp
0aaacr
b100101101001110000101111110111 aaact
b10101 aaacv
b10 aaada
b11011 aaadb

#24500
0aaacp

#25000
1aaacp
1aaacr
b10000000011111000111111001010 aaact
b11011 aaada
b1011 aaadb

#25500
0aaacp

#26000
1aaacp
b110101110010100011101100100 aaact
b1010 aaacv
b11101 aaada

#26500
0aaacp

#27000
1aaacp
b1010100000010100100011100011100 aaact
0aaacu
b1001 aaacv
b11010 aaada
b10101 aaadb

#27500
0aaacp

#28000
1aaacp
b1000010100101100011111001011010 aaact
1aaacu
b10010 aaacv
b11110 aaada
b1101 aaadb

#28500
0aaacp

#29000
1aaacp
0aaacr
b1001001011000101000000100111011 aaact
b111 aaacv
b1100 aaada
b101 aaadb

#29500
0aaacp

#30000
1aaacp
b1110001111010100001000100001001 aaact
0aaacu
b10110 aaacv
b1000 aaada
b1000 aaadb

#30500
0aaacp

#31000
1aaacp
b100010000101111000011011 aaact
b11011 aaacv
b1 aaada
b1011 aaadb

#31500
0aaacp

#32000
1aaacp
b1110100110111100000111011100011 aaact
1aaacu
b10 aaacv
b1111 aaada
b110 aaadb

#32500
0aaacp

#33000
1aaacp
1aaacr
b1010111111111000100111110111011 aaact
0aaacu
b10111 aaacv
b10100 aaada
b111 aaadb

#33500
0aaacp

#34000
1aaacp
b1001001110110100011000001111101 aaact
1aaacu
b10100 aaacv
b10011 aaada
b11110 aaadb

#34500
0aaacp

#35000
1aaacp
b1101010101001111000111101111111 aaact
0aaacu
b11010 aaacv

#35500
0aaacp

#36000
1aaacp
b1110011101000011000001000011011 aaact
b10100 aaacv
b11000 aaada
b1111 aaadb

#36500
0aaacp

#37000
1aaacp
0aaacr
b1110001110010010001001010011000 aaact
b11010 aaacv
b1110 aaada
b10001 aaadb

#37500
0aaacp

#38000
1aaacp
b1011001101011011110101000111101 aaact
1aaacu
b10101 aaacv
b0 aaada
b1100 aaadb

#38500
0aaacp

#39000
1aaacp
1aaacr
b11100101000001100010111111010 aaact
b10010 aaacv
b10101 aaada
b1000 aaadb

#39500
0aaacp

#40000
1aaacp
b1011100000100001111111000100001 aaact
0aaacu
b1101 aaacv
b10100 aaada
b1101 aaadb

#40500
0aaacp

#41000
1aaacp
0aaacr
b101011000011011000110110111110 aaact
b10010 aaacv
b10000 aaada
b10111 aaadb

#41500
0aaacp

#42000
1aaacp
1aaacr
b1101010101001111011011101011100 aaact
b110 aaacv
b11 aaada
b10011 aaadb

#42500
0aaacp

#43000
1aaacp
0aaacr
b1011011001001011010110011100010 aaact
1aaacu
b100000 aaacv
b0 aaada
b1110 aaadb

#43500
0aaacp

#44000
1aaacp
1aaacr
b1010110010000111000110100010101 aaact
0aaacu
b1011 aaacv
b111 aaada
b1 aaadb

#44500
0aaacp

#45000
1aaacp
0aaacr
b1011101100010001000101000001000 aaact
1aaacu
b10011 aaacv
b1111 aaada
b1101 aaadb

#45500
0aaacp

#46000
1aaacp
b1010011100110011100011001010100 aaact
b11 aaacv
b1001 aaada
b10011 aaadb

#46500
0aaacp

#47000
1aaacp
b1010111110100101111000100001110 aaact
b11010 aaacv
b10 aaada
b11011 aaadb

#47500
0aaacp

#48000
1aaacp
b1010101010100011011100111110011 aaact
b1110 aaacv
b11011 aaada
b11110 aaadb

#48500
0aaacp

#49000
1aaacp
b1111101111111111001110100001001 aaact
b10101 aaacv
b11010 aaada
b10100 aaadb

#49500
0aaacp

#50000
1aaacp
1aaacr
b1111010101101001001110110101111 aaact
b100 aaacv
b10111 aaada
b11111 aaadb

#50500
0aaacp

#51000
1aaacp
0aaacr
b110001001000010110011110101101 aaact
b0 aaacv
b1 aaada
b10 aaadb

#51500
0aaacp

#52000
1aaacp
b1100101100101101000110000011100 aaact
0aaacu
b10100 aaacv
b11100 aaada
b11010 aaadb

#52500
0aaacp

#53000
1aaacp
1aaacr
b111111110000110010111000100000 aaact
b11011 aaacv
b10111 aaada
b11111 aaadb

#53500
0aaacp

#54000
1aaacp
0aaacr
b111011010110010100100000000111 aaact
b1101 aaacv
b11 aaada
b11000 aaadb

#54500
0aaacp

#55000
1aaacp
b1011101001000000101111000100000 aaact
1aaacu
b1100 aaacv
b11100 aaada
b1 aaadb

#55500
0aaacp

#56000
1aaacp
b10110110011111000000011110001 aaact
b11011 aaacv
b1011 aaada
b11110 aaadb

#56500
0aaacp

#57000
1aaacp
b101001100100110100011010011001 aaact
b10100 aaacv
b100 aaada
b1101 aaadb

#57500
0aaacp

#58000
1aaacp
b111111011111110101110111011001 aaact
b10 aaacv
b10011 aaada
b11111 aaadb

#58500
0aaacp

#59000
1aaacp
b10011010110111000000100010000 aaact
0aaacu
b10101 aaacv
b10100 aaada
b1000 aaadb

#59500
0aaacp

#60000
1aaacp
b101010011010101101100110111110 aaact
1aaacu
b1110 aaacv
b100000 aaada
b111 aaadb

#60500
0aaacp

#61000
1aaacp
1aaacr
b1010100010100011100111101001001 aaact
0aaacu
b10 aaacv
b0 aaada
b1101 aaadb

#61500
0aaacp

#62000
1aaacp
b1000010010001000111100111011010 aaact
b10011 aaacv
b111 aaada
b100000 aaadb

#62500
0aaacp

#63000
1aaacp
b11111010001100001101101010001 aaact
b11000 aaacv
b10 aaada

#63500
0aaacp

#64000
1aaacp
0aaacr
b1110010111000110100000100111010 aaact
1aaacu
b110 aaacv
b11111 aaada
b10010 aaadb

#64500
0aaacp

#65000
1aaacp
1aaacr
b100101100101110011111000110010 aaact
0aaacu
b0 aaacv
b10111 aaada
b10111 aaadb

#65500
0aaacp

#66000
1aaacp
b1111110010001001000110111101001 aaact
b100000 aaacv
b10110 aaada
b11100 aaadb

#66500
0aaacp

#67000
1aaacp
0aaacr
b1100101111100101101111101001 aaact
1aaacu
b10 aaacv
b11001 aaada
b1000 aaadb

#67500
0aaacp

#68000
1aaacp
b110100101111101001011010010 aaact
0aaacu
b111 aaacv
b1001 aaada
b11110 aaadb

#68500
0aaacp

#69000
1aaacp
1aaacr
b1111001111110000100111011000 aaact
b11011 aaacv
b11001 aaada
b101 aaadb

#69500
0aaacp

#70000
1aaacp
0aaacr
b100110111100101101001101100100 aaact
b0 aaacv
b10010 aaada
b1010 aaadb

#70500
0aaacp

#71000
1aaacp
b1001111001110001111001001100101 aaact
1aaacu
b11110 aaacv
b1110 aaada

#71500
0aaacp

#72000
1aaacp
1aaacr
b1110110001111001011011010000000 aaact
0aaacu
b1101 aaacv
b10010 aaada
b11 aaadb

#72500
0aaacp

#73000
1aaacp
0aaacr
b101101101110001000000010001001 aaact
1aaacu
b0 aaacv
b110 aaada
b1000 aaadb

#73500
0aaacp

#74000
1aaacp
b100000111101001011110110101101 aaact
b11110 aaacv
b11111 aaada
b1010 aaadb

#74500
0aaacp

#75000
1aaacp
b11001010110001011110100010111 aaact
0aaacu
b1000 aaacv
b1111 aaada
b1100 aaadb

#75500
0aaacp

#76000
1aaacp
1aaacr
b11001101001010010010101100110 aaact
b1010 aaacv
b0 aaada
b10010 aaadb

#76500
0aaacp

#77000
1aaacp
0aaacr
b1000100001101000100110000100010 aaact
1aaacu
b10 aaacv
b1011 aaada
b11 aaadb

#77500
0aaacp

#78000
1aaacp
1aaacr
b100111000101111001110000001011 aaact
b10001 aaacv
b10100 aaada
b111 aaadb

#78500
0aaacp

#79000
1aaacp
b1010111110011100110011010110100 aaact
b110 aaacv
b1011 aaada
b1011 aaadb

#79500
0aaacp

#80000
1aaacp
0aaacr
b1000100001110000000011100100111 aaact
b11001 aaacv
b11000 aaada
b100000 aaadb

#80500
0aaacp

#81000
1aaacp
1aaacr
b101110010110110001001010111000 aaact
b1100 aaacv
b10100 aaada
b1 aaadb

#81500
0aaacp

#82000
1aaacp
b1000001000101100000011101111 aaact
b11101 aaacv
b11 aaada
b11100 aaadb

#82500
0aaacp

#83000
1aaacp
b1001001110000100110101 aaact
b11111 aaacv
b11001 aaada
b110 aaadb

#83500
0aaacp

#84000
1aaacp
0aaacr
b10111001100000100101001100111 aaact
b1001 aaacv
b111 aaada
b100000 aaadb

#84500
0aaacp

#85000
1aaacp
1aaacr
b1110001010010000010010101000101 aaact
0aaacu
b1100 aaacv
b1101 aaada
b1111 aaadb

#85500
0aaacp

#86000
1aaacp
b1110011101110111101011111111000 aaact
b100000 aaacv
b10001 aaada
b10001 aaadb

#86500
0aaacp

#87000
1aaacp
b1011110100101100011100010010110 aaact
1aaacu
b0 aaacv
b10100 aaada
b1111 aaadb

#87500
0aaacp

#88000
1aaacp
0aaacr
b111111010010001011100110000010 aaact
0aaacu
b1000 aaacv
b10101 aaada
b10100 aaadb

#88500
0aaacp

#89000
1aaacp
b1010100000111110010100011001101 aaact
b1011 aaacv
b1000 aaada
b10000 aaadb

#89500
0aaacp

#90000
1aaacp
b1010001101000100111101010100110 aaact
b100 aaacv
b11001 aaada
b1011 aaadb

#90500
0aaacp

#91000
1aaacp
b111100001110110111001010110010 aaact
1aaacu
b11 aaacv
b1110 aaada
b1 aaadb

#91500
0aaacp

#92000
1aaacp
1aaacr
b110100110011000011101011001111 aaact
0aaacu
b1111 aaacv
b11001 aaada
b11101 aaadb

#92500
0aaacp

#93000
1aaacp
b1001010000111010110000001101110 aaact
b1110 aaacv
b10110 aaada
b1010 aaadb

#93500
0aaacp

#94000
1aaacp
b1110011010110011111101101010 aaact
1aaacu
b11110 aaacv
b10100 aaada
b10100 aaadb

#94500
0aaacp

#95000
1aaacp
b1010001100111101011100101001100 aaact
b100000 aaacv
b10001 aaada
b10101 aaadb

#95500
0aaacp

#96000
1aaacp
0aaacr
b10001111000000010010011010 aaact
0aaacu
b111 aaacv
b100 aaada
b1001 aaadb

#96500
0aaacp

#97000
1aaacp
1aaacr
b111101000110100010110111011001 aaact
b110 aaacv
b11110 aaada
b1000 aaadb

#97500
0aaacp

#98000
1aaacp
b11100011111100011110000000001 aaact
b11101 aaacv
b11111 aaada
b1111 aaadb

#98500
0aaacp

#99000
1aaacp
b111000001000101100101100000001 aaact
1aaacu
b10100 aaacv
b10 aaada
b10011 aaadb

#99500
0aaacp

#100000
1aaacp
b101010101100100110010110000111 aaact
0aaacu
b1100 aaacv
b10010 aaada
b10110 aaadb

#100500
0aaacp

#101000
1aaacp
0aaacr
b1110001001100010101001101101001 aaact
b10100 aaacv
b10000 aaada
b1100 aaadb

#101500
0aaacp

#102000
1aaacp
b1110011110011111110000101100101 aaact
1aaacu
b10000 aaacv
b10 aaada
b0 aaadb

#102500
0aaacp

#103000
1aaacp
1aaacr
b1000111110001111100100101110001 aaact
b1 aaacv
b111 aaada
b1101 aaadb

#103500
0aaacp

#104000
1aaacp
0aaacr
b1010011101100100101011001001111 aaact
b10000 aaacv
b10011 aaada
b111 aaadb

#104500
0aaacp

#105000
1aaacp
1aaacr
b101111110100001010110110000001 aaact
b11101 aaacv
b10100 aaada
b10010 aaadb

#105500
0aaacp

#106000
1aaacp
b111100010001011110110011011 aaact
b10000 aaacv
b10001 aaada
b1011 aaadb

#106500
0aaacp

#107000
1aaacp
0aaacr
b1001010010101000101111110 aaact
0aaacu
b1011 aaacv
b1 aaada
b1111 aaadb

#107500
0aaacp

#108000
1aaacp
b10110001001101111101110001100 aaact
b111 aaacv
b10100 aaada
b100000 aaadb

#108500
0aaacp

#109000
1aaacp
b10011111000100001000000000010 aaact
b11010 aaacv
b0 aaada
b1111 aaadb

#109500
0aaacp

#110000
1aaacp
1aaacr
b111100111001110011001011101100 aaact
b1100 aaacv
b1001 aaada
b1001 aaadb

#110500
0aaacp

#111000
1aaacp
b1011011111111010100001000010000 aaact
b100000 aaacv
b1101 aaada
b11 aaadb

#111500
0aaacp

#112000
1aaacp
b1010000001001001101111001011011 aaact
b0 aaacv
b10110 aaada
b11010 aaadb

#112500
0aaacp

#113000
1aaacp
b10100100101011110010100001010 aaact
b11010 aaacv
b10000 aaada
b101 aaadb

#113500
0aaacp

#114000
1aaacp
0aaacr
b1001110100111101111101100001101 aaact
1aaacu
b10001 aaacv
b11110 aaada
b10010 aaadb

#114500
0aaacp

#115000
1aaacp
b11111001111011010010011010101 aaact
0aaacu
b1110 aaacv
b0 aaada
b1 aaadb

#115500
0aaacp

#116000
1aaacp
b1101000001011011111111011010110 aaact
b11110 aaacv
b10 aaada
b11011 aaadb

#116500
0aaacp

#117000
1aaacp
1aaacr
b11001101110001010000010001110 aaact
b11011 aaacv
b1110 aaada
b10111 aaadb

#117500
0aaacp

#118000
1aaacp
b101011101101011011000111000110 aaact
b11101 aaacv
b10101 aaada
b11110 aaadb

#118500
0aaacp

#119000
1aaacp
b1110011101111000110011101110000 aaact
1aaacu
b110 aaacv
b10001 aaada
b101 aaadb

#119500
0aaacp

#120000
1aaacp
b1001011101010011000001100011010 aaact
b11110 aaacv
b11010 aaada
b11010 aaadb

#120500
0aaacp

#121000
1aaacp
0aaacr
b1001011011010000011110100001101 aaact
b11111 aaacv
b11110 aaada
b10110 aaadb

#121500
0aaacp

#122000
1aaacp
b111100000010011101010010100001 aaact
0aaacu
b11101 aaacv
b1101 aaada
b11011 aaadb

#122500
0aaacp

#123000
1aaacp
b1101000011000111110100011010010 aaact
b1 aaacv
b11101 aaada
b100000 aaadb

#123500
0aaacp

#124000
1aaacp
1aaacr
b100001110100000110001001010101 aaact
1aaacu
b1111 aaacv
b10101 aaada
b10 aaadb

#124500
0aaacp

#125000
1aaacp
b11010010101001101011110111100 aaact
0aaacu
b100000 aaacv
b11111 aaada
b11 aaadb

#125500
0aaacp

#126000
1aaacp
0aaacr
b111000101111110101001111100101 aaact
1aaacu
b0 aaacv
b11010 aaada
b11011 aaadb

#126500
0aaacp

#127000
1aaacp
1aaacr
b100001000010011100110110100100 aaact
b11111 aaacv
b101 aaada
b1010 aaadb

#127500
0aaacp

#128000
1aaacp
0aaacr
b101001001001100010110100011010 aaact
b11101 aaacv
b11000 aaada
b10000 aaadb

#128500
0aaacp

#129000
1aaacp
1aaacr
b1001010111111100100100111011 aaact
0aaacu
b100000 aaacv
b10010 aaada
b1111 aaadb

#129500
0aaacp

#130000
1aaacp
0aaacr
b1111010101111110001100101101010 aaact
1aaacu
b100 aaacv
b11010 aaada
b10 aaadb

#130500
0aaacp

#131000
1aaacp
1aaacr
b101001100101011001000111 aaact
0aaacu
b11111 aaacv
b10001 aaada
b0 aaadb

#131500
0aaacp

#132000
1aaacp
0aaacr
b111011110101100001010111101011 aaact
b10000 aaacv
b10010 aaada
b10010 aaadb

#132500
0aaacp

#133000
1aaacp
b1010110011011111101011000000 aaact
1aaacu
b11110 aaacv
b101 aaada
b1111 aaadb

#133500
0aaacp

#134000
1aaacp
b1101111000010010011100111111000 aaact
0aaacu
b11010 aaacv
b11 aaada
b10110 aaadb

#134500
0aaacp

#135000
1aaacp
b1001010000011111111101000010001 aaact
1aaacu
b1001 aaacv
b100000 aaada
b11001 aaadb

#135500
0aaacp

#136000
1aaacp
1aaacr
b1111001001001001100101000001010 aaact
0aaacu
b1101 aaacv
b11101 aaada
b1 aaadb

#136500
0aaacp

#137000
1aaacp
0aaacr
b1011111100101001101110000000011 aaact
1aaacu
b110 aaacv
b1011 aaada
b1001 aaadb

#137500
0aaacp

#138000
1aaacp
1aaacr
b1111101100101001111011101011101 aaact
b100000 aaacv
b1010 aaada
b11110 aaadb

#138500
0aaacp

#139000
1aaacp
0aaacr
b1010011101101110011010111010101 aaact
0aaacu
b10101 aaacv
b110 aaada
b10 aaadb

#139500
0aaacp

#140000
1aaacp
b10001100001111100011100001111 aaact
b1111 aaacv
b1111 aaada
b1100 aaadb

#140500
0aaacp

#141000
1aaacp
1aaacr
b1010101100010111011000100001101 aaact
1aaacu
b110 aaacv
b1011 aaada
b1111 aaadb

#141500
0aaacp

#142000
1aaacp
b100111001011101110010110101 aaact
0aaacu
b1010 aaacv
b10010 aaada
b10001 aaadb

#142500
0aaacp

#143000
1aaacp
0aaacr
b100111011101001010001000001001 aaact
1aaacu
b1011 aaacv
b100 aaada
b1111 aaadb

#143500
0aaacp

#144000
1aaacp
1aaacr
b1010110001101000111111111011 aaact
b0 aaacv
b100000 aaada
b11110 aaadb

#144500
0aaacp

#145000
1aaacp
b1000000001011011001100110001 aaact
0aaacu
b1000 aaacv
b101 aaada
b100 aaadb

#145500
0aaacp

#146000
1aaacp
b110001101010011101101101110110 aaact
b11010 aaacv
b100 aaada
b11110 aaadb

#146500
0aaacp

#147000
1aaacp
b1101001010001010100000000100001 aaact
1aaacu
b10001 aaacv
b10010 aaada
b0 aaadb

#147500
0aaacp

#148000
1aaacp
b110000111000011011000111001111 aaact
b11101 aaacv
b10100 aaada
b1011 aaadb

#148500
0aaacp

#149000
1aaacp
b1101100101101001110111010011100 aaact
0aaacu
b10110 aaacv
b11110 aaada
b10000 aaadb

#149500
0aaacp

#150000
1aaacp
b1000000010011101010111101001010 aaact
1aaacu
b10010 aaacv
b10011 aaada
b110 aaadb

#150500
0aaacp

#151000
1aaacp
b10001110010101100011101001010 aaact
b1100 aaacv
b100000 aaada
b11100 aaadb

#151500
0aaacp

#152000
1aaacp
b10111100011100010010000001101 aaact
b11100 aaacv
b1 aaada
b10010 aaadb

#152500
0aaacp

#153000
1aaacp
0aaacr
b111101011010010101011001011011 aaact
0aaacu
b10101 aaacv
b10001 aaada
b11000 aaadb

#153500
0aaacp

#154000
1aaacp
b11100011001111100101100111101 aaact
b10000 aaacv
b10010 aaada
b1001 aaadb

#154500
0aaacp

#155000
1aaacp
b1000111110011110001011011000100 aaact
b1111 aaacv
b110 aaada
b1100 aaadb

#155500
0aaacp

#156000
1aaacp
b1101010100100010010011010110101 aaact
1aaacu
b10010 aaacv
b1001 aaada
b11 aaadb

#156500
0aaacp

#157000
1aaacp
b1100001110000110000001101100001 aaact
b10001 aaacv
b1100 aaada
b10111 aaadb

#157500
0aaacp

#158000
1aaacp
1aaacr
b10110111010010000100011001000 aaact
b1001 aaacv
b11 aaada
b1111 aaadb

#158500
0aaacp

#159000
1aaacp
0aaacr
b101001101100001110100110101000 aaact
b11110 aaacv
b11111 aaada
b10100 aaadb

#159500
0aaacp

#160000
1aaacp
b110011000010110001001100110011 aaact
b0 aaacv
b100 aaada
b0 aaadb

#160500
0aaacp

#161000
1aaacp
b1110011011001011111000111101110 aaact
b11000 aaacv
b1 aaada
b100000 aaadb

#161500
0aaacp

#162000
1aaacp
1aaacr
b100101011011100110011101001001 aaact
0aaacu
b11110 aaacv
b10 aaada
b0 aaadb

#162500
0aaacp

#163000
1aaacp
b1011111111011011100000011100011 aaact
b1101 aaacv
b0 aaada
b110 aaadb

#163500
0aaacp

#164000
1aaacp
b100101100001101010010010011000 aaact
b0 aaacv
b10100 aaada
b11000 aaadb

#164500
0aaacp

#165000
1aaacp
b1010011010000110100011110101000 aaact
b11110 aaacv
b10110 aaada
b1110 aaadb

#165500
0aaacp

#166000
1aaacp
0aaacr
b1110011101011001110100011010 aaact
b11111 aaacv
b100000 aaada
b11011 aaadb

#166500
0aaacp

#167000
1aaacp
b111011101000000111100101001011 aaact
1aaacu
b1010 aaacv
b1110 aaada
b10 aaadb

#167500
0aaacp

#168000
1aaacp
1aaacr
b1101011010000110001111100100101 aaact
b11010 aaacv
b1 aaada
b1001 aaadb

#168500
0aaacp

#169000
1aaacp
0aaacr
b111010100001101101010001000101 aaact
b1100 aaacv
b100 aaada
b10110 aaadb

#169500
0aaacp

#170000
1aaacp
1aaacr
b100010011001000011111010101001 aaact
b10101 aaacv
b1101 aaadb

#170500
0aaacp

#171000
1aaacp
0aaacr
b11100000011010100010001110101 aaact
0aaacu
b10100 aaacv
b1011 aaada
b101 aaadb

#171500
0aaacp

#172000
1aaacp
1aaacr
b1100000100101010110001111111 aaact
b1110 aaacv
b11111 aaada
b1001 aaadb

#172500
0aaacp

#173000
1aaacp
0aaacr
b10111000011101011010100101011 aaact
b1001 aaacv
b101 aaada
b1100 aaadb

#173500
0aaacp

#174000
1aaacp
1aaacr
b110001011100100011101111110101 aaact
b11001 aaacv
b1101 aaada
b11101 aaadb

#174500
0aaacp

#175000
1aaacp
0aaacr
b1101111110110101110001011011 aaact
b10010 aaacv
b1010 aaada
b1000 aaadb

#175500
0aaacp

#176000
1aaacp
1aaacr
b111010010101000001000000010001 aaact
b1100 aaacv
b10111 aaada
b10000 aaadb

#176500
0aaacp

#177000
1aaacp
0aaacr
b10101000000000010010000111 aaact
1aaacu
b101 aaacv
b11111 aaada
b101 aaadb

#177500
0aaacp

#178000
1aaacp
1aaacr
b10111100001101100100101110100 aaact
b11 aaacv
b11010 aaada
b11010 aaadb

#178500
0aaacp

#179000
1aaacp
b110100010110010110010010001111 aaact
b101 aaacv
b10111 aaada
b10110 aaadb

#179500
0aaacp

#180000
1aaacp
0aaacr
b1100110110100000010000111001010 aaact
0aaacu
b1110 aaacv
b101 aaada
b11010 aaadb

#180500
0aaacp

#181000
1aaacp
b101101110110101010011110010001 aaact
b10100 aaacv
b1111 aaada
b1010 aaadb

#181500
0aaacp

#182000
1aaacp
1aaacr
b11000100010111111101100011001 aaact
1aaacu
b101 aaacv
b10100 aaada
b11110 aaadb

#182500
0aaacp

#183000
1aaacp
b1000001001000000101001001101001 aaact
0aaacu
b1010 aaacv
b11100 aaada
b0 aaadb

#183500
0aaacp

#184000
1aaacp
b1011111110101001011000101010100 aaact
1aaacu
b11010 aaacv
b10000 aaada
b11100 aaadb

#184500
0aaacp

#185000
1aaacp
b1000110110000000001101100000101 aaact
0aaacu
b10100 aaada
b101 aaadb

#185500
0aaacp

#186000
1aaacp
b1000110001100011011000000 aaact
b100 aaacv
b111 aaada
b10001 aaadb

