CORE/REG/tf.vcd
$date
     Feb 20, 2022       18:44:30
$end

$version
 SystemC 2.3.3-Accellera --- Feb  9 2022 00:40:45
$end

$timescale
     1 ps
$end

$scope module SystemC $end
$scope module reg_inst $end
$var wire   32  aaaaa  REG_0 [31:0]  $end
$var wire   32  aaaab  REG_1 [31:0]  $end
$var wire   32  aaaac  REG_2 [31:0]  $end
$var wire   32  aaaad  REG_3 [31:0]  $end
$var wire   32  aaaae  REG_4 [31:0]  $end
$var wire   32  aaaaf  REG_5 [31:0]  $end
$var wire   32  aaaag  REG_6 [31:0]  $end
$var wire   32  aaaah  REG_7 [31:0]  $end
$var wire   32  aaaai  REG_8 [31:0]  $end
$var wire   32  aaaaj  REG_9 [31:0]  $end
$var wire   32  aaaak  REG_10 [31:0]  $end
$var wire   32  aaaal  REG_11 [31:0]  $end
$var wire   32  aaaam  REG_12 [31:0]  $end
$var wire   32  aaaan  REG_13 [31:0]  $end
$var wire   32  aaaao  REG_14 [31:0]  $end
$var wire   32  aaaap  REG_15 [31:0]  $end
$var wire   32  aaaaq  REG_16 [31:0]  $end
$var wire   32  aaaar  REG_17 [31:0]  $end
$var wire   32  aaaas  REG_18 [31:0]  $end
$var wire   32  aaaat  REG_19 [31:0]  $end
$var wire   32  aaaau  REG_20 [31:0]  $end
$var wire   32  aaaav  REG_21 [31:0]  $end
$var wire   32  aaaaw  REG_22 [31:0]  $end
$var wire   32  aaaax  REG_23 [31:0]  $end
$var wire   32  aaaay  REG_24 [31:0]  $end
$var wire   32  aaaaz  REG_25 [31:0]  $end
$var wire   32  aaaba  REG_26 [31:0]  $end
$var wire   32  aaabb  REG_27 [31:0]  $end
$var wire   32  aaabc  REG_28 [31:0]  $end
$var wire   32  aaabd  REG_29 [31:0]  $end
$var wire   32  aaabe  REG_30 [31:0]  $end
$var wire   32  aaabf  REG_31 [31:0]  $end
$var wire   32  aaabg  REG_32 [31:0]  $end
$var wire    1  aaabh  REG_VALID_0       $end
$var wire    1  aaabi  REG_VALID_1       $end
$var wire    1  aaabj  REG_VALID_2       $end
$var wire    1  aaabk  REG_VALID_3       $end
$var wire    1  aaabl  REG_VALID_4       $end
$var wire    1  aaabm  REG_VALID_5       $end
$var wire    1  aaabn  REG_VALID_6       $end
$var wire    1  aaabo  REG_VALID_7       $end
$var wire    1  aaabp  REG_VALID_8       $end
$var wire    1  aaabq  REG_VALID_9       $end
$var wire    1  aaabr  REG_VALID_10       $end
$var wire    1  aaabs  REG_VALID_11       $end
$var wire    1  aaabt  REG_VALID_12       $end
$var wire    1  aaabu  REG_VALID_13       $end
$var wire    1  aaabv  REG_VALID_14       $end
$var wire    1  aaabw  REG_VALID_15       $end
$var wire    1  aaabx  REG_VALID_16       $end
$var wire    1  aaaby  REG_VALID_17       $end
$var wire    1  aaabz  REG_VALID_18       $end
$var wire    1  aaaca  REG_VALID_19       $end
$var wire    1  aaacb  REG_VALID_20       $end
$var wire    1  aaacc  REG_VALID_21       $end
$var wire    1  aaacd  REG_VALID_22       $end
$var wire    1  aaace  REG_VALID_23       $end
$var wire    1  aaacf  REG_VALID_24       $end
$var wire    1  aaacg  REG_VALID_25       $end
$var wire    1  aaach  REG_VALID_26       $end
$var wire    1  aaaci  REG_VALID_27       $end
$var wire    1  aaacj  REG_VALID_28       $end
$var wire    1  aaack  REG_VALID_29       $end
$var wire    1  aaacl  REG_VALID_30       $end
$var wire    1  aaacm  REG_VALID_31       $end
$var wire    1  aaacn  REG_VALID_32       $end
$var wire    1  aaaco  RESET_N       $end
$var wire    1  aaacp  CLK       $end
$var wire    1  aaacq  READ_PC_VALID       $end
$var wire   32  aaacr  READ_PC [31:0]  $end
$var wire    1  aaacs  INVAL_ENABLE       $end
$var wire    6  aaact  INVAL_ADR [5:0]  $end
$var wire   32  aaacu  WADR1_DATA [31:0]  $end
$var wire    1  aaacv  WADR1_VALID       $end
$var wire    6  aaacw  WADR1 [5:0]  $end
$var wire   32  aaacx  RADR2_DATA [31:0]  $end
$var wire   32  aaacy  RADR1_DATA [31:0]  $end
$var wire    1  aaacz  RADR2_VALID       $end
$var wire    1  aaada  RADR1_VALID       $end
$var wire    6  aaadb  RADR2 [5:0]  $end
$var wire    6  aaadc  RADR1 [5:0]  $end
$upscope $end
$upscope $end
$enddefinitions  $end

$comment
All initial values are dumped below at time 0 sec = 0 timescale units.
$end

$dumpvars
b0 aaaaa
b0 aaaab
b0 aaaac
b0 aaaad
b0 aaaae
b0 aaaaf
b0 aaaag
b0 aaaah
b0 aaaai
b0 aaaaj
b0 aaaak
b0 aaaal
b0 aaaam
b0 aaaan
b0 aaaao
b0 aaaap
b0 aaaaq
b0 aaaar
b0 aaaas
b0 aaaat
b0 aaaau
b0 aaaav
b0 aaaaw
b0 aaaax
b0 aaaay
b0 aaaaz
b0 aaaba
b0 aaabb
b0 aaabc
b0 aaabd
b0 aaabe
b0 aaabf
b0 aaabg
1aaabh
1aaabi
1aaabj
1aaabk
1aaabl
1aaabm
1aaabn
1aaabo
1aaabp
1aaabq
1aaabr
1aaabs
1aaabt
1aaabu
1aaabv
1aaabw
1aaabx
1aaaby
1aaabz
1aaaca
1aaacb
1aaacc
1aaacd
1aaace
1aaacf
1aaacg
1aaach
1aaaci
1aaacj
1aaack
1aaacl
1aaacm
1aaacn
0aaaco
1aaacp
1aaacq
b0 aaacr
0aaacs
b0 aaact
b0 aaacu
0aaacv
b0 aaacw
b0 aaacx
b0 aaacy
1aaacz
1aaada
b0 aaadb
b0 aaadc
$end

#500
0aaacp

#1000
1aaacp

#1500
0aaacp

#2000
1aaacp

#2500
0aaacp

#3000
b1110100101100001101110001010001 aaaag
1aaaco
1aaacp
b110 aaact
b1110100101100001101110001010001 aaacu
1aaacv
b110 aaacw
b1010 aaadb
b11100 aaadc

#3500
0aaacp

#4000
b101110101100010100000111110010 aaaai
0aaabl
1aaacp
1aaacs
b100 aaact
b101110101100010100000111110010 aaacu
b1000 aaacw
b1 aaadb
b11 aaadc

#4500
0aaacp

#5000
1aaacp
b0 aaact
b10000101100010001100011011 aaacu
0aaacv
b1101 aaacw
b10101 aaadb
b1001 aaadc

#5500
0aaacp

#6000
b1111111110111001100001000110011 aaaal
0aaabz
1aaacp
b10010 aaact
b1111111110111001100001000110011 aaacu
1aaacv
b1011 aaacw
b10001 aaadb
b11010 aaadc

#6500
0aaacp

#7000
b111111001011011011101000110001 aaabd
0aaabr
1aaacp
b1010 aaact
b111111001011011011101000110001 aaacu
b11101 aaacw
b11 aaadb
b10101 aaadc

#7500
0aaacp

#8000
b100100010000111010100001011000 aaaap
1aaacp
0aaacs
b10100 aaact
b100100010000111010100001011000 aaacu
b1111 aaacw
0aaada
b10101 aaadb
b10010 aaadc

#8500
0aaacp

#9000
1aaacp
b110 aaact
b11000100110100111011010011011 aaacu
0aaacv
b1000 aaacw
b1110100101100001101110001010001 aaacx
b111111001011011011101000110001 aaacy
1aaada
b110 aaadb
b11101 aaadc

#9500
0aaacp

#10000
b11110011111111111010100100001 aaaaq
1aaacp
b11 aaact
b11110011111111111010100100001 aaacu
1aaacv
b10000 aaacw
b0 aaacx
b0 aaacy
b101 aaadb
b10001 aaadc

#10500
0aaacp

#11000
b1000001100110101100001001000001 aaaak
1aaabr
1aaacp
b10101 aaact
b1000001100110101100001001000001 aaacu
b1010 aaacw
b10100 aaadb

#11500
0aaacp

#12000
b100100011000111011100111101010 aaaal
0aaacb
1aaacp
1aaacs
b10100 aaact
b100100011000111011100111101010 aaacu
b1011 aaacw
b100100010000111010100001011000 aaacx
b1111 aaadb
b1001 aaadc

#12500
0aaacp

#13000
0aaacn
1aaacp
0aaacq
b100000 aaact
b1101010001000110100001011101100 aaacu
0aaacv
b1111 aaacw
b0 aaacx
b1100 aaadb
b111 aaadc

#13500
0aaacp

#14000
1aaacp
b100 aaact
b1010100001000101000100111101100 aaacu
b110 aaacw
b111 aaadb
b1110 aaadc

#14500
0aaacp

#15000
b111101110000100100000011111011 aaabb
1aaacp
0aaacs
b111 aaact
b111101110000100100000011111011 aaacu
1aaacv
b11011 aaacw
b11110011111111111010100100001 aaacy
b1001 aaadb
b10000 aaadc

#15500
0aaacp

#16000
1aaacp
b10111 aaact
b1001111010011101111000000000101 aaacu
0aaacv
b11010 aaacw
b0 aaacy
0aaacz
b10010 aaadb
b101 aaadc

#16500
0aaacp

#17000
b1000111001110011000110010001001 aaaai
1aaacp
b10100 aaact
b1000111001110011000110010001001 aaacu
1aaacv
b1000 aaacw
b111111001011011011101000110001 aaacx
b1000001100110101100001001000001 aaacy
1aaacz
b11101 aaadb
b1010 aaadc

#17500
0aaacp

#18000
b1111110000011000101011110110001 aaaap
0aaabj
1aaacp
1aaacs
b10 aaact
b1111110000011000101011110110001 aaacu
b1111 aaacw
b0 aaacx
b0 aaacy
0aaada
b11000 aaadb
b100 aaadc

#18500
0aaacp

#19000
1aaacp
0aaacs
b10001 aaact
b1001010110100001000010011101001 aaacu
0aaacv
b10101 aaacw
1aaada
b10011 aaadb
b10101 aaadc

#19500
0aaacp

#20000
1aaacp
b10100 aaact
b1001100010100011000101001000 aaacu
b1011 aaacw
b1000001100110101100001001000001 aaacy
b1110 aaadb
b1010 aaadc

#20500
0aaacp

#21000
1aaacp
b11110 aaact
b1010100000010100100011100011100 aaacu
b1001 aaacw
b0 aaacy
b11010 aaadb
b10101 aaadc

#21500
0aaacp

#22000
b1000111100101011000101011110 aaaau
1aaacb
0aaach
1aaacp
1aaacs
b11010 aaact
b1000111100101011000101011110 aaacu
1aaacv
b10100 aaacw
0aaacz
0aaada
b10010 aaadc

#22500
0aaacp

#23000
0aaacm
1aaacp
b11111 aaact
b1111111111111111100101000010001 aaacu
0aaacv
b1000 aaacw
1aaacz
b11100 aaadb
b100000 aaadc

#23500
0aaacp

#24000
0aaabw
1aaacp
b1111 aaact
b100010000101111000011011 aaacu
b11011 aaacw
b100100011000111011100111101010 aaacy
1aaada
b1 aaadb
b1011 aaadc

#24500
0aaacp

#25000
0aaacg
1aaacp
b11001 aaact
b101101111101101101011001001000 aaacu
b1001 aaacw
b0 aaacy
0aaada
b1101 aaadb
b10 aaadc

#25500
0aaacp

#26000
b100110111100110010010010111010 aaabe
0aaaca
1aaacp
b10011 aaact
b100110111100110010010010111010 aaacu
1aaacv
b11110 aaacw
b1000111001110011000110010001001 aaacx
1aaada
b1000 aaadb
b1110 aaadc

#26500
0aaacp

#27000
1aaacp
0aaacs
b11000 aaact
b1101010101001111000111101111111 aaacu
0aaacv
b11010 aaacw
b0 aaacx
b100110111100110010010010111010 aaacy
0aaacz
b10011 aaadb
b11110 aaadc

#27500
0aaacp

#28000
b1010101010111000101010110110101 aaaak
1aaacp
b10011 aaact
b1010101010111000101010110110101 aaacu
1aaacv
b1010 aaacw
b1000111100101011000101011110 aaacy
1aaacz
b111 aaadb
b10100 aaadc

#28500
0aaacp

#29000
1aaacp
1aaacs
b0 aaact
b1010000100100101100101001111001 aaacu
0aaacv
b1100 aaacw
b0 aaacy
b1 aaadb
b11100 aaadc

#29500
0aaacp

#30000
b11100101000001100010111111010 aaaas
1aaabz
1aaacp
0aaacs
b10100 aaact
b11100101000001100010111111010 aaacu
1aaacv
b10010 aaacw
b1000111001110011000110010001001 aaacy
b10101 aaadb
b1000 aaadc

#30500
0aaacp

#31000
b111100010110011001000110101010 aaaac
1aaabj
0aaabp
1aaacp
1aaacs
b1000 aaact
b111100010110011001000110101010 aaacu
b10 aaacw
b1110100101100001101110001010001 aaacx
b0 aaacy
b110 aaadb
b1101 aaadc

#31500
0aaacp

#32000
b101100001001110001011100111011 aaaat
1aaaca
1aaacp
0aaacs
b100000 aaact
b101100001001110001011100111011 aaacu
b10011 aaacw
b0 aaacx
0aaacz
b11010 aaadb
b10101 aaadc

#32500
0aaacp

#33000
b1011011001001011010110011100010 aaabg
1aaacn
1aaacp
1aaacq
b1011011001001011010110011100010 aaacr
b111 aaact
b1011011001001011010110011100010 aaacu
b100000 aaacw
1aaacz
b0 aaadb
b1110 aaadc

#33500
0aaacp

#34000
b101100011011100100101011111101 aaaad
1aaacp
b11010 aaact
b101100011011100100101011111101 aaacu
b11 aaacw
b101100001001110001011100111011 aaacx
b100100011000111011100111101010 aaacy
b10011 aaadb
b1011 aaadc

#34500
0aaacp

#35000
1aaacp
b10110 aaact
b1110101111000001000010110001010 aaacu
0aaacv
b10011 aaacw
b1000111100101011000101011110 aaacx
b0 aaacy
b10100 aaadb
b10101 aaadc

#35500
0aaacp

#36000
b1010111110100101111000100001110 aaaba
1aaach
1aaacp
b11011 aaact
b1010111110100101111000100001110 aaacu
1aaacv
b11010 aaacw
b111100010110011001000110101010 aaacx
b111101110000100100000011111011 aaacy
b10 aaadb
b11011 aaadc

#36500
0aaacp

#37000
0aaack
1aaacp
1aaacs
b11101 aaact
b1100011010011000101011101001100 aaacu
0aaacv
b11011 aaacw
b111111001011011011101000110001 aaacx
b0 aaacy
0aaacz
b11101 aaadb
b1110 aaadc

#37500
0aaacp

#38000
0aaach
1aaacp
b11010 aaact
b11000000101101111100011000100 aaacu
b11111 aaacw
b0 aaacx
1aaacz
b10110 aaadb
b1100 aaadc

#38500
0aaacp

#39000
1aaacp
0aaacs
b11100 aaact
b110001001000010110011110101101 aaacu
1aaacv
b0 aaacw
b111100010110011001000110101010 aaacy
b1 aaadb
b10 aaadc

#39500
0aaacp

#40000
1aaacp
b1100 aaact
b100110000011011000110001001010 aaacu
0aaacv
b11010 aaacw
b1000111100101011000101011110 aaacy
b10001 aaadb
b10100 aaadc

#40500
0aaacp

#41000
0aaace
1aaacp
1aaacs
b10111 aaact
b1101110101010101000010111111011 aaacu
b11000 aaacw
b101100001001110001011100111011 aaacx
b11100101000001100010111111010 aaacy
b10011 aaadb
b10010 aaadc

#41500
0aaacp

#42000
b1011101001000000101111000100000 aaaam
1aaacp
0aaacs
b1011 aaact
b1011101001000000101111000100000 aaacu
1aaacv
b1100 aaacw
b0 aaacx
b0 aaacy
b11100 aaadb
b1 aaadc

#42500
0aaacp

#43000
1aaacp
1aaacs
b11111 aaact
b111111110011111010111011011001 aaacu
0aaacv
b1101 aaacw
b100110111100110010010010111010 aaacx
b111101110000100100000011111011 aaacy
b11110 aaadb
b11011 aaadc

#43500
0aaacp

#44000
b1101011000111010010110000010100 aaabf
0aaabz
1aaacm
1aaacp
b10010 aaact
b1101011000111010010110000010100 aaacu
1aaacv
b11111 aaacw
b0 aaacx
b0 aaacy
b1110 aaadb
b10101 aaadc

#44500
0aaacp

#45000
1aaacp
0aaacs
b100000 aaact
b10011010110111000000100010000 aaacu
0aaacv
b10101 aaacw
b1000111100101011000101011110 aaacx
b1000111001110011000110010001001 aaacy
0aaada
b10100 aaadb
b1000 aaadc

#45500
0aaacp

#46000
1aaacp
b101 aaact
b110110101100101010110010111100 aaacu
b11 aaacw
b101100001001110001011100111011 aaacx
b0 aaacy
1aaada
b10011 aaadb
b1110 aaadc

#46500
0aaacp

#47000
b1110001000001110101011111010000 aaabg
1aaacp
b1110001000001110101011111010000 aaacr
b1110001000001110101011111010000 aaacu
1aaacv
b100000 aaacw
b1111110000011000101011110110001 aaacx
0aaacz
b1111 aaadb
b11100 aaadc

#47500
0aaacp

#48000
0aaacm
1aaacp
1aaacs
b11111 aaact
b11111010001100001101101010001 aaacu
0aaacv
b11000 aaacw
b111100010110011001000110101010 aaacx
b1110001000001110101011111010000 aaacy
1aaacz
b10 aaadb
b100000 aaadc

#48500
0aaacp

#49000
0aaabm
1aaacp
b101 aaact
b110100100101001011001011111011 aaacu
b10001 aaacw
b0 aaacx
b1110100101100001101110001010001 aaacy
0aaacz
b100 aaadb
b110 aaadc

#49500
0aaacp

#50000
0aaacj
1aaacp
b11100 aaact
b110010010101111010010011011 aaacu
b11100 aaacw
b0 aaacy
1aaacz
b1 aaadb
b1001 aaadc

#50500
0aaacp

#51000
b1100101111100101101111101001 aaaac
1aaacp
0aaacs
b1001 aaact
b1100101111100101101111101001 aaacu
1aaacv
b10 aaacw
b1000111001110011000110010001001 aaacy
0aaacz
0aaada
b11001 aaadb
b1000 aaadc

#51500
0aaacp

#52000
1aaacp
b111010100101100110110011010000 aaacu
0aaacv
b111 aaacw
b101100001001110001011100111011 aaacx
b0 aaacy
1aaacz
1aaada
b10011 aaadb
b111 aaadc

#52500
0aaacp

#53000
1aaacp
b1001100001010100111000101100110 aaacu
b1010 aaacw
b1010101010111000101010110110101 aaacx
b111101110000100100000011111011 aaacy
b1010 aaadb
b11011 aaadc

#53500
0aaacp

#54000
b1001111001110001111001001100101 aaabe
1aaacp
b10010 aaact
b1001111001110001111001001100101 aaacu
1aaacv
b11110 aaacw
b0 aaacx
b1010101010111000101010110110101 aaacy
b1110 aaadb
b1010 aaadc

#54500
0aaacp

#55000
b111101101010010111000001000100 aaaal
1aaacp
b1110 aaact
b111101101010010111000001000100 aaacu
b1011 aaacw
b101100011011100100101011111101 aaacx
b0 aaacy
b11 aaadb
b1101 aaadc

#55500
0aaacp

#56000
b1010100010111101110010111010011 aaaak
1aaacp
1aaacs
b11001 aaact
b1010100010111101110010111010011 aaacu
b1010 aaacw
b0 aaacx
b1010111110100101111000100001110 aaacy
0aaada
b111 aaadb
b11010 aaadc

#56500
0aaacp

#57000
1aaacp
b0 aaact
b11001010110001011110100010111 aaacu
0aaacv
b1000 aaacw
b1111110000011000101011110110001 aaacx
b1011101001000000101111000100000 aaacy
0aaacz
1aaada
b1111 aaadb
b1100 aaadc

#57500
0aaacp

#58000
b101000011001110111101101111100 aaaai
1aaabp
1aaacp
0aaacs
b10000 aaact
b101000011001110111101101111100 aaacu
1aaacv
b1010100010111101110010111010011 aaacy
b1010 aaadc

#58500
0aaacp

#59000
0aaabr
1aaacp
1aaacs
b1010 aaact
b110000101010101101111111011010 aaacu
0aaacv
b111 aaacw
b111101101010010111000001000100 aaacx
b0 aaacy
1aaacz
b1011 aaadb
b1110 aaadc

#59500
0aaacp

#60000
b1010111110011100110011010110100 aaaag
0aaacf
1aaacp
b11000 aaact
b1010111110011100110011010110100 aaacu
1aaacv
b110 aaacw
b111101101010010111000001000100 aaacy
b1011 aaadc

#60500
0aaacp

#61000
0aaabq
1aaacp
b1001 aaact
b1001111001010010100001110010011 aaacu
0aaacv
b10 aaacw
b0 aaacx
b0 aaacy
0aaacz
0aaada
b101 aaadb
b11001 aaadc

#61500
0aaacp

#62000
1aaacp
b1010 aaact
b10011100100010110111100101101 aaacu
b11100 aaacw
b1000111100101011000101011110 aaacx
1aaacz
1aaada
b10100 aaadb
b0 aaadc

#62500
0aaacp

#63000
b1001001110000100110101 aaabf
0aaabo
1aaacm
1aaacp
b111 aaact
b1001001110000100110101 aaacu
1aaacv
b11111 aaacw
b0 aaacx
b1010111110011100110011010110100 aaacy
0aaacz
b11001 aaadb
b110 aaadc

#63500
0aaacp

#64000
1aaacp
0aaacs
b101 aaact
b1010101011010110110100111101101 aaacu
0aaacv
b1110 aaacw
b0 aaacy
0aaada
b101 aaadb
b1001 aaadc

#64500
0aaacp

#65000
1aaacp
b11110 aaact
b1101010000110110100010111100101 aaacu
b10001 aaacw
b1011101001000000101111000100000 aaacx
b11100101000001100010111111010 aaacy
1aaacz
b1100 aaadb
b10010 aaadc

#65500
0aaacp

#66000
1aaacp
b10101 aaact
b1011110100101100011100010010110 aaacu
1aaacv
b0 aaacw
b1000111100101011000101011110 aaacx
b1111110000011000101011110110001 aaacy
b10100 aaadb
b1111 aaadc

#66500
0aaacp

#67000
1aaacp
b10111 aaact
b1111000001101010110001001101100 aaacu
0aaacv
b1001 aaacw
b11100101000001100010111111010 aaacx
b101000011001110111101101111100 aaacy
0aaacz
1aaada
b10010 aaadb
b1000 aaadc

#67500
0aaacp

#68000
1aaacp
b10101 aaact
b1101111111010010101111010101100 aaacu
b1011 aaacw
b1010111110100101111000100001110 aaacx
b1011101001000000101111000100000 aaacy
b11010 aaadb
b1100 aaadc

#68500
0aaacp

#69000
b111100001110110111001010110010 aaaad
1aaacp
1aaacs
b11001 aaact
b111100001110110111001010110010 aaacu
1aaacv
b11 aaacw
b0 aaacx
b0 aaacy
1aaacz
b1110 aaadb
b1 aaadc

#69500
0aaacp

#70000
b1001100011001110010111111001001 aaaac
1aaacp
0aaacs
b10000 aaact
b1001100011001110010111111001001 aaacu
b10 aaacw
b111101110000100100000011111011 aaacx
b1111110000011000101011110110001 aaacy
0aaada
b11011 aaadb
b1111 aaadc

#70500
0aaacp

#71000
1aaacp
b111 aaact
b1101010100100101110111101001100 aaacu
0aaacv
b10100 aaacw
b0 aaacx
b1010111110011100110011010110100 aaacy
1aaada
b10110 aaadb
b110 aaadc

#71500
0aaacp

#72000
b1010001100111101011100101001100 aaabg
1aaacp
b1010001100111101011100101001100 aaacr
1aaacs
b100 aaact
b1010001100111101011100101001100 aaacu
1aaacv
b100000 aaacw
b0 aaacy
b10001 aaadb
b10101 aaadc

#72500
0aaacp

#73000
1aaacp
0aaacs
b10110 aaact
b1001001011011111011001000011000 aaacu
0aaacv
b1 aaacw
0aaada
b1101 aaadb
b111 aaadc

#73500
0aaacp

#74000
b1010010000001001010000110010001 aaaap
1aaabw
1aaacp
1aaacs
b0 aaact
b1010010000001001010000110010001 aaacu
1aaacv
b1111 aaacw
b101000011001110111101101111100 aaacx
1aaada
b1000 aaadb
b10110 aaadc

#74500
0aaacp

#75000
b111000001000101100101100000001 aaaau
1aaacp
b10010 aaact
b111000001000101100101100000001 aaacu
b10100 aaacw
b1001100011001110010111111001001 aaacx
b101100001001110001011100111011 aaacy
b10 aaadb
b10011 aaadc

#75500
0aaacp

#76000
b11100000011001010011001111100 aaaag
1aaacp
0aaacs
b10011 aaact
b11100000011001010011001111100 aaacu
b110 aaacw
b101100001001110001011100111011 aaacx
b1011101001000000101111000100000 aaacy
b10011 aaadb
b1100 aaadc

#76500
0aaacp

#77000
0aaabk
1aaacp
1aaacs
b11 aaact
b1100011110111100110000011001101 aaacu
b0 aaacw
b0 aaacx
b111111001011011011101000110001 aaacy
0aaada
b10101 aaadb
b11101 aaadc

#77500
0aaacp

#78000
b1000111110001111100100101110001 aaaab
1aaacp
0aaacs
b10011 aaact
b1000111110001111100100101110001 aaacu
b1 aaacw
b0 aaacy
0aaacz
1aaada
b111 aaadb
b1101 aaadc

#78500
0aaacp

#79000
1aaacp
b11100 aaact
b11010111101111111000011101010 aaacu
0aaacv
b0 aaacw
b11110011111111111010100100001 aaacy
b11001 aaadb
b10000 aaadc

#79500
0aaacp

#80000
b1010110100110010101000111111110 aaaal
1aaacp
1aaacs
b1010 aaact
b1010110100110010101000111111110 aaacu
1aaacv
b1011 aaacw
b0 aaacy
1aaacz
0aaada
b0 aaadb
b101 aaadc

#80500
0aaacp

#81000
1aaacp
0aaacs
b10100 aaact
b1001010010101000101111110 aaacu
0aaacv
b1000111110001111100100101110001 aaacx
b1010010000001001010000110010001 aaacy
1aaada
b1 aaadb
b1111 aaadc

#81500
0aaacp

#82000
1aaacp
b11111 aaact
b111110011011011010000111000111 aaacu
b11001 aaacw
b0 aaacy
0aaada
b111 aaadc

#82500
0aaacp

#83000
b1110011001000001001000001110010 aaaaj
1aaabq
1aaacp
b1111 aaact
b1110011001000001001000001110010 aaacu
1aaacv
b1001 aaacw
b0 aaacx
0aaacz
b11001 aaadb
b10111 aaadc

#83500
0aaacp

#84000
0aaacd
1aaacp
1aaacs
b10110 aaact
b1011011111111010100001000010000 aaacu
0aaacv
b100000 aaacw
b111100001110110111001010110010 aaacy
1aaacz
b1101 aaadb
b11 aaadc

#84500
0aaacp

#85000
b10000001101101011001010011111 aaaas
1aaabz
1aaacp
0aaacs
b1010 aaact
b10000001101101011001010011111 aaacu
1aaacv
b10010 aaacw
b0 aaacy
0aaacz
1aaada
b100 aaadb
b0 aaadc

#85500
0aaacp

#86000
b1110101001001011111001010111100 aaaas
1aaacp
1aaacs
b101 aaact
b1110101001001011111001010111100 aaacu
b1010010000001001010000110010001 aaacy
1aaacz
b10001 aaadb
b1111 aaadc

#86500
0aaacp

#87000
0aaabj
1aaacp
b10 aaact
b11111001111011010010011010101 aaacu
0aaacv
b1110 aaacw
b1000111110001111100100101110001 aaacy
b0 aaadb
b1 aaadc

#87500
0aaacp

#88000
1aaacp
b10111 aaact
b101101100111011111010101111101 aaacu
b10100 aaacw
b1001111001110001111001001100101 aaacy
0aaacz
b11001 aaadb
b11110 aaadc

#88500
0aaacp

#89000
b1110001110101100000000110101111 aaabe
1aaacp
0aaacs
b1001 aaact
b1110001110101100000000110101111 aaacu
1aaacv
b11110 aaacw
b11110011111111111010100100001 aaacy
1aaacz
b1101 aaadb
b10000 aaadc

#89500
0aaacp

#90000
b1110011101111000110011101110000 aaaag
1aaacp
b11010 aaact
b1110011101111000110011101110000 aaacu
b110 aaacw
b0 aaacy
0aaada
b10001 aaadb
b101 aaadc

#90500
0aaacp

#91000
b1100111111000111001100100001 aaaaf
1aaabm
0aaacb
1aaacp
1aaacs
b10100 aaact
b1100111111000111001100100001 aaacu
b101 aaacw
b1100111111000111001100100001 aaacx
b1110001110101100000000110101111 aaacy
1aaada
b101 aaadb
b11110 aaadc

#91500
0aaacp

#92000
b111001010111011110000010110 aaabb
0aaabt
1aaacp
b1100 aaact
b111001010111011110000010110 aaacu
b11011 aaacw
b0 aaacx
b0 aaacy
0aaada
b10001 aaadb
b10110 aaadc

#92500
0aaacp

#93000
0aaacc
1aaacp
b10101 aaact
b1101000011000111110100011010010 aaacu
0aaacv
b1 aaacw
b111111001011011011101000110001 aaacx
b1010001100111101011100101001100 aaacy
0aaacz
1aaada
b11101 aaadb
b100000 aaadc

#93500
0aaacp

#94000
b1000100111000101110110101101100 aaaah
1aaabo
0aaacm
1aaacp
b11111 aaact
b1000100111000101110110101101100 aaacu
1aaacv
b111 aaacw
b1110011101111000110011101110000 aaacx
b1010010000001001010000110010001 aaacy
1aaacz
b110 aaadb
b1111 aaadc

#94500
0aaacp

#95000
1aaacp
b10100 aaact
b1010111000001110001011000010011 aaacu
0aaacv
b11011 aaacw
b1001100011001110010111111001001 aaacx
b111100001110110111001010110010 aaacy
0aaacz
0aaada
b10 aaadb
b11 aaadc

#95500
0aaacp

#96000
b100001000010011100110110100100 aaabf
1aaacm
1aaacp
b11000 aaact
b100001000010011100110110100100 aaacu
1aaacv
b11111 aaacw
b1100111111000111001100100001 aaacx
b1010100010111101110010111010011 aaacy
1aaacz
b101 aaadb
b1010 aaadc

#96500
0aaacp

#97000
1aaacp
0aaacs
b11100 aaact
b1000011011011110010101111101011 aaacu
0aaacv
b1111 aaacw
b0 aaacx
b111111001011011011101000110001 aaacy
b10001 aaadb
b11101 aaadc

#97500
0aaacp

#98000
1aaacp
b111 aaact
b1000011111110001110000110101100 aaacu
b10 aaacw
b1110011101111000110011101110000 aaacx
b0 aaacy
b110 aaadb
b10110 aaadc

#98500
0aaacp

#99000
1aaacp
b10010 aaact
b101001100101011001000111 aaacu
b11111 aaacw
b0 aaacx
1aaada
b10001 aaadb
b0 aaadc

#99500
0aaacp

#100000
1aaacp
b1001 aaact
b11000011100100010011000011111 aaacu
b10110 aaacw
b11110011111111111010100100001 aaacy
b10000 aaadc

#100500
0aaacp

#101000
b1011111000101100100010111010 aaaaw
1aaacd
1aaacp
b10000 aaact
b1011111000101100100010111010 aaacu
1aaacv
b1010100010111101110010111010011 aaacx
b0 aaacy
0aaacz
0aaada
b1010 aaadb
b10101 aaadc

#101500
0aaacp

#102000
b1001010000011111111101000010001 aaaaj
1aaacp
1aaacs
b11101 aaact
b1001010000011111111101000010001 aaacu
b1001 aaacw
b1010001100111101011100101001100 aaacx
1aaacz
b100000 aaadb
b11001 aaadc

#102500
0aaacp

#103000
b100011001011111100111101001101 aaabb
1aaacp
b11000 aaact
b100011001011111100111101001101 aaacu
b11011 aaacw
b0 aaacx
1aaada
b0 aaadb
b1101 aaadc

#103500
0aaacp

#104000
1aaacp
b10100 aaact
b1100001011000111110110100001101 aaacu
0aaacv
b11110 aaacw
b1010111110100101111000100001110 aaacx
0aaacz
0aaada
b11010 aaadb
b11100 aaadc

#104500
0aaacp

#105000
1aaacp
0aaacs
b1111 aaact
b1010011101101110011010111010101 aaacu
b10101 aaacw
b1110011101111000110011101110000 aaacx
b1001100011001110010111111001001 aaacy
1aaacz
b110 aaadb
b10 aaadc

#105500
0aaacp

#106000
1aaacp
b11101 aaact
b1110101001101001011111110010 aaacu
b1001 aaacw
b101100001001110001011100111011 aaacx
b1010010000001001010000110010001 aaacy
1aaada
b10011 aaadb
b1111 aaadc

#106500
0aaacp

#107000
1aaacp
1aaacs
b11 aaact
b1100010010101001000111111011000 aaacu
b10001 aaacw
b1010001100111101011100101001100 aaacx
b1001010000011111111101000010001 aaacy
b100000 aaadb
b1001 aaadc

#107500
0aaacp

#108000
b100111011101001010001000001001 aaaal
1aaacp
0aaacs
b100000 aaact
b100111011101001010001000001001 aaacu
1aaacv
b1011 aaacw
b0 aaacx
b1010010000001001010000110010001 aaacy
0aaacz
b100 aaadb
b1111 aaadc

#108500
0aaacp

#109000
b1100100100110010110111000010011 aaaba
1aaach
1aaacp
b10100 aaact
b1100100100110010110111000010011 aaacu
b11010 aaacw
b101100001001110001011100111011 aaacx
b0 aaacy
1aaacz
b10011 aaadb
b0 aaadc

#109500
0aaacp

#110000
b1110110110001000100111001001110 aaabe
1aaacp
b0 aaact
b1110110110001000100111001001110 aaacu
b11110 aaacw
b1010010000001001010000110010001 aaacx
b1011111000101100100010111010 aaacy
b1111 aaadb
b10110 aaadc

#110500
0aaacp

