CORE/tf.vcd
$date
     Apr 05, 2022       14:28:15
$end

$version
 SystemC 2.3.3-Accellera --- Feb  8 2022 20:50:14
$end

$timescale
     1 ps
$end

$scope module SystemC $end
$scope module core_inst $end
$scope module decod $end
$var wire   32  aaaah  rdata1_sd [31:0]  $end
$var wire   32  aaaai  rdata2_sd [31:0]  $end
$var wire    1  aaaaj  r1_valid_sd       $end
$var wire    1  aaaak  r2_valid_sd       $end
$var wire   172  aaaal  dec2exe_out_sd [171:0]  $end
$var wire   32  aaaam  dec2if_in_sd [31:0]  $end
$var wire    1  aaaan  dec2if_push_sd       $end
$var wire    1  aaaao  dec2if_empty_sd       $end
$var wire    1  aaaap  dec2if_full_sd       $end
$var wire   32  aaaaq  dec2if_out_sd [31:0]  $end
$var wire   172  aaaar  dec2exe_in_sd [171:0]  $end
$var wire    1  aaaas  dec2exe_push_sd       $end
$var wire    1  aaaat  dec2exe_full_sd       $end
$var wire    1  aaaau  r_type_inst_sd       $end
$var wire    1  aaaav  i_type_inst_sd       $end
$var wire    1  aaaaw  s_type_inst_sd       $end
$var wire    1  aaaax  b_type_inst_sd       $end
$var wire    1  aaaay  u_type_inst_sd       $end
$var wire    1  aaaaz  j_type_inst_sd       $end
$var wire    1  aaaba  jalr_type_inst_sd       $end
$var wire    1  aaabb  add_i_sd       $end
$var wire    1  aaabc  slt_i_sd       $end
$var wire    1  aaabd  sltu_i_sd       $end
$var wire    1  aaabe  and_i_sd       $end
$var wire    1  aaabf  or_i_sd       $end
$var wire    1  aaabg  xor_i_sd       $end
$var wire    1  aaabh  sll_i_sd       $end
$var wire    1  aaabi  srl_i_sd       $end
$var wire    1  aaabj  sub_i_sd       $end
$var wire    1  aaabk  sra_i_sd       $end
$var wire    1  aaabl  addi_i_sd       $end
$var wire    1  aaabm  slti_i_sd       $end
$var wire    1  aaabn  sltiu_i_sd       $end
$var wire    1  aaabo  andi_i_sd       $end
$var wire    1  aaabp  ori_i_sd       $end
$var wire    1  aaabq  xori_i_sd       $end
$var wire    1  aaabr  jalr_i_sd       $end
$var wire    1  aaabs  slli_i_sd       $end
$var wire    1  aaabt  srli_i_sd       $end
$var wire    1  aaabu  srai_i_sd       $end
$var wire    1  aaabv  lw_i_sd       $end
$var wire    1  aaabw  lh_i_sd       $end
$var wire    1  aaabx  lhu_i_sd       $end
$var wire    1  aaaby  lb_i_sd       $end
$var wire    1  aaabz  lbu_i_sd       $end
$var wire    1  aaaca  beq_i_sd       $end
$var wire    1  aaacb  bne_i_sd       $end
$var wire    1  aaacc  blt_i_sd       $end
$var wire    1  aaacd  bge_i_sd       $end
$var wire    1  aaace  bltu_i_sd       $end
$var wire    1  aaacf  bgeu_i_sd       $end
$var wire    1  aaacg  lui_i_sd       $end
$var wire    1  aaach  auipc_i_sd       $end
$var wire    1  aaaci  jal_i_sd       $end
$var wire    1  aaacj  sw_i_sd       $end
$var wire    1  aaack  sh_i_sd       $end
$var wire    1  aaacl  sb_i_sd       $end
$var wire   32  aaacm  offset_branch_sd [31:0]  $end
$var wire    1  aaacn  inc_pc_sd       $end
$var wire    6  aaaco  adr_dest_sd [5:0]  $end
$var wire   32  aaacp  exe_op1_sd [31:0]  $end
$var wire   32  aaacq  exe_op2_sd [31:0]  $end
$var wire    2  aaacr  mem_size_sd [1:0]  $end
$var wire    1  aaacs  mem_load_sd       $end
$var wire    1  aaact  mem_store_sd       $end
$var wire    2  aaacu  exe_cmd_sd [1:0]  $end
$var wire    1  aaacv  select_shift_sd       $end
$var wire    1  aaacw  exe_neg_op2_sd       $end
$var wire    1  aaacx  exe_wb_sd       $end
$var wire    1  aaacy  mem_sign_extend_sd       $end
$var wire    1  aaacz  add_offset_to_pc_sd       $end
$var wire    1  aaada  stall       $end
$var wire    1  aaakp  RESET_N       $end
$var wire    1  aaakq  CLK       $end
$var wire   32  aaakr  BP_MEM_RES_RM [31:0]  $end
$var wire    6  aaaks  BP_DEST_RM [5:0]  $end
$var wire    1  aaakt  BP_MEM_LOAD_RE       $end
$var wire   32  aaaku  BP_EXE_RES_RE [31:0]  $end
$var wire    6  aaakv  BP_DEST_RE [5:0]  $end
$var wire    1  aaakw  DEC2EXE_EMPTY_SD       $end
$var wire    1  aaakx  DEC2EXE_POP_SE       $end
$var wire    1  aaaky  IF2DEC_FLUSH_SD       $end
$var wire    1  aaakz  IF2DEC_POP_SD       $end
$var wire    1  aaala  IF2DEC_EMPTY_SI       $end
$var wire   32  aaalb  INSTR_RI [31:0]  $end
$var wire   32  aaalc  PC_IF2DEC_RI [31:0]  $end
$var wire   32  aaald  PC_RD [31:0]  $end
$var wire    1  aaale  DEC2IF_EMPTY_SD       $end
$var wire    1  aaalf  DEC2IF_POP_SI       $end
$var wire    2  aaalg  MEM_SIZE_RD [1:0]  $end
$var wire    1  aaalh  MEM_SIGN_EXTEND_RD       $end
$var wire    1  aaali  MEM_STORE_RD       $end
$var wire    1  aaalj  MEM_LOAD_RD       $end
$var wire   32  aaalk  MEM_DATA_RD [31:0]  $end
$var wire   32  aaall  PC_DEC2EXE_RD [31:0]  $end
$var wire    1  aaalm  SELECT_SHIFT_RD       $end
$var wire    6  aaaln  EXE_DEST_SD [5:0]  $end
$var wire    1  aaalo  WB_RD       $end
$var wire    1  aaalp  NEG_OP2_RD       $end
$var wire    2  aaalq  EXE_CMD_RD [1:0]  $end
$var wire   32  aaalr  OP2_RD [31:0]  $end
$var wire   32  aaals  OP1_RD [31:0]  $end
$var wire    1  aaalt  WRITE_PC_ENABLE_SD       $end
$var wire   32  aaalu  WRITE_PC_SD [31:0]  $end
$var wire    6  aaalv  RADR2_SD [5:0]  $end
$var wire    6  aaalw  RADR1_SD [5:0]  $end
$var wire   32  aaalx  READ_PC_SR [31:0]  $end
$var wire   32  aaaly  RDATA2_SR [31:0]  $end
$var wire   32  aaalz  RDATA1_SR [31:0]  $end
$scope module dec2exe $end
$var wire    1  aaaag  fifo_v       $end
$var wire   172  aaajz  DOUT_R [171:0]  $end
$var wire    1  aaaka  EMPTY_S       $end
$var wire    1  aaakb  FULL_S       $end
$var wire    1  aaakc  RESET_N       $end
$var wire    1  aaakd  POP_S       $end
$var wire    1  aaake  PUSH_S       $end
$var wire    1  aaakf  CLK       $end
$var wire   172  aaakg  DIN_S [171:0]  $end
$upscope $end
$scope module dec2if $end
$var wire    1  aaaaf  fifo_v       $end
$var wire   32  aaakh  DOUT_R [31:0]  $end
$var wire    1  aaaki  EMPTY_S       $end
$var wire    1  aaakj  FULL_S       $end
$var wire    1  aaakk  RESET_N       $end
$var wire    1  aaakl  POP_S       $end
$var wire    1  aaakm  PUSH_S       $end
$var wire    1  aaakn  CLK       $end
$var wire   32  aaako  DIN_S [31:0]  $end
$upscope $end
$upscope $end
$scope module exec $end
$var wire   32  aaadb  op1_se [31:0]  $end
$var wire   32  aaadc  op2_se [31:0]  $end
$var wire   32  aaadd  exe_res_se [31:0]  $end
$var wire   153  aaade  exe2mem_din_se [152:0]  $end
$var wire   153  aaadf  exe2mem_dout_se [152:0]  $end
$var wire   32  aaadg  alu_in_op2_se [31:0]  $end
$var wire   32  aaadh  alu_out_se [31:0]  $end
$var wire   32  aaadi  shifter_out_se [31:0]  $end
$var wire    5  aaadj  shift_val_se [4:0]  $end
$var wire    1  aaadk  exe2mem_push_se       $end
$var wire    1  aaadl  blocked       $end
$var wire   32  aaaiv  MEM_RES_RM [31:0]  $end
$var wire    6  aaaiw  MEM_DEST_RM [5:0]  $end
$var wire    1  aaaix  DEC2EXE_POP_SE       $end
$var wire    1  aaaiy  EXE2MEM_EMPTY_SE       $end
$var wire    1  aaaiz  MEM_STORE_RE       $end
$var wire    1  aaaja  MEM_LOAD_RE       $end
$var wire    1  aaajb  MEM_SIGN_EXTEND_RE       $end
$var wire    1  aaajc  WB_RE       $end
$var wire    2  aaajd  MEM_SIZE_RE [1:0]  $end
$var wire    6  aaaje  DEST_RE [5:0]  $end
$var wire   32  aaajf  MEM_DATA_RE [31:0]  $end
$var wire   32  aaajg  EXE_RES_RE [31:0]  $end
$var wire    1  aaajh  RESET       $end
$var wire    1  aaaji  CLK       $end
$var wire    1  aaajj  DEC2EXE_EMPTY_SD       $end
$var wire    1  aaajk  EXE2MEM_POP_SM       $end
$var wire    1  aaajl  MEM_STORE_RD       $end
$var wire    1  aaajm  MEM_LOAD_RD       $end
$var wire    1  aaajn  SELECT_SHIFT_RD       $end
$var wire    1  aaajo  MEM_SIGN_EXTEND_RD       $end
$var wire    1  aaajp  WB_RD       $end
$var wire    1  aaajq  NEG_OP2_RD       $end
$var wire    2  aaajr  MEM_SIZE_RD [1:0]  $end
$var wire    2  aaajs  CMD_RD [1:0]  $end
$var wire    6  aaajt  DEST_RD [5:0]  $end
$var wire   32  aaaju  MEM_DATA_RD [31:0]  $end
$var wire    6  aaajv  RADR2_RD [5:0]  $end
$var wire    6  aaajw  RADR1_RD [5:0]  $end
$var wire   32  aaajx  OP2_RD [31:0]  $end
$var wire   32  aaajy  OP1_RD [31:0]  $end
$scope module alu $end
$var wire   32  aaaiq  RES_SE [31:0]  $end
$var wire    2  aaair  CMD_SE [1:0]  $end
$var wire    1  aaais  CIN_SE       $end
$var wire   32  aaait  OP2_SE [31:0]  $end
$var wire   32  aaaiu  OP1_SE [31:0]  $end
$upscope $end
$scope module exe2mem $end
$var wire    1  aaadr  fifo_v       $end
$var wire   153  aaaie  DOUT_R [152:0]  $end
$var wire    1  aaaif  EMPTY_S       $end
$var wire    1  aaaig  FULL_S       $end
$var wire    1  aaaih  RESET_N       $end
$var wire    1  aaaii  POP_S       $end
$var wire    1  aaaij  PUSH_S       $end
$var wire    1  aaaik  CLK       $end
$var wire   153  aaail  DIN_S [152:0]  $end
$upscope $end
$scope module shifter $end
$var wire    1  aaadm  sra_se       $end
$var wire    1  aaadn  sll_se       $end
$var wire    1  aaado  srl_se       $end
$var wire   32  aaadp  sll_dout_se [31:0]  $end
$var wire   32  aaadq  sr_dout_se [31:0]  $end
$var wire   32  aaaim  DOUT_SE [31:0]  $end
$var wire    2  aaain  CMD_SE [1:0]  $end
$var wire    5  aaaio  SHIFT_VAL_SE [4:0]  $end
$var wire   32  aaaip  DIN_SE [31:0]  $end
$upscope $end
$upscope $end
$scope module ifetch $end
$var wire    1  aaaaa  IF2DEC_PUSH_SI       $end
$var wire    1  aaaab  IF2DEC_FULL_SI       $end
$var wire   64  aaaac  if2dec_in_si [63:0]  $end
$var wire   64  aaaad  instr_ri [63:0]  $end
$var wire    1  aaahq  RESET       $end
$var wire    1  aaahr  CLK       $end
$var wire   32  aaahs  PC_IF2DEC_RI [31:0]  $end
$var wire   32  aaaht  INSTR_RI [31:0]  $end
$var wire    1  aaahu  IF2DEC_EMPTY_SI       $end
$var wire   32  aaahv  PC_RD [31:0]  $end
$var wire    1  aaahw  IF2DEC_POP_SD       $end
$var wire    1  aaahx  IF2DEC_FLUSH_SD       $end
$var wire    1  aaahy  DEC2IF_POP_SI       $end
$var wire    1  aaahz  DEC2IF_EMPTY_SI       $end
$var wire    1  aaaia  ADR_VALID_SI       $end
$var wire   32  aaaib  ADR_SI [31:0]  $end
$var wire    1  aaaic  IC_STALL_SI       $end
$var wire   32  aaaid  IC_INST_SI [31:0]  $end
$scope module if2dec $end
$var wire    1  aaaae  fifo_v       $end
$var wire   64  aaahi  DOUT_R [63:0]  $end
$var wire    1  aaahj  EMPTY_S       $end
$var wire    1  aaahk  FULL_S       $end
$var wire    1  aaahl  RESET_N       $end
$var wire    1  aaahm  POP_S       $end
$var wire    1  aaahn  PUSH_S       $end
$var wire    1  aaaho  CLK       $end
$var wire   64  aaahp  DIN_S [63:0]  $end
$upscope $end
$upscope $end
$scope module mem $end
$var wire    1  aaads  mem2wbk_push_sm       $end
$var wire    1  aaadt  mem2wbk_full_sm       $end
$var wire   107  aaadu  mem2wbk_din_sm [106:0]  $end
$var wire   107  aaadv  mem2wbk_dout_sm [106:0]  $end
$var wire   32  aaadw  data_sm [31:0]  $end
$var wire    1  aaadx  wb_sm       $end
$var wire    1  aaagk  RESET       $end
$var wire    1  aaagl  CLK       $end
$var wire    1  aaagm  WB_RM       $end
$var wire    6  aaagn  DEST_RM [5:0]  $end
$var wire   32  aaago  MEM_RES_RM [31:0]  $end
$var wire    1  aaagp  MEM2WBK_EMPTY_SM       $end
$var wire    1  aaagq  MEM2WBK_POP_SW       $end
$var wire    1  aaagr  EXE2MEM_POP_SM       $end
$var wire    1  aaags  EXE2MEM_EMPTY_SE       $end
$var wire    1  aaagt  STORE_RE       $end
$var wire    1  aaagu  LOAD_RE       $end
$var wire    1  aaagv  SIGN_EXTEND_RE       $end
$var wire    1  aaagw  WB_RE       $end
$var wire    2  aaagx  MEM_SIZE_RE [1:0]  $end
$var wire    6  aaagy  DEST_RE [5:0]  $end
$var wire   32  aaagz  MEM_DATA_RE [31:0]  $end
$var wire   32  aaaha  EXE_RES_RE [31:0]  $end
$var wire    1  aaahb  MCACHE_STALL_SM       $end
$var wire   32  aaahc  MCACHE_RESULT_SM [31:0]  $end
$var wire    1  aaahd  MCACHE_LOAD_SM       $end
$var wire    1  aaahe  MCACHE_STORE_SM       $end
$var wire    1  aaahf  MCACHE_ADR_VALID_SM       $end
$var wire   32  aaahg  MCACHE_DATA_SM [31:0]  $end
$var wire   32  aaahh  MCACHE_ADR_SM [31:0]  $end
$scope module mem2wbk $end
$var wire    1  aaady  fifo_v       $end
$var wire   107  aaagc  DOUT_R [106:0]  $end
$var wire    1  aaagd  EMPTY_S       $end
$var wire    1  aaage  FULL_S       $end
$var wire    1  aaagf  RESET_N       $end
$var wire    1  aaagg  POP_S       $end
$var wire    1  aaagh  PUSH_S       $end
$var wire    1  aaagi  CLK       $end
$var wire   107  aaagj  DIN_S [106:0]  $end
$upscope $end
$upscope $end
$scope module reg $end
$var wire   32  aaadz  REG_0 [31:0]  $end
$var wire   32  aaaea  REG_1 [31:0]  $end
$var wire   32  aaaeb  REG_2 [31:0]  $end
$var wire   32  aaaec  REG_3 [31:0]  $end
$var wire   32  aaaed  REG_4 [31:0]  $end
$var wire   32  aaaee  REG_5 [31:0]  $end
$var wire   32  aaaef  REG_6 [31:0]  $end
$var wire   32  aaaeg  REG_7 [31:0]  $end
$var wire   32  aaaeh  REG_8 [31:0]  $end
$var wire   32  aaaei  REG_9 [31:0]  $end
$var wire   32  aaaej  REG_10 [31:0]  $end
$var wire   32  aaaek  REG_11 [31:0]  $end
$var wire   32  aaael  REG_12 [31:0]  $end
$var wire   32  aaaem  REG_13 [31:0]  $end
$var wire   32  aaaen  REG_14 [31:0]  $end
$var wire   32  aaaeo  REG_15 [31:0]  $end
$var wire   32  aaaep  REG_16 [31:0]  $end
$var wire   32  aaaeq  REG_17 [31:0]  $end
$var wire   32  aaaer  REG_18 [31:0]  $end
$var wire   32  aaaes  REG_19 [31:0]  $end
$var wire   32  aaaet  REG_20 [31:0]  $end
$var wire   32  aaaeu  REG_21 [31:0]  $end
$var wire   32  aaaev  REG_22 [31:0]  $end
$var wire   32  aaaew  REG_23 [31:0]  $end
$var wire   32  aaaex  REG_24 [31:0]  $end
$var wire   32  aaaey  REG_25 [31:0]  $end
$var wire   32  aaaez  REG_26 [31:0]  $end
$var wire   32  aaafa  REG_27 [31:0]  $end
$var wire   32  aaafb  REG_28 [31:0]  $end
$var wire   32  aaafc  REG_29 [31:0]  $end
$var wire   32  aaafd  REG_30 [31:0]  $end
$var wire   32  aaafe  REG_31 [31:0]  $end
$var wire   32  aaaff  REG_32 [31:0]  $end
$var wire    1  aaafq  RESET_N       $end
$var wire    1  aaafr  CLK       $end
$var wire   32  aaafs  READ_PC_SR [31:0]  $end
$var wire    1  aaaft  WRITE_PC_ENABLE_SD       $end
$var wire   32  aaafu  WRITE_PC_SD [31:0]  $end
$var wire   32  aaafv  WDATA_SW [31:0]  $end
$var wire    1  aaafw  WENABLE_SW       $end
$var wire    6  aaafx  WADR_SW [5:0]  $end
$var wire   32  aaafy  RDATA2_SR [31:0]  $end
$var wire   32  aaafz  RDATA1_SR [31:0]  $end
$var wire    6  aaaga  RADR2_SD [5:0]  $end
$var wire    6  aaagb  RADR1_SD [5:0]  $end
$upscope $end
$scope module wbk $end
$var wire    1  aaafg  RESET       $end
$var wire    1  aaafh  CLK       $end
$var wire    1  aaafi  MEM2WBK_POP_SW       $end
$var wire    1  aaafj  MEM2WBK_EMPTY_SM       $end
$var wire    1  aaafk  WB_RM       $end
$var wire    6  aaafl  DEST_RM [5:0]  $end
$var wire   32  aaafm  MEM_RES_RM [31:0]  $end
$var wire    1  aaafn  WENABLE_SW       $end
$var wire   32  aaafo  WDATA_SW [31:0]  $end
$var wire    6  aaafp  WADR_SW [5:0]  $end
$upscope $end
$upscope $end
$upscope $end
$enddefinitions  $end

$comment
All initial values are dumped below at time 0 sec = 0 timescale units.
$end

$dumpvars
0aaaaa
0aaaab
b0 aaaac
b0 aaaad
0aaaae
0aaaaf
0aaaag
b0 aaaah
b0 aaaai
1aaaaj
1aaaak
b0 aaaal
b10000000001010100 aaaam
1aaaan
1aaaao
0aaaap
b0 aaaaq
b11000000000000000000000000000000000000000000000000000000000000000000000000000000000000000000000000000000000000000000000000000000 aaaar
0aaaas
0aaaat
0aaaau
0aaaav
0aaaaw
0aaaax
0aaaay
0aaaaz
0aaaba
0aaabb
0aaabc
0aaabd
0aaabe
0aaabf
0aaabg
0aaabh
0aaabi
0aaabj
0aaabk
0aaabl
0aaabm
0aaabn
0aaabo
0aaabp
0aaabq
0aaabr
0aaabs
0aaabt
0aaabu
0aaabv
0aaabw
0aaabx
0aaaby
0aaabz
0aaaca
0aaacb
0aaacc
0aaacd
0aaace
0aaacf
0aaacg
0aaach
0aaaci
0aaacj
0aaack
0aaacl
b0 aaacm
1aaacn
b0 aaaco
b0 aaacp
b0 aaacq
b0 aaacr
0aaacs
0aaact
b0 aaacu
0aaacv
0aaacw
0aaacx
0aaacy
0aaacz
0aaada
b0 aaadb
b0 aaadc
b0 aaadd
b0 aaade
b0 aaadf
b0 aaadg
b0 aaadh
b0 aaadi
b0 aaadj
0aaadk
0aaadl
0aaadm
1aaadn
0aaado
b0 aaadp
b0 aaadq
0aaadr
0aaads
0aaadt
b0 aaadu
b0 aaadv
b0 aaadw
0aaadx
0aaady
b0 aaadz
b0 aaaea
b0 aaaeb
b0 aaaec
b0 aaaed
b0 aaaee
b0 aaaef
b0 aaaeg
b0 aaaeh
b0 aaaei
b0 aaaej
b0 aaaek
b0 aaael
b0 aaaem
b0 aaaen
b0 aaaeo
b0 aaaep
b0 aaaeq
b0 aaaer
b0 aaaes
b0 aaaet
b0 aaaeu
b0 aaaev
b0 aaaew
b0 aaaex
b0 aaaey
b0 aaaez
b0 aaafa
b0 aaafb
b0 aaafc
b0 aaafd
b0 aaafe
b10000000001010000 aaaff
0aaafg
1aaafh
0aaafi
1aaafj
0aaafk
b0 aaafl
b0 aaafm
0aaafn
b0 aaafo
b0 aaafp
0aaafq
1aaafr
b10000000001010000 aaafs
1aaaft
b10000000001010100 aaafu
b0 aaafv
0aaafw
b0 aaafx
b0 aaafy
b0 aaafz
b0 aaaga
b0 aaagb
b0 aaagc
1aaagd
0aaage
0aaagf
0aaagg
0aaagh
1aaagi
b0 aaagj
0aaagk
1aaagl
0aaagm
b0 aaagn
b0 aaago
1aaagp
0aaagq
0aaagr
1aaags
0aaagt
0aaagu
0aaagv
0aaagw
b0 aaagx
b0 aaagy
b0 aaagz
b0 aaaha
0aaahb
b0 aaahc
0aaahd
0aaahe
0aaahf
b0 aaahg
b0 aaahh
b0 aaahi
1aaahj
0aaahk
0aaahl
0aaahm
0aaahn
1aaaho
b0 aaahp
0aaahq
1aaahr
b0 aaahs
b0 aaaht
1aaahu
b0 aaahv
0aaahw
0aaahx
0aaahy
1aaahz
0aaaia
b0 aaaib
0aaaic
b0 aaaid
b0 aaaie
1aaaif
0aaaig
0aaaih
0aaaii
0aaaij
1aaaik
b0 aaail
b0 aaaim
b0 aaain
b0 aaaio
b0 aaaip
b0 aaaiq
b0 aaair
0aaais
b0 aaait
b0 aaaiu
b0 aaaiv
b0 aaaiw
0aaaix
1aaaiy
0aaaiz
0aaaja
0aaajb
0aaajc
b0 aaajd
b0 aaaje
b0 aaajf
b0 aaajg
0aaajh
1aaaji
1aaajj
0aaajk
0aaajl
0aaajm
0aaajn
0aaajo
0aaajp
0aaajq
b0 aaajr
b0 aaajs
b0 aaajt
b0 aaaju
b0 aaajv
b0 aaajw
b0 aaajx
b0 aaajy
b0 aaajz
1aaaka
0aaakb
0aaakc
0aaakd
0aaake
1aaakf
b11000000000000000000000000000000000000000000000000000000000000000000000000000000000000000000000000000000000000000000000000000000 aaakg
b0 aaakh
1aaaki
0aaakj
0aaakk
0aaakl
1aaakm
1aaakn
b10000000001010100 aaako
0aaakp
1aaakq
b0 aaakr
b0 aaaks
0aaakt
b0 aaaku
b0 aaakv
1aaakw
0aaakx
0aaaky
0aaakz
1aaala
b0 aaalb
b0 aaalc
b0 aaald
1aaale
0aaalf
b0 aaalg
0aaalh
0aaali
0aaalj
b0 aaalk
b0 aaall
0aaalm
b0 aaaln
0aaalo
0aaalp
b0 aaalq
b0 aaalr
b0 aaals
1aaalt
b10000000001010100 aaalu
b0 aaalv
b0 aaalw
b10000000001010000 aaalx
b0 aaaly
b0 aaalz
$end

#500
0aaafh
0aaafr
0aaagi
0aaagl
0aaaho
0aaahr
0aaaik
0aaaji
0aaakf
0aaakn
0aaakq

#1000
b10000000001010100 aaaff
1aaafh
1aaafr
1aaagi
1aaagl
1aaaho
1aaahr
1aaaik
1aaaji
1aaakf
1aaakn
1aaakq

#1500
0aaafh
0aaafr
0aaagi
0aaagl
0aaaho
0aaahr
0aaaik
0aaaji
0aaakf
0aaakn
0aaakq

#2000
1aaafh
1aaafr
1aaagi
1aaagl
1aaaho
1aaahr
1aaaik
1aaaji
1aaakf
1aaakn
1aaakq

#2500
0aaafh
0aaafr
0aaagi
0aaagl
0aaaho
0aaahr
0aaaik
0aaaji
0aaakf
0aaakn
0aaakq

#3000
1aaaaa
b10000000001010100 aaaac
1aaaaf
b10000000001011000 aaaam
0aaaao
1aaafg
1aaafh
1aaafq
1aaafr
b10000000001010100 aaafs
b10000000001011000 aaafu
1aaagf
1aaagi
1aaagk
1aaagl
1aaahl
1aaahn
1aaaho
b10000000001010100 aaahp
1aaahq
1aaahr
b10000000001010100 aaahv
1aaahy
0aaahz
1aaaia
b10000000001010100 aaaib
1aaaih
1aaaik
1aaajh
1aaaji
1aaakc
1aaakf
b10000000001010100 aaakh
0aaaki
1aaakk
1aaakl
1aaakn
b10000000001011000 aaako
1aaakp
1aaakq
b10000000001010100 aaald
0aaale
1aaalf
b10000000001011000 aaalu
b10000000001010100 aaalx

#3500
b100000010000000000010011011100000000000000010000000001010100 aaaac
0aaafh
0aaafr
0aaagi
0aaagl
0aaaho
b100000010000000000010011011100000000000000010000000001010100 aaahp
0aaahr
b1000000100000000000100110111 aaaid
0aaaik
0aaaji
0aaakf
0aaakn
0aaakq

#4000
b100000010000000000010011011100000000000000010000000001011000 aaaac
b100000010000000000010011011100000000000000010000000001010100 aaaad
1aaaae
b10000000001011100 aaaam
b1000000000101010011000000000000000000100000010000000000000000000000000000000000000000000000000000010000000000000000000000000000000000000000001000 aaaar
1aaaas
1aaaay
1aaacg
b10 aaaco
b1000000100000000000000000000 aaacp
1aaacx
b10000000001011000 aaaff
1aaafh
1aaafr
b10000000001011000 aaafs
b10000000001011100 aaafu
1aaagi
1aaagl
b100000010000000000010011011100000000000000010000000001010100 aaahi
0aaahj
1aaahm
1aaaho
b100000010000000000010011011100000000000000010000000001011000 aaahp
1aaahr
b10000000001010100 aaahs
b1000000100000000000100110111 aaaht
0aaahu
b10000000001011000 aaahv
1aaahw
b10000000001011000 aaaib
1aaaik
1aaaji
1aaake
1aaakf
b1000000000101010011000000000000000000100000010000000000000000000000000000000000000000000000000000010000000000000000000000000000000000000000001000 aaakg
b10000000001011000 aaakh
1aaakn
b10000000001011100 aaako
1aaakq
1aaakz
0aaala
b1000000100000000000100110111 aaalb
b10000000001010100 aaalc
b10000000001011000 aaald
b10000000001011100 aaalu
b10000000001011000 aaalx

#4500
b1000000000000000000010001001100000000000000010000000001011000 aaaac
0aaafh
0aaafr
0aaagi
0aaagl
0aaaho
b1000000000000000000010001001100000000000000010000000001011000 aaahp
0aaahr
b10000000000000000000100010011 aaaid
0aaaik
0aaaji
0aaakf
0aaakn
0aaakq

#5000
b1000000000000000000010001001100000000000000010000000001011100 aaaac
b1000000000000000000010001001100000000000000010000000001011000 aaaad
1aaaag
b1000000000101010011000000000000000000100000010000000000000000000000000000000000000000000000000000010000000000000000000000000000000000000000001000 aaaal
b10000000001100000 aaaam
b1000000000101100011000000000000000000000000000000000000000000000000000000000000000000000100000000010000000000000000000000000000000000000000001000 aaaar
1aaaav
0aaaay
1aaabl
0aaacg
b0 aaacp
b100000000 aaacq
b1000000100000000000000000000 aaadb
b1000000100000000000000000000 aaadd
b10000001000000000000000000000000000000000000000000000000100000000010101000001000000100000000000000000000000000000000000001000000100000000000000000000 aaade
b1000000100000000000000000000 aaadh
b1000000100000000000000000000 aaadi
1aaadk
b1000000100000000000000000000 aaadp
b1000000100000000000000000000 aaadq
b10000000001011100 aaaff
1aaafh
1aaafr
b10000000001011100 aaafs
b10000000001100000 aaafu
1aaagi
1aaagl
b1000000000000000000010001001100000000000000010000000001011000 aaahi
1aaaho
b1000000000000000000010001001100000000000000010000000001011100 aaahp
1aaahr
b10000000001011000 aaahs
b10000000000000000000100010011 aaaht
b10000000001011100 aaahv
b10000000001011100 aaaib
1aaaij
1aaaik
b10000001000000000000000000000000000000000000000000000000100000000010101000001000000100000000000000000000000000000000000001000000100000000000000000000 aaail
b1000000100000000000000000000 aaaim
b1000000100000000000000000000 aaaip
b1000000100000000000000000000 aaaiq
b1000000100000000000000000000 aaaiu
1aaaix
1aaaji
0aaajj
1aaajp
b10 aaajt
b1000000100000000000000000000 aaajy
b1000000000101010011000000000000000000100000010000000000000000000000000000000000000000000000000000010000000000000000000000000000000000000000001000 aaajz
0aaaka
1aaakd
1aaakf
b1000000000101100011000000000000000000000000000000000000000000000000000000000000000000000100000000010000000000000000000000000000000000000000001000 aaakg
b10000000001011100 aaakh
1aaakn
b10000000001100000 aaako
1aaakq
0aaakw
1aaakx
b10000000000000000000100010011 aaalb
b10000000001011000 aaalc
b10000000001011100 aaald
b10000000001010100 aaall
b10 aaaln
1aaalo
b1000000100000000000000000000 aaals
b10000000001100000 aaalu
b10000000001011100 aaalx

#5500
b1000000100000001001001100000000000000010000000001011100 aaaac
0aaafh
0aaafr
0aaagi
0aaagl
0aaaho
b1000000100000001001001100000000000000010000000001011100 aaahp
0aaahr
b10000001000000010010011 aaaid
0aaaik
0aaaji
0aaakf
0aaakn
0aaakq

#6000
b1000000100000001001001100000000000000010000000001100000 aaaac
b1000000100000001001001100000000000000010000000001011100 aaaad
b1000000000101100011000000000000000000000000000000000000000000000000000000000000000000000100000000010000000000000000000000000000000000000000001000 aaaal
b10000000001100100 aaaam
b1000000000101110011000001000000000000000000000000000000000000000000000000000000000000000000000100010000000000000000000000000000000000000000000100 aaaar
b1 aaaco
b100 aaacq
b0 aaadb
b100000000 aaadc
b100000000 aaadd
b100000000010110000001000000100000000000000000000000000000000000000000000000000000000100000000 aaade
b10000001000000000000000000000000000000000000000000000000100000000010101000001000000100000000000000000000000000000000000001000000100000000000000000000 aaadf
b100000000 aaadg
b100000000 aaadh
b0 aaadi
b0 aaadp
b0 aaadq
1aaadr
1aaads
b1000000100000000000000000000000000000000000000001000000000101010010001000001000000100000000000000000000 aaadu
b1000000100000000000000000000 aaadw
1aaadx
b10000000001100000 aaaff
1aaafh
1aaafr
b10000000001100000 aaafs
b10000000001100100 aaafu
b1 aaagb
1aaagh
1aaagi
b1000000100000000000000000000000000000000000000001000000000101010010001000001000000100000000000000000000 aaagj
1aaagl
1aaagr
0aaags
1aaagw
b10 aaagy
b1000000100000000000000000000 aaaha
1aaahf
b1000000100000000000000000000 aaahh
b1000000100000001001001100000000000000010000000001011100 aaahi
1aaaho
b1000000100000001001001100000000000000010000000001100000 aaahp
1aaahr
b10000000001011100 aaahs
b10000001000000010010011 aaaht
b10000000001100000 aaahv
b10000000001100000 aaaib
b10000001000000000000000000000000000000000000000000000000100000000010101000001000000100000000000000000000000000000000000001000000100000000000000000000 aaaie
0aaaif
1aaaii
1aaaik
b100000000010110000001000000100000000000000000000000000000000000000000000000000000000100000000 aaail
b0 aaaim
b0 aaaip
b100000000 aaaiq
b100000000 aaait
b0 aaaiu
0aaaiy
1aaajc
b10 aaaje
b1000000100000000000000000000 aaajg
1aaaji
1aaajk
b100000000 aaajx
b0 aaajy
b1000000000101100011000000000000000000000000000000000000000000000000000000000000000000000100000000010000000000000000000000000000000000000000001000 aaajz
1aaakf
b1000000000101110011000001000000000000000000000000000000000000000000000000000000000000000000000100010000000000000000000000000000000000000000000100 aaakg
b10000000001100000 aaakh
1aaakn
b10000000001100100 aaako
1aaakq
b1000000100000000000000000000 aaaku
b10 aaakv
b10000001000000010010011 aaalb
b10000000001011100 aaalc
b10000000001100000 aaald
b10000000001011000 aaall
b100000000 aaalr
b0 aaals
b10000000001100100 aaalu
b1 aaalw
b10000000001100000 aaalx

#6500
b100000000100000100000010011001100000000000000010000000001100000 aaaac
0aaafh
0aaafr
0aaagi
0aaagl
0aaaho
b100000000100000100000010011001100000000000000010000000001100000 aaahp
0aaahr
b1000000001000001000000100110011 aaaid
0aaaik
0aaaji
0aaakf
0aaakn
0aaakq

