CORE/tf.vcd
$date
     Feb 19, 2022       19:33:40
$end

$version
 SystemC 2.3.3-Accellera --- Feb  9 2022 00:40:45
$end

$timescale
     1 ps
$end

$scope module SystemC $end
$scope module exec $end
$var wire   32  aaaaa  FFIN_EXE_RES [31:0]  $end
$var wire   74  aaaab  FF_DIN [73:0]  $end
$var wire   74  aaaac  FF_DOUT [73:0]  $end
$var wire   32  aaaad  ALU_IN_OP1 [31:0]  $end
$var wire   32  aaaae  ALU_OUT [31:0]  $end
$var wire   32  aaaaf  SHIFTER_OUT [31:0]  $end
$var wire    5  aaaag  SHIFT_VAL [4:0]  $end
$var wire    1  aaaah  EXE2MEM_PUSH       $end
$var wire    1  aaaai  EXE2MEM_FULL       $end
$var wire    1  aaabh  DEC2EXE_POP       $end
$var wire    1  aaabi  EXE2MEM_EMPTY       $end
$var wire    1  aaabj  FFOUT_MEM_STORE       $end
$var wire    1  aaabk  FFOUT_MEM_LOAD       $end
$var wire    1  aaabl  FFOUT_MEM_SIGN_EXTEND       $end
$var wire    1  aaabm  FFOUT_WB       $end
$var wire    2  aaabn  FFOUT_MEM_SIZE [1:0]  $end
$var wire    4  aaabo  FFOUT_DEST [3:0]  $end
$var wire   32  aaabp  FFOUT_MEM_DATA [31:0]  $end
$var wire   32  aaabq  FFOUT_EXE_RES [31:0]  $end
$var wire    1  aaabr  RESET       $end
$var wire    1  aaabs  CLK       $end
$var wire    1  aaabt  DEC2EXE_EMPTY       $end
$var wire    1  aaabu  EXE2MEM_POP       $end
$var wire    1  aaabv  MEM_STORE       $end
$var wire    1  aaabw  MEM_LOAD       $end
$var wire    1  aaabx  SELECT_SHIFT       $end
$var wire    1  aaaby  MEM_SIGN_EXTEND       $end
$var wire    1  aaabz  WB       $end
$var wire    1  aaaca  NEG_OP1       $end
$var wire    2  aaacb  MEM_SIZE [1:0]  $end
$var wire    2  aaacc  CMD [1:0]  $end
$var wire    4  aaacd  DEST [3:0]  $end
$var wire   32  aaace  MEM_DATA [31:0]  $end
$var wire   32  aaacf  OP2 [31:0]  $end
$var wire   32  aaacg  OP1 [31:0]  $end
$scope module alu $end
$var wire   32  aaabc  RES [31:0]  $end
$var wire    2  aaabd  CMD [1:0]  $end
$var wire    1  aaabe  CIN       $end
$var wire   32  aaabf  OP2 [31:0]  $end
$var wire   32  aaabg  OP1 [31:0]  $end
$upscope $end
$scope module exe2mem $end
$var wire    1  aaaao  RESET_N       $end
$var wire    1  aaaap  POP       $end
$var wire    1  aaaaq  PUSH       $end
$var wire    1  aaaar  CLK       $end
$var wire   74  aaaas  DIN [73:0]  $end
$var wire   74  aaaat  FULL [73:0]  $end
$var wire   74  aaaau  EMPTY [73:0]  $end
$var wire   74  aaaav  DOUT [73:0]  $end
$var wire   74  aaaaw  fifo_v [73:0]  $end
$var wire   74  aaaax  data_inside [73:0]  $end
$upscope $end
$scope module shifter $end
$var wire    1  aaaaj  SRA       $end
$var wire    1  aaaak  SLL       $end
$var wire    1  aaaal  SRL       $end
$var wire   32  aaaam  SLL_DOUT [31:0]  $end
$var wire   32  aaaan  SR_DOUT [31:0]  $end
$var wire   32  aaaay  DOUT [31:0]  $end
$var wire    2  aaaaz  CMD [1:0]  $end
$var wire    5  aaaba  SHIFT_VAL [4:0]  $end
$var wire   32  aaabb  DIN [31:0]  $end
$upscope $end
$upscope $end
$upscope $end
$enddefinitions  $end

$comment
All initial values are dumped below at time 0 sec = 0 timescale units.
$end

$dumpvars
b0 aaaaa
b0 aaaab
b0 aaaac
b0 aaaad
b0 aaaae
b0 aaaaf
b0 aaaag
1aaaah
0aaaai
0aaaaj
1aaaak
0aaaal
b0 aaaam
b0 aaaan
0aaaao
0aaaap
1aaaaq
1aaaar
b0 aaaas
b0 aaaat
b0 aaaau
b0 aaaav
b0 aaaaw
b0 aaaax
b0 aaaay
b0 aaaaz
b0 aaaba
b0 aaabb
b0 aaabc
b0 aaabd
0aaabe
b0 aaabf
b0 aaabg
1aaabh
1aaabi
0aaabj
0aaabk
0aaabl
0aaabm
b0 aaabn
b0 aaabo
b0 aaabp
b0 aaabq
0aaabr
1aaabs
0aaabt
0aaabu
0aaabv
0aaabw
0aaabx
0aaaby
0aaabz
0aaaca
b0 aaacb
b0 aaacc
b0 aaacd
b0 aaace
b0 aaacf
b0 aaacg
$end

#500
0aaaar
0aaabs

#1000
1aaaar
1aaabs

#1001
1aaaao
1aaabr

#1500
0aaaar
0aaabs

#2000
1aaaar
1aaabs

#2500
0aaaar
0aaabs

#3000
1aaaar
1aaabs

#3001
b1101011100010110100010101 aaaaa
b10101011110111010010110000110111000101000100000001101011100010110100010101 aaaab
b1101011100010110100010101100111 aaaad
b1 aaaae
b1101011100010110100010101 aaaaf
b110 aaaag
0aaaak
1aaaal
b11100010110100010101100111000000 aaaam
b1101011100010110100010101 aaaan
1aaaap
b10101011110111010010110000110111000101000100000001101011100010110100010101 aaaas
b10101011110111010010110000110111000101000100000001101011100010110100010101 aaaat
b10101011110111010010110000110111000101000100000001101011100010110100010101 aaaau
b10101011110111010010110000110111000101000100000001101011100010110100010101 aaaav
b10101011110111010010110000110111000101000100000001101011100010110100010101 aaaaw
b10101011110111010010110000110111000101000100000001101011100010110100010101 aaaax
b1101011100010110100010101 aaaay
b1 aaaaz
b110 aaaba
b1101011100010110100010101100111 aaabb
b1 aaabc
b1 aaabd
b110010011110110010001111000110 aaabf
b1101011100010110100010101100111 aaabg
1aaabu
1aaabw
1aaabx
1aaaby
b10 aaacb
b1 aaacc
b1111 aaacd
b1110100101100001101110001010001 aaace
b110010011110110010001111000110 aaacf
b1101011100010110100010101100111 aaacg

#3500
0aaaar
0aaabs

#4000
b10101011110111010010110000110111000101000100000001101011100010110100010101 aaaac
0aaaah
1aaaai
0aaaaq
1aaaar
0aaabh
0aaabi
1aaabk
1aaabl
b10 aaabn
b1111 aaabo
b1110100101100001101110001010001 aaabp
b1101011100010110100010101 aaabq
1aaabs

#4001
b1111001111101111011111111111011 aaaaa
b11010001000101101111010000011000101100001001111001111101111011111111111011 aaaab
b1000001101101110001111011111011 aaaad
b1111001111101111011111111111011 aaaae
b1000001101101110001111011111 aaaaf
b11 aaaag
1aaaaj
0aaaal
b1101101110001111011111011000 aaaam
b1000001101101110001111011111 aaaan
0aaaap
b11010001000101101111010000011000101100001001111001111101111011111111111011 aaaas
b11010001000101101111010000011000101100001001111001111101111011111111111011 aaaat
b11010001000101101111010000011000101100001001111001111101111011111111111011 aaaau
b11010001000101101111010000011000101100001001111001111101111011111111111011 aaaav
b11010001000101101111010000011000101100001001111001111101111011111111111011 aaaaw
b11010001000101101111010000011000101100001001111001111101111011111111111011 aaaax
b1000001101101110001111011111 aaaay
b10 aaaaz
b11 aaaba
b1000001101101110001111011111011 aaabb
b1111001111101111011111111111011 aaabc
b10 aaabd
b1111001111000101010100111100011 aaabf
b1000001101101110001111011111011 aaabg
0aaabu
1aaabv
0aaabw
0aaabx
1aaabz
b0 aaacb
b10 aaacc
b100 aaacd
b1011011110100000110001011000010 aaace
b1111001111000101010100111100011 aaacf
b1000001101101110001111011111011 aaacg

#4500
0aaaar
0aaabs

#5000
1aaaar
1aaabs

#5001
b10000100111001111100100101 aaaaa
b11101010100100000110100111110001001100100100000010000100111001111100100101 aaaab
b10000100111001111100100101110 aaaad
b11101011100011000101101001101 aaaae
b10000100111001111100100101 aaaaf
b10000100111001111100100101110000 aaaam
b10000100111001111100100101 aaaan
b11101010100100000110100111110001001100100100000010000100111001111100100101 aaaas
b11101010100100000110100111110001001100100100000010000100111001111100100101 aaaat
b11101010100100000110100111110001001100100100000010000100111001111100100101 aaaau
b11101010100100000110100111110001001100100100000010000100111001111100100101 aaaav
b11101010100100000110100111110001001100100100000010000100111001111100100101 aaaaw
b11101010100100000110100111110001001100100100000010000100111001111100100101 aaaax
b10000100111001111100100101 aaaay
b11 aaaaz
b10000100111001111100100101110 aaabb
b11101011100011000101101001101 aaabc
b11 aaabd
b1101111011010111001001100011 aaabf
b10000100111001111100100101110 aaabg
1aaabt
1aaabw
1aaabx
0aaabz
b10 aaacb
b11 aaacc
b1010 aaacd
b1000001101001111100010011001001 aaace
b1101111011010111001001100011 aaacf
b10000100111001111100100101110 aaacg

#5500
0aaaar
0aaabs

#6000
1aaaar
1aaabs

#6001
b11000101011101111011001010 aaaaa
b10000110000111001000011101101000110001011100000011000101011101111011001010 aaaab
b1100010101110111101100101011010 aaaad
b1 aaaae
b11000101011101111011001010 aaaaf
b101 aaaag
0aaaaj
1aaaal
b1010111011110110010101101000000 aaaam
b11000101011101111011001010 aaaan
1aaaap
b10000110000111001000011101101000110001011100000011000101011101111011001010 aaaas
b10000110000111001000011101101000110001011100000011000101011101111011001010 aaaat
b10000110000111001000011101101000110001011100000011000101011101111011001010 aaaau
b10000110000111001000011101101000110001011100000011000101011101111011001010 aaaav
b10000110000111001000011101101000110001011100000011000101011101111011001010 aaaaw
b10000110000111001000011101101000110001011100000011000101011101111011001010 aaaax
b11000101011101111011001010 aaaay
b1 aaaaz
b101 aaaba
b1100010101110111101100101011010 aaabb
b1 aaabc
b1 aaabd
b1000011011011000110000100100101 aaabf
b1100010101110111101100101011010 aaabg
0aaabt
1aaabu
0aaabv
0aaabw
b1 aaacb
b1 aaacc
b1000 aaacd
b1110010000111011010001100010111 aaace
b1000011011011000110000100100101 aaacf
b1100010101110111101100101011010 aaacg

#6500
0aaaar
0aaabs

#7000
1aaaah
0aaaai
1aaaaq
1aaaar
1aaabh
1aaabi
1aaabs

#7001
b1101001101100000000000000000000 aaaaa
b10110000100000100000110110110001000000111001101001101100000000000000000000 aaaab
b11000100110100111011010011011 aaaad
b1101101011111110001010101001111 aaaae
b1101001101100000000000000000000 aaaaf
b10100 aaaag
1aaaak
0aaaal
b1101001101100000000000000000000 aaaam
b110001001 aaaan
b10110000100000100000110110110001000000111001101001101100000000000000000000 aaaas
b10110000100000100000110110110001000000111001101001101100000000000000000000 aaaat
b10110000100000100000110110110001000000111001101001101100000000000000000000 aaaau
b10110000100000100000110110110001000000111001101001101100000000000000000000 aaaav
b10110000100000100000110110110001000000111001101001101100000000000000000000 aaaaw
b10110000100000100000110110110001000000111001101001101100000000000000000000 aaaax
b1101001101100000000000000000000 aaaay
b0 aaaaz
b10100 aaaba
b11000100110100111011010011011 aaabb
b1101101011111110001010101001111 aaabc
b0 aaabd
b1010100111001001001111010110100 aaabf
b11000100110100111011010011011 aaabg
1aaabw
1aaabz
b0 aaacb
b0 aaacc
b10 aaacd
b1000001101101100010000001110 aaace
b1010100111001001001111010110100 aaacf
b11000100110100111011010011011 aaacg

#7500
0aaaar
0aaabs

#8000
b10110000100000100000110110110001000000111001101001101100000000000000000000 aaaac
0aaaah
1aaaai
0aaaaq
1aaaar
0aaabh
0aaabi
1aaabm
b0 aaabn
b10 aaabo
b1000001101101100010000001110 aaabp
b1101001101100000000000000000000 aaabq
1aaabs

#8001
b1 aaaaa
b1101111000101010101110111111110001110000100000000000000000000000000000001 aaaab
b1000101000101101101110111101001 aaaad
b1 aaaae
b1 aaaaf
b11110 aaaag
0aaaak
1aaaal
b1000000000000000000000000000000 aaaam
b1 aaaan
0aaaap
b1101111000101010101110111111110001110000100000000000000000000000000000001 aaaas
b1101111000101010101110111111110001110000100000000000000000000000000000001 aaaat
b1101111000101010101110111111110001110000100000000000000000000000000000001 aaaau
b1101111000101010101110111111110001110000100000000000000000000000000000001 aaaav
b1101111000101010101110111111110001110000100000000000000000000000000000001 aaaaw
b1101111000101010101110111111110001110000100000000000000000000000000000001 aaaax
b1 aaaay
b1 aaaaz
b11110 aaaba
b1000101000101101101110111101001 aaabb
b1 aaabc
b1 aaabd
b110000000001101100100000111110 aaabf
b1000101000101101101110111101001 aaabg
0aaabu
1aaabv
0aaaby
0aaabz
b11 aaacb
b1 aaacc
b1100 aaacd
b1010101011101111111100011100001 aaace
b110000000001101100100000111110 aaacf
b1000101000101101101110111101001 aaacg

#8500
0aaaar
0aaabs

#9000
1aaaar
1aaabs

#9001
b1111100101110111010010011111101 aaaaa
b10100010100011100001010101010110000101110001111100101110111010010011111101 aaaab
b1010001111010101101001101101011 aaaad
b1111100101110111010010011111101 aaaae
b101000111 aaaaf
b10110 aaaag
1aaaaj
0aaaal
b11011010110000000000000000000000 aaaam
b101000111 aaaan
1aaaap
b10100010100011100001010101010110000101110001111100101110111010010011111101 aaaas
b10100010100011100001010101010110000101110001111100101110111010010011111101 aaaat
b10100010100011100001010101010110000101110001111100101110111010010011111101 aaaau
b10100010100011100001010101010110000101110001111100101110111010010011111101 aaaav
b10100010100011100001010101010110000101110001111100101110111010010011111101 aaaaw
b10100010100011100001010101010110000101110001111100101110111010010011111101 aaaax
b101000111 aaaay
b11 aaaaz
b10110 aaaba
b1010001111010101101001101101011 aaabb
b1111100101110111010010011111101 aaabc
b11 aaabd
b101101010100010111011110010110 aaabf
b1010001111010101101001101101011 aaabg
1aaabu
0aaabv
0aaabx
1aaaby
b0 aaacb
b11 aaacc
b1010 aaacd
b111000010101010101100001011100 aaace
b101101010100010111011110010110 aaacf
b1010001111010101101001101101011 aaacg

#9500
0aaaar
0aaabs

#10000
1aaaah
0aaaai
1aaaaq
1aaaar
1aaabh
1aaabi
1aaabs

#10001
b10001000111101010100000000000000 aaaaa
b10101000100111011001000100101001000101110010001000111101010100000000000000 aaaab
b1001011010110001000111101010100 aaaad
b10011111011110110001100101000000 aaaae
b10001000111101010100000000000000 aaaaf
b1100 aaaag
0aaaaj
1aaaak
b10001000111101010100000000000000 aaaam
b1001011010110001000 aaaan
0aaaap
b10101000100111011001000100101001000101110010001000111101010100000000000000 aaaas
b10101000100111011001000100101001000101110010001000111101010100000000000000 aaaat
b10101000100111011001000100101001000101110010001000111101010100000000000000 aaaau
b10101000100111011001000100101001000101110010001000111101010100000000000000 aaaav
b10101000100111011001000100101001000101110010001000111101010100000000000000 aaaaw
b10101000100111011001000100101001000101110010001000111101010100000000000000 aaaax
b10001000111101010100000000000000 aaaay
b0 aaaaz
b1100 aaaba
b1001011010110001000111101010100 aaabb
b10011111011110110001100101000000 aaabc
b0 aaabd
b1010100001000101000100111101100 aaabf
b1001011010110001000111101010100 aaabg
0aaabu
1aaabx
b10 aaacb
b0 aaacc
b10 aaacd
b1110110010001001010010001011100 aaace
b1010100001000101000100111101100 aaacf
b1001011010110001000111101010100 aaacg

#10500
0aaaar
0aaabs

#11000
b10101000100111011001000100101001000101110010001000111101010100000000000000 aaaac
0aaaah
1aaaai
0aaaaq
1aaaar
0aaabh
0aaabi
0aaabm
b10 aaabn
b1110110010001001010010001011100 aaabp
b10001000111101010100000000000000 aaabq
1aaabs

#11001
b1 aaaaa
b100011000100111101001110111100000000010100000000000000000000000000000001 aaaab
b10010111001101000010111111011 aaaad
b1 aaaae
b10010111001101000010 aaaaf
b1001 aaaag
0aaaak
1aaaal
b11001101000010111111011000000000 aaaam
b10010111001101000010 aaaan
1aaaap
b100011000100111101001110111100000000010100000000000000000000000000000001 aaaas
b100011000100111101001110111100000000010100000000000000000000000000000001 aaaat
b100011000100111101001110111100000000010100000000000000000000000000000001 aaaau
b100011000100111101001110111100000000010100000000000000000000000000000001 aaaav
b100011000100111101001110111100000000010100000000000000000000000000000001 aaaaw
b100011000100111101001110111100000000010100000000000000000000000000000001 aaaax
b10010111001101000010 aaaay
b1 aaaaz
b1001 aaaba
b10010111001101000010111111011 aaabb
b1 aaabc
b1 aaabd
b1110000110001101010010100101001 aaabf
b10010111001101000010111111011 aaabg
1aaabt
1aaabu
0aaabx
0aaaby
b0 aaacb
b1 aaacc
b1100 aaacd
b1001111010011101111000000000101 aaace
b1110000110001101010010100101001 aaacf
b10010111001101000010111111011 aaacg

#11500
0aaaar
0aaabs

#12000
0aaaai
1aaaar
1aaabi
1aaabs

#12001
b100000111110100100011010100101 aaaaa
b11110111110001000000100011001111001001100100100000111110100100011010100101 aaaab
b110101010011111110100111111001 aaaad
b100000111110100100011010100101 aaaae
b11 aaaaf
b11100 aaaag
1aaaaj
0aaaal
b10010000000000000000000000000000 aaaam
b11 aaaan
b11110111110001000000100011001111001001100100100000111110100100011010100101 aaaas
b11110111110001000000100011001111001001100100100000111110100100011010100101 aaaat
b11110111110001000000100011001111001001100100100000111110100100011010100101 aaaau
b11110111110001000000100011001111001001100100100000111110100100011010100101 aaaav
b11110111110001000000100011001111001001100100100000111110100100011010100101 aaaaw
b11110111110001000000100011001111001001100100100000111110100100011010100101 aaaax
b11 aaaay
b11 aaaaz
b11100 aaaba
b110101010011111110100111111001 aaabb
b100000111110100100011010100101 aaabc
b11 aaabd
b10101101101011010111101011100 aaabf
b110101010011111110100111111001 aaabg
1aaabv
1aaaby
1aaabz
b1 aaacb
b11 aaacc
b1111 aaacd
b10000001000110011110010011001 aaace
b10101101101011010111101011100 aaacf
b110101010011111110100111111001 aaacg

#12500
0aaaar
0aaabs

#13000
1aaaar
1aaabs

#13001
b100101101001110000101111110111 aaaaa
b111001010001001110000001100000100011101000100101101001110000101111110111 aaaab
b100101101001110000101111110111 aaaad
b1 aaaae
b100101101001110000101111110111 aaaaf
b0 aaaag
1aaaah
0aaaaj
1aaaal
b100101101001110000101111110111 aaaam
b100101101001110000101111110111 aaaan
1aaaaq
b111001010001001110000001100000100011101000100101101001110000101111110111 aaaas
b111001010001001110000001100000100011101000100101101001110000101111110111 aaaat
b111001010001001110000001100000100011101000100101101001110000101111110111 aaaau
b111001010001001110000001100000100011101000100101101001110000101111110111 aaaav
b111001010001001110000001100000100011101000100101101001110000101111110111 aaaaw
b111001010001001110000001100000100011101000100101101001110000101111110111 aaaax
b100101101001110000101111110111 aaaay
b1 aaaaz
b0 aaaba
b100101101001110000101111110111 aaabb
b1 aaabc
b1 aaabd
b11101101110101011111100000000 aaabf
b100101101001110000101111110111 aaabg
1aaabh
0aaabt
0aaabv
1aaabx
0aaaby
b10 aaacb
b1 aaacc
b101 aaacd
b10011100000011000001000111010 aaace
b11101101110101011111100000000 aaacf
b100101101001110000101111110111 aaacg

#13500
0aaaar
0aaabs

#14000
b111001010001001110000001100000100011101000100101101001110000101111110111 aaaac
0aaaah
1aaaai
0aaaaq
1aaaar
0aaabh
0aaabi
0aaabl
1aaabm
b101 aaabo
b10011100000011000001000111010 aaabp
b100101101001110000101111110111 aaabq
1aaabs

#14001
b1010100010011001000010010100010 aaaaa
b1101111000101110111000111100111101010100001010100010011001000010010100010 aaaab
b1000010110000101001011010111101 aaaad
b1010100010011001000010010100010 aaaae
b0 aaaaf
b11111 aaaag
1aaaaj
0aaaal
b10000000000000000000000000000000 aaaam
b0 aaaan
0aaaap
b1101111000101110111000111100111101010100001010100010011001000010010100010 aaaas
b1101111000101110111000111100111101010100001010100010011001000010010100010 aaaat
b1101111000101110111000111100111101010100001010100010011001000010010100010 aaaau
b1101111000101110111000111100111101010100001010100010011001000010010100010 aaaav
b1101111000101110111000111100111101010100001010100010011001000010010100010 aaaaw
b1101111000101110111000111100111101010100001010100010011001000010010100010 aaaax
b0 aaaay
b11 aaaaz
b11111 aaaba
b1000010110000101001011010111101 aaabb
b1010100010011001000010010100010 aaabc
b11 aaabd
b10110100011100001001000011111 aaabf
b1000010110000101001011010111101 aaabg
1aaabt
0aaabu
1aaabv
0aaabx
0aaabz
b11 aaacb
b11 aaacc
b1100 aaacd
b1011101110001111001111010101000 aaace
b10110100011100001001000011111 aaacf
b1000010110000101001011010111101 aaacg

#14500
0aaaar
0aaabs

#15000
1aaaar
1aaabs

#15001
b10001111001010110 aaaaa
b1100000000100100101100010100000010011101100000000000000010001111001010110 aaaab
b1000111100101011000101011110 aaaad
b1 aaaae
b10001111001010110 aaaaf
b1011 aaaag
0aaaaj
1aaaal
b10010101100010101111000000000000 aaaam
b10001111001010110 aaaan
b1100000000100100101100010100000010011101100000000000000010001111001010110 aaaas
b1100000000100100101100010100000010011101100000000000000010001111001010110 aaaat
b1100000000100100101100010100000010011101100000000000000010001111001010110 aaaau
b1100000000100100101100010100000010011101100000000000000010001111001010110 aaaav
b1100000000100100101100010100000010011101100000000000000010001111001010110 aaaaw
b1100000000100100101100010100000010011101100000000000000010001111001010110 aaaax
b10001111001010110 aaaay
b1 aaaaz
b1011 aaaba
b1000111100101011000101011110 aaabb
b1 aaabc
b1 aaabd
b11010001100100010001101001011 aaabf
b1000111100101011000101011110 aaabg
0aaabt
1aaabx
b0 aaacb
b1 aaacc
b0 aaacd
b1001001011000101000000100111011 aaace
b11010001100100010001101001011 aaacf
b1000111100101011000101011110 aaacg

#15500
0aaaar
0aaabs

#16000
1aaaar
1aaabs

#16001
b110111010110101 aaaaa
b10111111110111011000100111001000010001000000000000000000000110111010110101 aaaab
b110111010110101101111010100 aaaad
b1101111111011111101101111111100 aaaae
b110111010110101 aaaaf
b1100 aaaag
1aaaaj
0aaaal
b10110101101111010100000000000000 aaaam
b110111010110101 aaaan
b10111111110111011000100111001000010001000000000000000000000110111010110101 aaaas
b10111111110111011000100111001000010001000000000000000000000110111010110101 aaaat
b10111111110111011000100111001000010001000000000000000000000110111010110101 aaaau
b10111111110111011000100111001000010001000000000000000000000110111010110101 aaaav
b10111111110111011000100111001000010001000000000000000000000110111010110101 aaaaw
b10111111110111011000100111001000010001000000000000000000000110111010110101 aaaax
b110111010110101 aaaay
b10 aaaaz
b1100 aaaba
b110111010110101101111010100 aaabb
b1101111111011111101101111111100 aaabc
b10 aaabd
b1101111011011011101100110101100 aaabf
b110111010110101101111010100 aaabg
1aaabt
0aaabv
1aaaby
1aaabz
b11 aaacb
b10 aaacc
b1111 aaacd
b1110110001001110010000100010000 aaace
b1101111011011011101100110101100 aaacf
b110111010110101101111010100 aaacg

#16500
0aaaar
0aaabs

#17000
1aaaar
1aaabs

#17001
b100 aaaaa
b11111010010100001111110001100001000010001000000000000000000000000000000100 aaaab
b1001010001010101100001100010101 aaaad
b1110011110001001100001001001001 aaaae
b100 aaaaf
b11100 aaaag
b1010000000000000000000000000000 aaaam
b100 aaaan
1aaaap
b11111010010100001111110001100001000010001000000000000000000000000000000100 aaaas
b11111010010100001111110001100001000010001000000000000000000000000000000100 aaaat
b11111010010100001111110001100001000010001000000000000000000000000000000100 aaaau
b11111010010100001111110001100001000010001000000000000000000000000000000100 aaaav
b11111010010100001111110001100001000010001000000000000000000000000000000100 aaaaw
b11111010010100001111110001100001000010001000000000000000000000000000000100 aaaax
b100 aaaay
b11 aaaaz
b11100 aaaba
b1001010001010101100001100010101 aaabb
b1110011110001001100001001001001 aaabc
b11 aaabd
b111001111011100000000101011100 aaabf
b1001010001010101100001100010101 aaabg
0aaabt
1aaabu
1aaabv
b10 aaacb
b11 aaacc
b1001 aaacd
b1000011111100011000010000100010 aaace
b111001111011100000000101011100 aaacf
b1001010001010101100001100010101 aaacg

#17500
0aaaar
0aaabs

#18000
1aaaah
0aaaai
1aaaaq
1aaaar
1aaabh
1aaabi
1aaabs

#18001
b110101000111111000111001100011 aaaaa
b10110010000110101001011111011100000010100100110101000111111000111001100011 aaaab
b1011111101110000000000100011100 aaaad
b110101000111111000111001100011 aaaae
b0 aaaaf
b11111 aaaag
b0 aaaam
b0 aaaan
0aaaap
b10110010000110101001011111011100000010100100110101000111111000111001100011 aaaas
b10110010000110101001011111011100000010100100110101000111111000111001100011 aaaat
b10110010000110101001011111011100000010100100110101000111111000111001100011 aaaau
b10110010000110101001011111011100000010100100110101000111111000111001100011 aaaav
b10110010000110101001011111011100000010100100110101000111111000111001100011 aaaaw
b10110010000110101001011111011100000010100100110101000111111000111001100011 aaaax
b0 aaaay
b11111 aaaba
b1011111101110000000000100011100 aaabb
b110101000111111000111001100011 aaabc
b1101010101001111000111101111111 aaabf
b1011111101110000000000100011100 aaabg
0aaabu
0aaabv
0aaabx
b0 aaacb
b1000 aaacd
b1101010010111110111000000101001 aaace
b1101010101001111000111101111111 aaacf
b1011111101110000000000100011100 aaacg

#18500
0aaaar
0aaabs

#19000
b10110010000110101001011111011100000010100100110101000111111000111001100011 aaaac
0aaaah
1aaaai
0aaaaq
1aaaar
0aaabh
0aaabi
1aaabl
b0 aaabn
b1000 aaabo
b1101010010111110111000000101001 aaabp
b110101000111111000111001100011 aaabq
1aaabs

#19001
b1111011101001000000100011001010 aaaaa
b10000111010101000010010010110010100111100101111011101001000000100011001010 aaaab
b1110001110010010001001010011000 aaaad
b1111011101001000000100011001010 aaaae
b1001010011000000000000000000000 aaaaf
b10010 aaaag
0aaaaj
1aaaak
b1001010011000000000000000000000 aaaam
b1110001110010 aaaan
1aaaap
b10000111010101000010010010110010100111100101111011101001000000100011001010 aaaas
b10000111010101000010010010110010100111100101111011101001000000100011001010 aaaat
b10000111010101000010010010110010100111100101111011101001000000100011001010 aaaau
b10000111010101000010010010110010100111100101111011101001000000100011001010 aaaav
b10000111010101000010010010110010100111100101111011101001000000100011001010 aaaaw
b10000111010101000010010010110010100111100101111011101001000000100011001010 aaaax
b1001010011000000000000000000000 aaaay
b0 aaaaz
b10010 aaaba
b1110001110010010001001010011000 aaabb
b1111011101001000000100011001010 aaabc
b0 aaabd
b1001110110101111011000110010 aaabf
b1110001110010010001001010011000 aaabg
1aaabu
0aaabw
0aaabz
b1 aaacb
b0 aaacc
b1101 aaacd
b1010000100100101100101001111001 aaace
b1001110110101111011000110010 aaacf
b1110001110010010001001010011000 aaacg

#19500
0aaaar
0aaabs

#20000
1aaaah
0aaaai
1aaaaq
1aaaar
1aaabh
1aaabi
1aaabs

#20001
b1 aaaaa
b10001100010100010111100110110101001000011000000000000000000000000000000001 aaaab
b1010011010110000100101111001011 aaaad
b1 aaaae
b1010011010110000100 aaaaf
b1100 aaaag
0aaaak
1aaaal
b10000100101111001011000000000000 aaaam
b1010011010110000100 aaaan
0aaaap
b10001100010100010111100110110101001000011000000000000000000000000000000001 aaaas
b10001100010100010111100110110101001000011000000000000000000000000000000001 aaaat
b10001100010100010111100110110101001000011000000000000000000000000000000001 aaaau
b10001100010100010111100110110101001000011000000000000000000000000000000001 aaaav
b10001100010100010111100110110101001000011000000000000000000000000000000001 aaaaw
b10001100010100010111100110110101001000011000000000000000000000000000000001 aaaax
b1010011010110000100 aaaay
b1 aaaaz
b1100 aaaba
b1010011010110000100101111001011 aaabb
b1 aaabc
b1 aaabd
b1000001010111100010100001101100 aaabf
b1010011010110000100101111001011 aaabg
0aaabu
b11 aaacb
b1 aaacc
b1 aaacd
b1000101111001101101010010000110 aaace
b1000001010111100010100001101100 aaacf
b1010011010110000100101111001011 aaacg

#20500
0aaaar
0aaabs

#21000
b10001100010100010111100110110101001000011000000000000000000000000000000001 aaaac
0aaaah
1aaaai
0aaaaq
1aaaar
0aaabh
0aaabi
0aaabk
0aaabm
b11 aaabn
b1 aaabo
b1000101111001101101010010000110 aaabp
b1 aaabq
1aaabs

#21001
b110111111101111100001011000110 aaaaa
b10101000110110101010100111101101110101110000110111111101111100001011000110 aaaab
b110111100111100010000110110101 aaaad
b110111111101111100001011000110 aaaae
b11011110011 aaaaf
b10011 aaaag
1aaaaj
0aaaal
b1101101010000000000000000000 aaaam
b11011110011 aaaan
b10101000110110101010100111101101110101110000110111111101111100001011000110 aaaas
b10101000110110101010100111101101110101110000110111111101111100001011000110 aaaat
b10101000110110101010100111101101110101110000110111111101111100001011000110 aaaau
b10101000110110101010100111101101110101110000110111111101111100001011000110 aaaav
b10101000110110101010100111101101110101110000110111111101111100001011000110 aaaaw
b10101000110110101010100111101101110101110000110111111101111100001011000110 aaaax
b11011110011 aaaay
b11 aaaaz
b10011 aaaba
b110111100111100010000110110101 aaabb
b110111111101111100001011000110 aaabc
b11 aaabd
b11010011110001101110011 aaabf
b110111100111100010000110110101 aaabg
1aaabw
b10 aaacb
b11 aaacc
b11 aaacd
b1101010101001111011011101011100 aaace
b11010011110001101110011 aaacf
b110111100111100010000110110101 aaacg

#21500
0aaaar
0aaabs

#22000
1aaaar
1aaabs

#22001
b101001110110 aaaaa
b101011010101000110011110001100010100100100000000000000000000101001110110 aaaab
b101001110110000101010011110 aaaad
b110101111111110110101111011111 aaaae
b101001110110 aaaaf
b1111 aaaag
b10000101010011110000000000000000 aaaam
b101001110110 aaaan
b101011010101000110011110001100010100100100000000000000000000101001110110 aaaas
b101011010101000110011110001100010100100100000000000000000000101001110110 aaaat
b101011010101000110011110001100010100100100000000000000000000101001110110 aaaau
b101011010101000110011110001100010100100100000000000000000000101001110110 aaaav
b101011010101000110011110001100010100100100000000000000000000101001110110 aaaaw
b101011010101000110011110001100010100100100000000000000000000101001110110 aaaax
b101001110110 aaaay
b10 aaaaz
b1111 aaaba
b101001110110000101010011110 aaabb
b110101111111110110101111011111 aaabc
b10 aaabd
b110100111111010110101101001111 aaabf
b101001110110000101010011110 aaabg
1aaabx
0aaaby
b10 aaacc
b1101 aaacd
b1010001100111100011000101001001 aaace
b110100111111010110101101001111 aaacf
b101001110110000101010011110 aaacg

#22500
0aaaar
0aaabs

#23000
1aaaar
1aaabs

