CORE/tf.vcd
$date
     Mar 31, 2022       20:35:49
$end

$version
 SystemC 2.3.3-Accellera --- Feb  8 2022 20:50:14
$end

$timescale
     1 ps
$end

$scope module SystemC $end
$scope module core_inst $end
$scope module decod $end
$var wire   32  aaaaf  rdata1_sd [31:0]  $end
$var wire   32  aaaag  rdata2_sd [31:0]  $end
$var wire    1  aaaah  r1_valid_sd       $end
$var wire    1  aaaai  r2_valid_sd       $end
$var wire   128  aaaaj  DEC2EXE_OUT_SD [127:0]  $end
$var wire   32  aaaak  dec2if_in_sd [31:0]  $end
$var wire    1  aaaal  dec2if_push_sd       $end
$var wire    1  aaaam  dec2if_empty_sd       $end
$var wire    1  aaaan  dec2if_full_sd       $end
$var wire   32  aaaao  dec2if_out_sd [31:0]  $end
$var wire   128  aaaap  dec2exe_in_sd [127:0]  $end
$var wire    1  aaaaq  dec2exe_push_sd       $end
$var wire    1  aaaar  dec2exe_full_sd       $end
$var wire    1  aaaas  r_type_inst_sd       $end
$var wire    1  aaaat  i_type_inst_sd       $end
$var wire    1  aaaau  s_type_inst_sd       $end
$var wire    1  aaaav  b_type_inst_sd       $end
$var wire    1  aaaaw  u_type_inst_sd       $end
$var wire    1  aaaax  j_type_inst_sd       $end
$var wire    1  aaaay  jalr_type_inst_sd       $end
$var wire    1  aaaaz  add_i_sd       $end
$var wire    1  aaaba  slt_i_sd       $end
$var wire    1  aaabb  sltu_i_sd       $end
$var wire    1  aaabc  and_i_sd       $end
$var wire    1  aaabd  or_i_sd       $end
$var wire    1  aaabe  xor_i_sd       $end
$var wire    1  aaabf  sll_i_sd       $end
$var wire    1  aaabg  srl_i_sd       $end
$var wire    1  aaabh  sub_i_sd       $end
$var wire    1  aaabi  sra_i_sd       $end
$var wire    1  aaabj  addi_i_sd       $end
$var wire    1  aaabk  slti_i_sd       $end
$var wire    1  aaabl  sltiu_i_sd       $end
$var wire    1  aaabm  andi_i_sd       $end
$var wire    1  aaabn  ori_i_sd       $end
$var wire    1  aaabo  xori_i_sd       $end
$var wire    1  aaabp  jalr_i_sd       $end
$var wire    1  aaabq  slli_i_sd       $end
$var wire    1  aaabr  srli_i_sd       $end
$var wire    1  aaabs  srai_i_sd       $end
$var wire    1  aaabt  lw_i_sd       $end
$var wire    1  aaabu  lh_i_sd       $end
$var wire    1  aaabv  lhu_i_sd       $end
$var wire    1  aaabw  lb_i_sd       $end
$var wire    1  aaabx  lbu_i_sd       $end
$var wire    1  aaaby  beq_i_sd       $end
$var wire    1  aaabz  bne_i_sd       $end
$var wire    1  aaaca  blt_i_sd       $end
$var wire    1  aaacb  bge_i_sd       $end
$var wire    1  aaacc  bltu_i_sd       $end
$var wire    1  aaacd  bgeu_i_sd       $end
$var wire    1  aaace  lui_i_sd       $end
$var wire    1  aaacf  auipc_i_sd       $end
$var wire    1  aaacg  jal_i_sd       $end
$var wire    1  aaach  sw_i_sd       $end
$var wire    1  aaaci  sh_i_sd       $end
$var wire    1  aaacj  sb_i_sd       $end
$var wire   32  aaack  offset_branch_sd [31:0]  $end
$var wire    1  aaacl  inc_pc_sd       $end
$var wire    6  aaacm  adr_dest_sd [5:0]  $end
$var wire   32  aaacn  exe_op1_sd [31:0]  $end
$var wire   32  aaaco  exe_op2_sd [31:0]  $end
$var wire    2  aaacp  mem_size_sd [1:0]  $end
$var wire    1  aaacq  mem_load_sd       $end
$var wire    1  aaacr  mem_store_sd       $end
$var wire    2  aaacs  exe_cmd_sd [1:0]  $end
$var wire    1  aaact  select_shift_sd       $end
$var wire    1  aaacu  exe_neg_op2_sd       $end
$var wire    1  aaacv  exe_wb_sd       $end
$var wire    1  aaacw  mem_sign_extend_sd       $end
$var wire    1  aaacx  add_offset_to_pc_sd       $end
$var wire    1  aaacy  stall       $end
$var wire    1  aaakp  RESET_N       $end
$var wire    1  aaakq  CLK       $end
$var wire   32  aaakr  BP_MEM_RES_RM [31:0]  $end
$var wire    6  aaaks  BP_DEST_RM [5:0]  $end
$var wire    1  aaakt  BP_MEM_LOAD_RE       $end
$var wire   32  aaaku  BP_EXE_RES_RE [31:0]  $end
$var wire    6  aaakv  BP_DEST_RE [5:0]  $end
$var wire    1  aaakw  DEC2EXE_EMPTY_SD       $end
$var wire    1  aaakx  DEC2EXE_POP_SE       $end
$var wire    1  aaaky  IF2DEC_FLUSH_SD       $end
$var wire    1  aaakz  IF2DEC_POP_SD       $end
$var wire    1  aaala  IF2DEC_EMPTY_SI       $end
$var wire   32  aaalb  INSTR_RI [31:0]  $end
$var wire   32  aaalc  PC_RD [31:0]  $end
$var wire    1  aaald  DEC2IF_EMPTY_SD       $end
$var wire    1  aaale  DEC2IF_POP_SI       $end
$var wire    2  aaalf  MEM_SIZE_RD [1:0]  $end
$var wire    1  aaalg  MEM_SIGN_EXTEND_RD       $end
$var wire    1  aaalh  MEM_STORE_RD       $end
$var wire    1  aaali  MEM_LOAD_RD       $end
$var wire   32  aaalj  MEM_DATA_RD [31:0]  $end
$var wire    1  aaalk  SELECT_SHIFT_RD       $end
$var wire    6  aaall  EXE_DEST_SD [5:0]  $end
$var wire    1  aaalm  WB_RD       $end
$var wire    1  aaaln  NEG_OP2_RD       $end
$var wire    2  aaalo  EXE_CMD_RD [1:0]  $end
$var wire   32  aaalp  OP2_RD [31:0]  $end
$var wire   32  aaalq  OP1_RD [31:0]  $end
$var wire   32  aaalr  READ_PC_SR [31:0]  $end
$var wire    1  aaals  WRITE_PC_ENABLE_SD       $end
$var wire   32  aaalt  WRITE_PC_SD [31:0]  $end
$var wire    6  aaalu  RADR2_SD [5:0]  $end
$var wire    6  aaalv  RADR1_SD [5:0]  $end
$var wire   32  aaalw  RDATA2_SR [31:0]  $end
$var wire   32  aaalx  RDATA1_SR [31:0]  $end
$scope module dec2exe $end
$var wire    1  aaaae  fifo_v       $end
$var wire   128  aaajz  DOUT_R [127:0]  $end
$var wire    1  aaaka  EMPTY_S       $end
$var wire    1  aaakb  FULL_S       $end
$var wire    1  aaakc  RESET_N       $end
$var wire    1  aaakd  POP_S       $end
$var wire    1  aaake  PUSH_S       $end
$var wire    1  aaakf  CLK       $end
$var wire   128  aaakg  DIN_S [127:0]  $end
$upscope $end
$scope module dec2if $end
$var wire    1  aaaad  fifo_v       $end
$var wire   32  aaakh  DOUT_R [31:0]  $end
$var wire    1  aaaki  EMPTY_S       $end
$var wire    1  aaakj  FULL_S       $end
$var wire    1  aaakk  RESET_N       $end
$var wire    1  aaakl  POP_S       $end
$var wire    1  aaakm  PUSH_S       $end
$var wire    1  aaakn  CLK       $end
$var wire   32  aaako  DIN_S [31:0]  $end
$upscope $end
$upscope $end
$scope module exec $end
$var wire   32  aaacz  op1_se [31:0]  $end
$var wire   32  aaada  op2_se [31:0]  $end
$var wire   32  aaadb  exe_res_se [31:0]  $end
$var wire   76  aaadc  exe2mem_din_se [75:0]  $end
$var wire   76  aaadd  exe2mem_dout_se [75:0]  $end
$var wire   32  aaade  alu_in_op2_se [31:0]  $end
$var wire   32  aaadf  alu_out_se [31:0]  $end
$var wire   32  aaadg  shifter_out_se [31:0]  $end
$var wire    5  aaadh  shift_val_se [4:0]  $end
$var wire    1  aaadi  exe2mem_push_se       $end
$var wire    1  aaadj  blocked       $end
$var wire   32  aaaiv  MEM_RES_RM [31:0]  $end
$var wire    6  aaaiw  MEM_DEST_RM [5:0]  $end
$var wire    1  aaaix  DEC2EXE_POP_SE       $end
$var wire    1  aaaiy  EXE2MEM_EMPTY_SE       $end
$var wire    1  aaaiz  MEM_STORE_RE       $end
$var wire    1  aaaja  MEM_LOAD_RE       $end
$var wire    1  aaajb  MEM_SIGN_EXTEND_RE       $end
$var wire    1  aaajc  WB_RE       $end
$var wire    2  aaajd  MEM_SIZE_RE [1:0]  $end
$var wire    6  aaaje  DEST_RE [5:0]  $end
$var wire   32  aaajf  MEM_DATA_RE [31:0]  $end
$var wire   32  aaajg  EXE_RES_RE [31:0]  $end
$var wire    1  aaajh  RESET       $end
$var wire    1  aaaji  CLK       $end
$var wire    1  aaajj  DEC2EXE_EMPTY_SD       $end
$var wire    1  aaajk  EXE2MEM_POP_SM       $end
$var wire    1  aaajl  MEM_STORE_RD       $end
$var wire    1  aaajm  MEM_LOAD_RD       $end
$var wire    1  aaajn  SELECT_SHIFT_RD       $end
$var wire    1  aaajo  MEM_SIGN_EXTEND_RD       $end
$var wire    1  aaajp  WB_RD       $end
$var wire    1  aaajq  NEG_OP2_RD       $end
$var wire    2  aaajr  MEM_SIZE_RD [1:0]  $end
$var wire    2  aaajs  CMD_RD [1:0]  $end
$var wire    6  aaajt  DEST_RD [5:0]  $end
$var wire   32  aaaju  MEM_DATA_RD [31:0]  $end
$var wire    6  aaajv  RADR2_RD [5:0]  $end
$var wire    6  aaajw  RADR1_RD [5:0]  $end
$var wire   32  aaajx  OP2_RD [31:0]  $end
$var wire   32  aaajy  OP1_RD [31:0]  $end
$scope module alu $end
$var wire   32  aaaiq  RES_SE [31:0]  $end
$var wire    2  aaair  CMD_SE [1:0]  $end
$var wire    1  aaais  CIN_SE       $end
$var wire   32  aaait  OP2_SE [31:0]  $end
$var wire   32  aaaiu  OP1_SE [31:0]  $end
$upscope $end
$scope module exe2mem $end
$var wire    1  aaadp  fifo_v       $end
$var wire   76  aaaie  DOUT_R [75:0]  $end
$var wire    1  aaaif  EMPTY_S       $end
$var wire    1  aaaig  FULL_S       $end
$var wire    1  aaaih  RESET_N       $end
$var wire    1  aaaii  POP_S       $end
$var wire    1  aaaij  PUSH_S       $end
$var wire    1  aaaik  CLK       $end
$var wire   76  aaail  DIN_S [75:0]  $end
$upscope $end
$scope module shifter $end
$var wire    1  aaadk  sra_se       $end
$var wire    1  aaadl  sll_se       $end
$var wire    1  aaadm  srl_se       $end
$var wire   32  aaadn  sll_dout_se [31:0]  $end
$var wire   32  aaado  sr_dout_se [31:0]  $end
$var wire   32  aaaim  DOUT_SE [31:0]  $end
$var wire    2  aaain  CMD_SE [1:0]  $end
$var wire    5  aaaio  SHIFT_VAL_SE [4:0]  $end
$var wire   32  aaaip  DIN_SE [31:0]  $end
$upscope $end
$upscope $end
$scope module ifetch $end
$var wire    1  aaaaa  IF2DEC_PUSH_SI       $end
$var wire    1  aaaab  IF2DEC_FULL_SI       $end
$var wire    1  aaaho  RESET       $end
$var wire    1  aaahp  if2dec_in       $end
$var wire    1  aaahq  instr_ri       $end
$var wire    1  aaahr  PC_OUT_RI       $end
$var wire    1  aaahs  CLK       $end
$var wire   32  aaaht  INSTR_RI [31:0]  $end
$var wire   32  aaahu  PC_RD [31:0]  $end
$var wire    1  aaahv  IF2DEC_EMPTY_SI       $end
$var wire    1  aaahw  IF2DEC_POP_SD       $end
$var wire    1  aaahx  IF2DEC_FLUSH_SD       $end
$var wire    1  aaahy  DEC2IF_POP_SI       $end
$var wire    1  aaahz  DEC2IF_EMPTY_SI       $end
$var wire    1  aaaia  IC_STALL_SI       $end
$var wire   32  aaaib  IC_INST_SI [31:0]  $end
$var wire    1  aaaic  ADR_VALID_SI       $end
$var wire   32  aaaid  ADR_SI [31:0]  $end
$scope module if2dec $end
$var wire    1  aaaac  fifo_v       $end
$var wire   64  aaahg  DOUT_R [63:0]  $end
$var wire    1  aaahh  EMPTY_S       $end
$var wire    1  aaahi  FULL_S       $end
$var wire    1  aaahj  RESET_N       $end
$var wire    1  aaahk  POP_S       $end
$var wire    1  aaahl  PUSH_S       $end
$var wire    1  aaahm  CLK       $end
$var wire   64  aaahn  DIN_S [63:0]  $end
$upscope $end
$upscope $end
$scope module mem $end
$var wire    1  aaadq  mem2wbk_push_sm       $end
$var wire    1  aaadr  mem2wbk_full_sm       $end
$var wire   42  aaads  mem2wbk_din_sm [41:0]  $end
$var wire   42  aaadt  mem2wbk_dout_sm [41:0]  $end
$var wire   32  aaadu  data_sm [31:0]  $end
$var wire    1  aaadv  wb_sm       $end
$var wire    1  aaagi  RESET       $end
$var wire    1  aaagj  CLK       $end
$var wire    1  aaagk  WB_RM       $end
$var wire    6  aaagl  DEST_RM [5:0]  $end
$var wire   32  aaagm  MEM_RES_RM [31:0]  $end
$var wire    1  aaagn  MEM2WBK_EMPTY_SM       $end
$var wire    1  aaago  MEM2WBK_POP_SW       $end
$var wire    1  aaagp  EXE2MEM_POP_SM       $end
$var wire    1  aaagq  EXE2MEM_EMPTY_SE       $end
$var wire    1  aaagr  STORE_RE       $end
$var wire    1  aaags  LOAD_RE       $end
$var wire    1  aaagt  SIGN_EXTEND_RE       $end
$var wire    1  aaagu  WB_RE       $end
$var wire    2  aaagv  MEM_SIZE_RE [1:0]  $end
$var wire    6  aaagw  DEST_RE [5:0]  $end
$var wire   32  aaagx  MEM_DATA_RE [31:0]  $end
$var wire   32  aaagy  EXE_RES_RE [31:0]  $end
$var wire    1  aaagz  MCACHE_STALL_SM       $end
$var wire   32  aaaha  MCACHE_RESULT_SM [31:0]  $end
$var wire    1  aaahb  MCACHE_LOAD_SM       $end
$var wire    1  aaahc  MCACHE_STORE_SM       $end
$var wire    1  aaahd  MCACHE_ADR_VALID_SM       $end
$var wire   32  aaahe  MCACHE_DATA_SM [31:0]  $end
$var wire   32  aaahf  MCACHE_ADR_SM [31:0]  $end
$scope module mem2wbk $end
$var wire    1  aaadw  fifo_v       $end
$var wire   42  aaaga  DOUT_R [41:0]  $end
$var wire    1  aaagb  EMPTY_S       $end
$var wire    1  aaagc  FULL_S       $end
$var wire    1  aaagd  RESET_N       $end
$var wire    1  aaage  POP_S       $end
$var wire    1  aaagf  PUSH_S       $end
$var wire    1  aaagg  CLK       $end
$var wire   42  aaagh  DIN_S [41:0]  $end
$upscope $end
$upscope $end
$scope module reg $end
$var wire   32  aaadx  REG_0 [31:0]  $end
$var wire   32  aaady  REG_1 [31:0]  $end
$var wire   32  aaadz  REG_2 [31:0]  $end
$var wire   32  aaaea  REG_3 [31:0]  $end
$var wire   32  aaaeb  REG_4 [31:0]  $end
$var wire   32  aaaec  REG_5 [31:0]  $end
$var wire   32  aaaed  REG_6 [31:0]  $end
$var wire   32  aaaee  REG_7 [31:0]  $end
$var wire   32  aaaef  REG_8 [31:0]  $end
$var wire   32  aaaeg  REG_9 [31:0]  $end
$var wire   32  aaaeh  REG_10 [31:0]  $end
$var wire   32  aaaei  REG_11 [31:0]  $end
$var wire   32  aaaej  REG_12 [31:0]  $end
$var wire   32  aaaek  REG_13 [31:0]  $end
$var wire   32  aaael  REG_14 [31:0]  $end
$var wire   32  aaaem  REG_15 [31:0]  $end
$var wire   32  aaaen  REG_16 [31:0]  $end
$var wire   32  aaaeo  REG_17 [31:0]  $end
$var wire   32  aaaep  REG_18 [31:0]  $end
$var wire   32  aaaeq  REG_19 [31:0]  $end
$var wire   32  aaaer  REG_20 [31:0]  $end
$var wire   32  aaaes  REG_21 [31:0]  $end
$var wire   32  aaaet  REG_22 [31:0]  $end
$var wire   32  aaaeu  REG_23 [31:0]  $end
$var wire   32  aaaev  REG_24 [31:0]  $end
$var wire   32  aaaew  REG_25 [31:0]  $end
$var wire   32  aaaex  REG_26 [31:0]  $end
$var wire   32  aaaey  REG_27 [31:0]  $end
$var wire   32  aaaez  REG_28 [31:0]  $end
$var wire   32  aaafa  REG_29 [31:0]  $end
$var wire   32  aaafb  REG_30 [31:0]  $end
$var wire   32  aaafc  REG_31 [31:0]  $end
$var wire   32  aaafd  REG_32 [31:0]  $end
$var wire    1  aaafo  RESET_N       $end
$var wire    1  aaafp  CLK       $end
$var wire   32  aaafq  READ_PC_SR [31:0]  $end
$var wire    1  aaafr  WRITE_PC_ENABLE_SD       $end
$var wire   32  aaafs  WRITE_PC_SD [31:0]  $end
$var wire   32  aaaft  WDATA_SW [31:0]  $end
$var wire    1  aaafu  WENABLE_SW       $end
$var wire    6  aaafv  WADR_SW [5:0]  $end
$var wire   32  aaafw  RDATA2_SR [31:0]  $end
$var wire   32  aaafx  RDATA1_SR [31:0]  $end
$var wire    6  aaafy  RADR2_SD [5:0]  $end
$var wire    6  aaafz  RADR1_SD [5:0]  $end
$upscope $end
$scope module wbk $end
$var wire    1  aaafe  RESET       $end
$var wire    1  aaaff  CLK       $end
$var wire    1  aaafg  MEM2WBK_POP_SW       $end
$var wire    1  aaafh  MEM2WBK_EMPTY_SM       $end
$var wire    1  aaafi  WB_RM       $end
$var wire    6  aaafj  DEST_RM [5:0]  $end
$var wire   32  aaafk  MEM_RES_RM [31:0]  $end
$var wire    1  aaafl  WENABLE_SW       $end
$var wire   32  aaafm  WDATA_SW [31:0]  $end
$var wire    6  aaafn  WADR_SW [5:0]  $end
$upscope $end
$upscope $end
$upscope $end
$enddefinitions  $end

$comment
All initial values are dumped below at time 0 sec = 0 timescale units.
$end

$dumpvars
0aaaaa
0aaaab
0aaaac
0aaaad
0aaaae
b0 aaaaf
b0 aaaag
1aaaah
1aaaai
b0 aaaaj
b10000000001010100 aaaak
1aaaal
1aaaam
0aaaan
b0 aaaao
b11000000000000000000000000000000000000000000000000000000000000000000000000000000000000000000000000000000000000000000000000000000 aaaap
0aaaaq
0aaaar
0aaaas
0aaaat
0aaaau
0aaaav
0aaaaw
0aaaax
0aaaay
0aaaaz
0aaaba
0aaabb
0aaabc
0aaabd
0aaabe
0aaabf
0aaabg
0aaabh
0aaabi
0aaabj
0aaabk
0aaabl
0aaabm
0aaabn
0aaabo
0aaabp
0aaabq
0aaabr
0aaabs
0aaabt
0aaabu
0aaabv
0aaabw
0aaabx
0aaaby
0aaabz
0aaaca
0aaacb
0aaacc
0aaacd
0aaace
0aaacf
0aaacg
0aaach
0aaaci
0aaacj
b0 aaack
1aaacl
b0 aaacm
b0 aaacn
b0 aaaco
b0 aaacp
0aaacq
0aaacr
b0 aaacs
0aaact
0aaacu
0aaacv
0aaacw
0aaacx
0aaacy
b0 aaacz
b0 aaada
b0 aaadb
b0 aaadc
b0 aaadd
b0 aaade
b0 aaadf
b0 aaadg
b0 aaadh
0aaadi
0aaadj
0aaadk
1aaadl
0aaadm
b0 aaadn
b0 aaado
0aaadp
0aaadq
0aaadr
b0 aaads
b0 aaadt
b0 aaadu
0aaadv
0aaadw
b0 aaadx
b0 aaady
b0 aaadz
b0 aaaea
b0 aaaeb
b0 aaaec
b0 aaaed
b0 aaaee
b0 aaaef
b0 aaaeg
b0 aaaeh
b0 aaaei
b0 aaaej
b0 aaaek
b0 aaael
b0 aaaem
b0 aaaen
b0 aaaeo
b0 aaaep
b0 aaaeq
b0 aaaer
b0 aaaes
b0 aaaet
b0 aaaeu
b0 aaaev
b0 aaaew
b0 aaaex
b0 aaaey
b0 aaaez
b0 aaafa
b0 aaafb
b0 aaafc
b10000000001010000 aaafd
0aaafe
1aaaff
0aaafg
1aaafh
0aaafi
b0 aaafj
b0 aaafk
0aaafl
b0 aaafm
b0 aaafn
0aaafo
1aaafp
b10000000001010000 aaafq
1aaafr
b10000000001010100 aaafs
b0 aaaft
0aaafu
b0 aaafv
b0 aaafw
b0 aaafx
b0 aaafy
b0 aaafz
b0 aaaga
1aaagb
0aaagc
0aaagd
0aaage
0aaagf
1aaagg
b0 aaagh
0aaagi
1aaagj
0aaagk
b0 aaagl
b0 aaagm
1aaagn
0aaago
0aaagp
1aaagq
0aaagr
0aaags
0aaagt
0aaagu
b0 aaagv
b0 aaagw
b0 aaagx
b0 aaagy
0aaagz
b0 aaaha
0aaahb
0aaahc
0aaahd
b0 aaahe
b0 aaahf
b0 aaahg
1aaahh
0aaahi
0aaahj
0aaahk
0aaahl
1aaahm
b0 aaahn
0aaaho
0aaahp
0aaahq
1aaahr
1aaahs
b0 aaaht
b0 aaahu
1aaahv
0aaahw
0aaahx
0aaahy
1aaahz
0aaaia
b0 aaaib
0aaaic
b0 aaaid
b0 aaaie
1aaaif
0aaaig
0aaaih
0aaaii
0aaaij
1aaaik
b0 aaail
b0 aaaim
b0 aaain
b0 aaaio
b0 aaaip
b0 aaaiq
b0 aaair
0aaais
b0 aaait
b0 aaaiu
b0 aaaiv
b0 aaaiw
0aaaix
1aaaiy
0aaaiz
0aaaja
0aaajb
0aaajc
b0 aaajd
b0 aaaje
b0 aaajf
b0 aaajg
0aaajh
1aaaji
1aaajj
0aaajk
0aaajl
0aaajm
0aaajn
0aaajo
0aaajp
0aaajq
b0 aaajr
b0 aaajs
b0 aaajt
b0 aaaju
b0 aaajv
b0 aaajw
b0 aaajx
b0 aaajy
b0 aaajz
1aaaka
0aaakb
0aaakc
0aaakd
0aaake
1aaakf
b11000000000000000000000000000000000000000000000000000000000000000000000000000000000000000000000000000000000000000000000000000000 aaakg
b0 aaakh
1aaaki
0aaakj
0aaakk
0aaakl
1aaakm
1aaakn
b10000000001010100 aaako
0aaakp
1aaakq
b0 aaakr
b0 aaaks
0aaakt
b0 aaaku
b0 aaakv
1aaakw
0aaakx
0aaaky
0aaakz
1aaala
b0 aaalb
b0 aaalc
1aaald
0aaale
b0 aaalf
0aaalg
0aaalh
0aaali
b0 aaalj
0aaalk
b0 aaall
0aaalm
0aaaln
b0 aaalo
b0 aaalp
b0 aaalq
b10000000001010000 aaalr
1aaals
b10000000001010100 aaalt
b0 aaalu
b0 aaalv
b0 aaalw
b0 aaalx
$end

#500
0aaaff
0aaafp
0aaagg
0aaagj
0aaahm
0aaahr
0aaahs
0aaaik
0aaaji
0aaakf
0aaakn
0aaakq

#1000
b10000000001010100 aaafd
1aaaff
1aaafp
1aaagg
1aaagj
1aaahm
1aaahr
1aaahs
1aaaik
1aaaji
1aaakf
1aaakn
1aaakq

#1500
0aaaff
0aaafp
0aaagg
0aaagj
0aaahm
0aaahr
0aaahs
0aaaik
0aaaji
0aaakf
0aaakn
0aaakq

#2000
1aaaff
1aaafp
1aaagg
1aaagj
1aaahm
1aaahr
1aaahs
1aaaik
1aaaji
1aaakf
1aaakn
1aaakq

#2500
0aaaff
0aaafp
0aaagg
0aaagj
0aaahm
0aaahr
0aaahs
0aaaik
0aaaji
0aaakf
0aaakn
0aaakq

#3000
1aaaaa
1aaaad
b10000000001011000 aaaak
0aaaam
1aaafe
1aaaff
1aaafo
1aaafp
b10000000001010100 aaafq
b10000000001011000 aaafs
1aaagd
1aaagg
1aaagi
1aaagj
1aaahj
1aaahl
1aaahm
b10000000001010100 aaahn
1aaaho
1aaahp
1aaahq
1aaahr
1aaahs
b10000000001010100 aaahu
1aaahy
0aaahz
1aaaic
b10000000001010100 aaaid
1aaaih
1aaaik
1aaajh
1aaaji
1aaakc
1aaakf
b10000000001010100 aaakh
0aaaki
1aaakk
1aaakl
1aaakn
b10000000001011000 aaako
1aaakp
1aaakq
b10000000001010100 aaalc
0aaald
1aaale
b10000000001010100 aaalr
b10000000001011000 aaalt

#3500
0aaaff
0aaafp
0aaagg
0aaagj
0aaahm
b10000000000000110001001100000000000000010000000001010100 aaahn
0aaahr
0aaahs
b100000000000001100010011 aaaib
0aaaik
0aaaji
0aaakf
0aaakn
0aaakq

#4000
1aaaac
b10000000001011100 aaaak
b11000000000000000000000000000000000000000000000000000000000000000000000000001000010000000000000000000000000000000000000000011000 aaaap
1aaaaq
1aaaat
1aaabj
b110 aaacm
b1000 aaaco
1aaacv
b10000000001011000 aaafd
1aaaff
1aaafp
b10000000001011000 aaafq
b10000000001011100 aaafs
1aaagg
1aaagj
b10000000000000110001001100000000000000010000000001010100 aaahg
0aaahh
1aaahk
1aaahm
b10000000000000110001001100000000000000010000000001011000 aaahn
1aaahr
1aaahs
b100000000000001100010011 aaaht
b10000000001011000 aaahu
0aaahv
1aaahw
b10000000001011000 aaaid
1aaaik
1aaaji
1aaake
1aaakf
b11000000000000000000000000000000000000000000000000000000000000000000000000001000010000000000000000000000000000000000000000011000 aaakg
b10000000001011000 aaakh
1aaakn
b10000000001011100 aaako
1aaakq
1aaakz
0aaala
b100000000000001100010011 aaalb
b10000000001011000 aaalc
b10000000001011000 aaalr
b10000000001011100 aaalt

#4500
0aaaff
0aaafp
0aaagg
0aaagj
0aaahm
b11000000000000111001001100000000000000010000000001011000 aaahn
0aaahr
0aaahs
b110000000000001110010011 aaaib
0aaaik
0aaaji
0aaakf
0aaakn
0aaakq

#5000
1aaaae
b11000000000000000000000000000000000000000000000000000000000000000000000000001000010000000000000000000000000000000000000000011000 aaaaj
b10000000001100000 aaaak
b11000000000000000000000000000000000000000000000000000000000000000000000000001100010000000000000000000000000000000000000000011100 aaaap
b111 aaacm
b1100 aaaco
b1000 aaada
b1000 aaadb
b1000001100000000000000000000000000000000000000000000000000000000000001000 aaadc
b1000 aaade
b1000 aaadf
b1000 aaadh
1aaadi
b10000000001011100 aaafd
1aaaff
1aaafp
b10000000001011100 aaafq
b10000000001100000 aaafs
1aaagg
1aaagj
b11000000000000111001001100000000000000010000000001011000 aaahg
1aaahm
b11000000000000111001001100000000000000010000000001011100 aaahn
1aaahr
1aaahs
b110000000000001110010011 aaaht
b10000000001011100 aaahu
b10000000001011100 aaaid
1aaaij
1aaaik
b1000001100000000000000000000000000000000000000000000000000000000000001000 aaail
b1000 aaaio
b1000 aaaiq
b1000 aaait
1aaaix
1aaaji
0aaajj
1aaajp
b110 aaajt
b1000 aaajx
b11000000000000000000000000000000000000000000000000000000000000000000000000001000010000000000000000000000000000000000000000011000 aaajz
0aaaka
1aaakd
1aaakf
b11000000000000000000000000000000000000000000000000000000000000000000000000001100010000000000000000000000000000000000000000011100 aaakg
b10000000001011100 aaakh
1aaakn
b10000000001100000 aaako
1aaakq
0aaakw
1aaakx
b110000000000001110010011 aaalb
b10000000001011100 aaalc
b110 aaall
1aaalm
b1000 aaalp
b10000000001011100 aaalr
b10000000001100000 aaalt

#5500
0aaaff
0aaafp
0aaagg
0aaagj
0aaahm
b100000000000001001001001100000000000000010000000001011100 aaahn
0aaahr
0aaahs
b1000000000000010010010011 aaaib
0aaaik
0aaaji
0aaakf
0aaakn
0aaakq

#6000
b11000000000000000000000000000000000000000000000000000000000000000000000000001100010000000000000000000000000000000000000000011100 aaaaj
b10000000001100100 aaaak
b11000000000000000000000000000000000000000000000000000000000000000000000000010000010000000000000000000000000000000000000000100100 aaaap
b1001 aaacm
b10000 aaaco
b1100 aaada
b1100 aaadb
b1000001110000000000000000000000000000000000000000000000000000000000001100 aaadc
b1000001100000000000000000000000000000000000000000000000000000000000001000 aaadd
b1100 aaade
b1100 aaadf
b1100 aaadh
1aaadp
1aaadq
b10011000000000000000000000000000001000 aaads
b1000 aaadu
1aaadv
b10000000001100000 aaafd
1aaaff
1aaafp
b10000000001100000 aaafq
b10000000001100100 aaafs
1aaagf
1aaagg
b10011000000000000000000000000000001000 aaagh
1aaagj
1aaagp
0aaagq
1aaagu
b110 aaagw
b1000 aaagy
1aaahd
b1000 aaahf
b100000000000001001001001100000000000000010000000001011100 aaahg
1aaahm
b100000000000001001001001100000000000000010000000001100000 aaahn
1aaahr
1aaahs
b1000000000000010010010011 aaaht
b10000000001100000 aaahu
b10000000001100000 aaaid
b1000001100000000000000000000000000000000000000000000000000000000000001000 aaaie
0aaaif
1aaaii
1aaaik
b1000001110000000000000000000000000000000000000000000000000000000000001100 aaail
b1100 aaaio
b1100 aaaiq
b1100 aaait
0aaaiy
1aaajc
b110 aaaje
b1000 aaajg
1aaaji
1aaajk
b111 aaajt
b1100 aaajx
b11000000000000000000000000000000000000000000000000000000000000000000000000001100010000000000000000000000000000000000000000011100 aaajz
1aaakf
b11000000000000000000000000000000000000000000000000000000000000000000000000010000010000000000000000000000000000000000000000100100 aaakg
b10000000001100000 aaakh
1aaakn
b10000000001100100 aaako
1aaakq
b1000 aaaku
b110 aaakv
b1000000000000010010010011 aaalb
b10000000001100000 aaalc
b111 aaall
b1100 aaalp
b10000000001100000 aaalr
b10000000001100100 aaalt

#6500
0aaaff
0aaafp
0aaagg
0aaagj
0aaahm
b100100000001000001001100000000000000010000000001100000 aaahn
0aaahr
0aaahs
b1001000000010000010011 aaaib
0aaaik
0aaaji
0aaakf
0aaakn
0aaakq

