CORE/EXE/tf.vcd
$date
     Feb 01, 2022       11:16:47
$end

$version
 SystemC 2.3.3-Accellera --- Jan 11 2022 05:11:53
$end

$timescale
     1 ps
$end

$scope module SystemC $end
$var wire   32  aaaaa  exe_res [31:0]  $end
$var wire   74  aaaab  exe2mem_fout [73:0]  $end
$var wire    1  aaaac  exe2mem_pop       $end
$var wire    1  aaaad  exe2mem_push       $end
$var wire   74  aaaae  exe2mem_din [73:0]  $end
$var wire    5  aaaaf  shift_val [4:0]  $end
$var wire    1  aaaag  DEC2EXE_POP       $end
$var wire    1  aaaah  EXE2MEM_EMPTY       $end
$var wire    1  aaaai  FFOUT_MEM_SIGN_EXTEND       $end
$var wire    1  aaaaj  FFOUT_MEM_STORE       $end
$var wire    1  aaaak  FFOUT_MEM_LOAD       $end
$var wire    1  aaaal  FFOUT_WB       $end
$var wire    2  aaaam  FFOUT_MEM_SIZE [1:0]  $end
$var wire    4  aaaan  FFOUT_DEST [3:0]  $end
$var wire   32  aaaao  FFOUT_MEM_DATA [31:0]  $end
$var wire   32  aaaap  FFOUT_EXE_RES [31:0]  $end
$var wire    1  aaaaq  RESET       $end
$var wire    1  aaaar  CLK       $end
$var wire    1  aaaas  DEC2EXE_EMPTY       $end
$var wire    1  aaaat  EXE2MEM_POP       $end
$var wire    1  aaaau  SELECT_SHIFT       $end
$var wire    1  aaaav  MEM_SIGN_EXTEND       $end
$var wire    1  aaaaw  MEM_STORE       $end
$var wire    1  aaaax  MEM_LOAD       $end
$var wire    1  aaaay  WB       $end
$var wire    1  aaaaz  NEG_OP1       $end
$var wire    2  aaaba  MEM_SIZE [1:0]  $end
$var wire    2  aaabb  CMD [1:0]  $end
$var wire    4  aaabc  DEST [3:0]  $end
$var wire   32  aaabd  MEM_DATA [31:0]  $end
$var wire   32  aaabe  OP2 [31:0]  $end
$var wire   32  aaabf  OP1 [31:0]  $end
$upscope $end
$enddefinitions  $end

$comment
All initial values are dumped below at time 0 sec = 0 timescale units.
$end

$dumpvars
b0 aaaaa
b0 aaaab
0aaaac
1aaaad
b0 aaaae
b0 aaaaf
1aaaag
1aaaah
0aaaai
0aaaaj
0aaaak
0aaaal
b0 aaaam
b0 aaaan
b0 aaaao
b0 aaaap
1aaaaq
1aaaar
0aaaas
0aaaat
0aaaau
0aaaav
0aaaaw
0aaaax
0aaaay
0aaaaz
b0 aaaba
b0 aaabb
b0 aaabc
b0 aaabd
b0 aaabe
b0 aaabf
$end

#500
0aaaar

#1000
1aaaar

#1001
0aaaaq

#1500
0aaaar

#2000
1aaaar

#2500
0aaaar

#3000
1aaaar

#3001
b1101011100010110100010101 aaaaa
1aaaac
b10101011110111010010110000110111000101000100000001101011100010110100010101 aaaae
b110 aaaaf
1aaaat
1aaaau
1aaaav
1aaaax
b10 aaaba
b1 aaabb
b1111 aaabc
b1110100101100001101110001010001 aaabd
b110010011110110010001111000110 aaabe
b1101011100010110100010101100111 aaabf

#3500
0aaaar

#4000
b10101011110111010010110000110111000101000100000001101011100010110100010101 aaaab
0aaaad
0aaaag
0aaaah
1aaaak
b10 aaaam
b1111 aaaan
b1110100101100001101110001010001 aaaao
b1101011100010110100010101 aaaap
1aaaar

#4001
b1111001111101111011111111111011 aaaaa
0aaaac
b11010001000101101111010000011000101100001001111001111101111011111111111011 aaaae
b11 aaaaf
0aaaat
0aaaau
1aaaaw
0aaaax
1aaaay
b0 aaaba
b10 aaabb
b100 aaabc
b1011011110100000110001011000010 aaabd
b1111001111000101010100111100011 aaabe
b1000001101101110001111011111011 aaabf

#4500
0aaaar

#5000
1aaaar

#5001
b10000100111001111100100101 aaaaa
b11101010100100000110100111110001001100100100000010000100111001111100100101 aaaae
1aaaas
1aaaau
1aaaax
0aaaay
b10 aaaba
b11 aaabb
b1010 aaabc
b1000001101001111100010011001001 aaabd
b1101111011010111001001100011 aaabe
b10000100111001111100100101110 aaabf

#5500
0aaaar

#6000
1aaaar

#6001
b11000101011101111011001010 aaaaa
1aaaac
b10000110000111001000011101101000110001011100000011000101011101111011001010 aaaae
b101 aaaaf
0aaaas
1aaaat
0aaaaw
0aaaax
b1 aaaba
b1 aaabb
b1000 aaabc
b1110010000111011010001100010111 aaabd
b1000011011011000110000100100101 aaabe
b1100010101110111101100101011010 aaabf

#6500
0aaaar

#7000
1aaaad
1aaaag
1aaaah
1aaaar

#7001
b1101001101100000000000000000000 aaaaa
b10110000100000100000110110110001000000111001101001101100000000000000000000 aaaae
b10100 aaaaf
1aaaax
1aaaay
b0 aaaba
b0 aaabb
b10 aaabc
b1000001101101100010000001110 aaabd
b1010100111001001001111010110100 aaabe
b11000100110100111011010011011 aaabf

#7500
0aaaar

#8000
b10110000100000100000110110110001000000111001101001101100000000000000000000 aaaab
0aaaad
0aaaag
0aaaah
1aaaal
b0 aaaam
b10 aaaan
b1000001101101100010000001110 aaaao
b1101001101100000000000000000000 aaaap
1aaaar

#8001
b1 aaaaa
0aaaac
b1101111000101010101110111111110001110000100000000000000000000000000000001 aaaae
b11110 aaaaf
0aaaat
0aaaav
1aaaaw
0aaaay
b11 aaaba
b1 aaabb
b1100 aaabc
b1010101011101111111100011100001 aaabd
b110000000001101100100000111110 aaabe
b1000101000101101101110111101001 aaabf

#8500
0aaaar

#9000
1aaaar

#9001
b1111100101110111010010011111101 aaaaa
1aaaac
b10100010100011100001010101010110000101110001111100101110111010010011111101 aaaae
b10110 aaaaf
1aaaat
0aaaau
1aaaav
0aaaaw
b0 aaaba
b11 aaabb
b1010 aaabc
b111000010101010101100001011100 aaabd
b101101010100010111011110010110 aaabe
b1010001111010101101001101101011 aaabf

#9500
0aaaar

#10000
1aaaad
1aaaag
1aaaah
1aaaar

#10001
b10001000111101010100000000000000 aaaaa
0aaaac
b10101000100111011001000100101001000101110010001000111101010100000000000000 aaaae
b1100 aaaaf
0aaaat
1aaaau
b10 aaaba
b0 aaabb
b10 aaabc
b1110110010001001010010001011100 aaabd
b1010100001000101000100111101100 aaabe
b1001011010110001000111101010100 aaabf

#10500
0aaaar

#11000
b10101000100111011001000100101001000101110010001000111101010100000000000000 aaaab
0aaaad
0aaaag
0aaaah
0aaaal
b10 aaaam
b1110110010001001010010001011100 aaaao
b10001000111101010100000000000000 aaaap
1aaaar

#11001
b1 aaaaa
1aaaac
b100011000100111101001110111100000000010100000000000000000000000000000001 aaaae
b1001 aaaaf
1aaaas
1aaaat
0aaaau
0aaaav
b0 aaaba
b1 aaabb
b1100 aaabc
b1001111010011101111000000000101 aaabd
b1110000110001101010010100101001 aaabe
b10010111001101000010111111011 aaabf

#11500
0aaaar

#12000
1aaaah
1aaaar

#12001
b100000111110100100011010100101 aaaaa
b11110111110001000000100011001111001001100100100000111110100100011010100101 aaaae
b11100 aaaaf
1aaaav
1aaaaw
1aaaay
b1 aaaba
b11 aaabb
b1111 aaabc
b10000001000110011110010011001 aaabd
b10101101101011010111101011100 aaabe
b110101010011111110100111111001 aaabf

#12500
0aaaar

#13000
1aaaar

#13001
b100101101001110000101111110111 aaaaa
1aaaad
b111001010001001110000001100000100011101000100101101001110000101111110111 aaaae
b0 aaaaf
1aaaag
0aaaas
1aaaau
0aaaav
0aaaaw
b10 aaaba
b1 aaabb
b101 aaabc
b10011100000011000001000111010 aaabd
b11101101110101011111100000000 aaabe
b100101101001110000101111110111 aaabf

#13500
0aaaar

#14000
b111001010001001110000001100000100011101000100101101001110000101111110111 aaaab
0aaaad
0aaaag
0aaaah
1aaaal
b101 aaaan
b10011100000011000001000111010 aaaao
b100101101001110000101111110111 aaaap
1aaaar

#14001
b1010100010011001000010010100010 aaaaa
0aaaac
b1101111000101110111000111100111101010100001010100010011001000010010100010 aaaae
b11111 aaaaf
1aaaas
0aaaat
0aaaau
1aaaaw
0aaaay
b11 aaaba
b11 aaabb
b1100 aaabc
b1011101110001111001111010101000 aaabd
b10110100011100001001000011111 aaabe
b1000010110000101001011010111101 aaabf

#14500
0aaaar

#15000
1aaaar

#15001
b10001111001010110 aaaaa
b1100000000100100101100010100000010011101100000000000000010001111001010110 aaaae
b1011 aaaaf
0aaaas
1aaaau
b0 aaaba
b1 aaabb
b0 aaabc
b1001001011000101000000100111011 aaabd
b11010001100100010001101001011 aaabe
b1000111100101011000101011110 aaabf

#15500
0aaaar

#16000
1aaaar

#16001
b110111010110101 aaaaa
b10111111110111011000100111001000010001000000000000000000000110111010110101 aaaae
b1100 aaaaf
1aaaas
1aaaav
0aaaaw
1aaaay
b11 aaaba
b10 aaabb
b1111 aaabc
b1110110001001110010000100010000 aaabd
b1101111011011011101100110101100 aaabe
b110111010110101101111010100 aaabf

#16500
0aaaar

#17000
1aaaar

#17001
b100 aaaaa
1aaaac
b11111010010100001111110001100001000010001000000000000000000000000000000100 aaaae
b11100 aaaaf
0aaaas
1aaaat
1aaaaw
b10 aaaba
b11 aaabb
b1001 aaabc
b1000011111100011000010000100010 aaabd
b111001111011100000000101011100 aaabe
b1001010001010101100001100010101 aaabf

#17500
0aaaar

#18000
1aaaad
1aaaag
1aaaah
1aaaar

#18001
b110101000111111000111001100011 aaaaa
0aaaac
b10110010000110101001011111011100000010100100110101000111111000111001100011 aaaae
b11111 aaaaf
0aaaat
0aaaau
0aaaaw
b0 aaaba
b1000 aaabc
b1101010010111110111000000101001 aaabd
b1101010101001111000111101111111 aaabe
b1011111101110000000000100011100 aaabf

#18500
0aaaar

#19000
b10110010000110101001011111011100000010100100110101000111111000111001100011 aaaab
0aaaad
0aaaag
0aaaah
b0 aaaam
b1000 aaaan
b1101010010111110111000000101001 aaaao
b110101000111111000111001100011 aaaap
1aaaar

#19001
b1111011101001000000100011001010 aaaaa
1aaaac
b10000111010101000010010010110010100111100101111011101001000000100011001010 aaaae
b10010 aaaaf
1aaaat
0aaaax
0aaaay
b1 aaaba
b0 aaabb
b1101 aaabc
b1010000100100101100101001111001 aaabd
b1001110110101111011000110010 aaabe
b1110001110010010001001010011000 aaabf

#19500
0aaaar

#20000
1aaaad
1aaaag
1aaaah
1aaaar

#20001
b1 aaaaa
0aaaac
b10001100010100010111100110110101001000011000000000000000000000000000000001 aaaae
b1100 aaaaf
0aaaat
b11 aaaba
b1 aaabb
b1 aaabc
b1000101111001101101010010000110 aaabd
b1000001010111100010100001101100 aaabe
b1010011010110000100101111001011 aaabf

#20500
0aaaar

#21000
b10001100010100010111100110110101001000011000000000000000000000000000000001 aaaab
0aaaad
0aaaag
0aaaah
0aaaak
0aaaal
b11 aaaam
b1 aaaan
b1000101111001101101010010000110 aaaao
b1 aaaap
1aaaar

#21001
b110111111101111100001011000110 aaaaa
b10101000110110101010100111101101110101110000110111111101111100001011000110 aaaae
b10011 aaaaf
1aaaax
b10 aaaba
b11 aaabb
b11 aaabc
b1101010101001111011011101011100 aaabd
b11010011110001101110011 aaabe
b110111100111100010000110110101 aaabf

#21500
0aaaar

#22000
1aaaar

#22001
b101001110110 aaaaa
b101011010101000110011110001100010100100100000000000000000000101001110110 aaaae
b1111 aaaaf
1aaaau
0aaaav
b10 aaabb
b1101 aaabc
b1010001100111100011000101001001 aaabd
b110100111111010110101101001111 aaabe
b101001110110000101010011110 aaabf

#22500
0aaaar

#23000
1aaaar

#23001
b11001101100001101001111110110011 aaaaa
b10010100100010000100111000001101001101011001101100001101001111110110011 aaaae
b1001 aaaaf
0aaaau
0aaaax
1aaaay
b0 aaaba
b0 aaabb
b1010 aaabc
b1000100001001110000011010011010 aaabd
b1010111101001100001101000101001 aaabe
b1110101111000001000010110001010 aaabf

#23500
0aaaar

#24000
1aaaar

#24001
b1011111111111111111101111111011 aaaaa
b10011111010010010011101001100111011101011101011111111111111111101111111011 aaaae
b10011 aaaaf
1aaaas
1aaaav
b11 aaaba
b10 aaabb
b1101 aaabc
b100100111010011001110111010111 aaabd
b1010101010100011011100111110011 aaabe
b1001011111011100101101001011011 aaabf

#24500
0aaaar

#25000
1aaaar

#25001
b1111001010110001111101100010 aaaaa
b10000111010000111110000001100111100111111100001111001010110001111101100010 aaaae
b1101 aaaaf
0aaaas
0aaaay
b1 aaaba
b11 aaabb
b1111100000011001111001111111 aaabd
b1110101100111111000001011001101 aaabe
b1111010101101001001110110101111 aaabf

#25500
0aaaar

#26000
1aaaar

#26001
b1101100001100111100101000110110 aaaaa
1aaaac
b10011100000110111111011110100010101111011001101100001100111100101000110110 aaaae
b1010 aaaaf
1aaaat
1aaaay
b11 aaaba
b0 aaabb
b0 aaabc
b1101111110111101000101011110110 aaabd
b100110000011011000110001001010 aaabe
b1000110001001100011110111101100 aaabf

#26500
0aaaar

#27000
1aaaad
1aaaag
1aaaah
1aaaar

#27001
b111111011111000010 aaaaa
0aaaac
0aaaad
b11011010100101110100100000010111100010000000000000000000111111011111000010 aaaae
b1100 aaaaf
0aaaag
1aaaas
0aaaat
1aaaau
1aaaaw
b10 aaaba
b11 aaabb
b1010 aaabc
b1011101001000000101111000100000 aaabd
b100101010000010011101111101100 aaabe
b111111011111000010111111110100 aaabf

#27500
0aaaar

#28000
1aaaar

#28001
b111110000 aaaaa
1aaaac
1aaaad
b10101100110111011101001000010110000101000000000000000000000000000111110000 aaaae
b10011 aaaaf
1aaaag
0aaaas
1aaaat
0aaaaw
1aaaax
0aaaay
b11 aaaba
b11 aaabc
b1110111010010000101100001010000 aaabd
b10001101100011100110000110011 aaabe
b1111100001010110100001100111 aaabf

#28500
0aaaar

#29000
b10101100110111011101001000010110000101000000000000000000000000000111110000 aaaab
0aaaad
0aaaag
0aaaah
1aaaak
b11 aaaan
b1110111010010000101100001010000 aaaao
b111110000 aaaap
1aaaar

#29001
b1101111000100111011010110010010 aaaaa
0aaaac
b10001010000110111001101111110001111011001101111000100111011010110010010 aaaae
b10010 aaaaf
0aaaat
0aaaau
0aaaav
0aaaax
1aaaay
b0 aaaba
b0 aaabb
b101 aaabc
b1101110011011111100011110110 aaabd
b100001001000111101010111110010 aaabe
b1001101111011111101111110100000 aaabf

#29500
0aaaar

#30000
1aaaar

#30001
b1 aaaaa
b101000000001010000100001011111100010001100000000000000000000000000000001 aaaae
b1001 aaaaf
1aaaax
0aaaay
b10 aaaba
b1 aaabb
b0 aaabc
b10100001000010111111000100011 aaabd
b1010100010100011100111101001001 aaabe
b100001111110101010001011111010 aaabf

#30500
0aaaar

#31000
1aaaar

#31001
b110110111111001101010001110100 aaaaa
b11101000110111111000001111011000111000010000110110111111001101010001110100 aaaae
b101 aaaaf
1aaaav
1aaaaw
b11 aaabb
b11 aaabc
b1111110000011110110001110000100 aaabd
b101001101110101100111100100101 aaabe
b11111010001100001101101010001 aaabf

#31500
0aaaar

#32000
1aaaar

#32001
b111010101101011011110101 aaaaa
1aaaac
b1110110010011100101111100010001101011110000000000111010101101011011110101 aaaae
b100 aaaaf
1aaaat
1aaaau
0aaaav
1aaaay
b1 aaaba
b10 aaabb
b1001 aaabc
b111001011111000100011010111100 aaabd
b1101110110010011101100001000100 aaabe
b1110101011010110111101010111 aaabf

#32500
0aaaar

#33000
1aaaad
1aaaag
1aaaah
1aaaar

#33001
b1111010101111001010110110110001 aaaaa
b10000100000011010010111110100101101001001111010101111001010110110110001 aaaae
b10011 aaaaf
0aaaau
0aaaaw
0aaaax
b0 aaaba
b0 aaabb
b10 aaabc
b110100101111101001011010010 aaabd
b1010100000111001000000101010011 aaabe
b100110101000000010110001011110 aaabf

#33500
0aaaar

#34000
b10000100000011010010111110100101101001001111010101111001010110110110001 aaaab
0aaaad
0aaaag
0aaaah
0aaaak
1aaaal
b0 aaaam
b10 aaaan
b110100101111101001011010010 aaaao
b1111010101111001010110110110001 aaaap
1aaaar

#34001
b1001111111110111111110111110110 aaaaa
0aaaac
b10110010010111000111000001101011111001100001001111111110111111110111110110 aaaae
b110 aaaaf
0aaaat
1aaaav
1aaaax
b10 aaabb
b1001 aaabc
b1110001110000011010111110011000 aaabd
b1001100001010100111000101100110 aaabe
b1000011110100111011110011010100 aaabf

#34500
0aaaar

#35000
1aaaar

#35001
b100011111000101101110011111100 aaaaa
1aaaac
b1110011100011110110101001011100000100010000100011111000101101110011111100 aaaae
b10 aaaaf
1aaaas
1aaaat
1aaaau
0aaaav
1aaaaw
b0 aaabb
b1110 aaabc
b111101101010010111000001000100 aaabd
b1100101001101011010001100010 aaabe
b1000111110001011011100111111 aaabf

#35500
0aaaar

#36000
1aaaah
1aaaar

#36001
b100101100110110001110111111110 aaaaa
0aaaac
1aaaad
b11010000000110101100000101011100101001010100100101100110110001110111111110 aaaae
b1101 aaaaf
1aaaag
0aaaas
0aaaat
0aaaau
1aaaav
0aaaax
b0 aaabc
b1101011000001010111001010010101 aaabd
b100000111101001011110110101101 aaabe
b100101001100110000001010001 aaabf

#36500
0aaaar

#37000
b11010000000110101100000101011100101001010100100101100110110001110111111110 aaaab
0aaaad
0aaaag
0aaaah
1aaaaj
b0 aaaan
b1101011000001010111001010010101 aaaao
b100101100110110001110111111110 aaaap
1aaaar

#37001
b1001100111111110100001101010111 aaaaa
1aaaac
b1010110001110110010001010001100111110001001100111111110100001101010111 aaaae
b10001 aaaaf
1aaaas
1aaaat
0aaaav
0aaaaw
0aaaay
b10 aaaba
b1011 aaabc
b11101100100010100011001111100 aaabd
b110011010110100001110111110001 aaabe
b11001101001010010010101100110 aaabf

#37500
0aaaar

#38000
1aaaah
1aaaar

#38001
b1111111011101110110000111101111 aaaaa
1aaaad
b11010101000111010110110101001001111000001101111111011101110110000111101111 aaaae
b1111 aaaaf
1aaaag
0aaaas
1aaaav
1aaaaw
1aaaay
b1 aaaba
b10 aaabb
b100 aaabc
b1110101101101010010011110000011 aaabd
b100001010101100100000110101111 aaabe
b1011110011000110110000001100011 aaabf

#38500
0aaaar

#39000
b11010101000111010110110101001001111000001101111111011101110110000111101111 aaaab
0aaaad
0aaaag
0aaaah
b1 aaaam
b100 aaaan
b1110101101101010010011110000011 aaaao
b1111111011101110110000111101111 aaaap
1aaaar

#39001
b1001111001010010100 aaaaa
b11100111010010111001011011000100101011100000000000000001001111001010010100 aaaae
b1100 aaaaf
1aaaas
1aaaau
1aaaax
0aaaay
b11 aaabb
b1101 aaabc
b101110010110110001001010111000 aaabd
b1010010010000111011111110101100 aaabe
b1001111001010010100001110010011 aaabf

#39500
0aaaar

#40000
1aaaah
1aaaar

#40001
b100111100 aaaaa
1aaaad
b10100001110000000010111011000100111100000100000000000000000000000100111100 aaaae
b10110 aaaaf
1aaaag
0aaaas
0aaaaw
b0 aaaba
b111 aaabc
b101110110001001111000001 aaabd
b1011001101000110111011110110110 aaabe
b1001111001110100000011011010100 aaabf

#40500
0aaaar

#41000
b10100001110000000010111011000100111100000100000000000000000000000100111100 aaaab
0aaaad
0aaaag
0aaaah
0aaaaj
1aaaak
0aaaal
b0 aaaam
b111 aaaan
b101110110001001111000001 aaaao
b100111100 aaaap
1aaaar

#41001
b1010011100111110111 aaaaa
b11000110000001010000011101001000110000001000000000000001010011100111110111 aaaae
b1100 aaaaf
1aaaas
1aaaaw
0aaaax
b1 aaaba
b1 aaabb
b1000 aaabc
b10100000111010010001100000010 aaabd
b101000000101111110011111101100 aaabe
b1010011100111110111111100010010 aaabf

#41500
0aaaar

#42000
1aaaah
1aaaar

#42001
b1 aaaaa
0aaaac
1aaaad
b1001001010111011010011010000010010001111100000000000000000000000000000001 aaaae
b10110 aaaaf
1aaaag
0aaaas
0aaaat
0aaaau
0aaaav
b10 aaaba
b101 aaabc
b1110110100110100000100100011111 aaabd
b1011110100101100011100010010110 aaabe
b1000110000100010001101110100101 aaabf

#42500
0aaaar

#43000
b1001001010111011010011010000010010001111100000000000000000000000000000001 aaaab
0aaaad
0aaaag
0aaaah
1aaaaj
0aaaak
b10 aaaam
b101 aaaan
b1110110100110100000100100011111 aaaao
b1 aaaap
1aaaar

#43001
b11010011100001010010010111100011 aaaaa
1aaaac
b1010100110111111101001010111101010110011010011100001010010010111100011 aaaae
1aaaat
0aaaaw
b0 aaabb
b1010 aaabc
b1101111111010010101111010101100 aaabd
b1111111011001011111110100010110 aaabe
b1010100000111110010100011001101 aaabf

#43500
0aaaar

#44000
1aaaad
1aaaag
1aaaah
1aaaar

#44001
b101010 aaaaa
0aaaac
0aaaad
b110111110101010100001011100010000000100000000000000000000000000000101010 aaaae
b10111 aaaaf
0aaaag
1aaaas
0aaaat
1aaaau
1aaaax
1aaaay
b1 aaaba
b10 aaabb
b1111 aaabc
b1010101000010111000100000001000 aaabd
b1100101110100101010000100110111 aaabe
b10101010111101100010011000010 aaabf

#44500
0aaaar

#45000
1aaaar

#45001
b10100000000000000000000000000000 aaaaa
1aaaac
b10100110010000111001101011001111110110101010100000000000000000000000000000 aaaae
b11010 aaaaf
1aaaat
1aaaav
0aaaay
b0 aaabb
b1001 aaabc
b1110011010110011111101101010 aaabd
b1000010010100101100001011011010 aaabe
b1011001101101110110111000101000 aaabf

#45500
0aaaar

#46000
1aaaar

#46001
b111111110111111111111100100010 aaaaa
b11000110000101101111011010001101011101010000111111110111111111111100100010 aaaae
b10 aaaaf
0aaaau
1aaaaw
0aaaax
b10 aaabb
b1000 aaabc
b1011011110110100011010111010100 aaabd
b11111100111101100001100100010 aaabe
b110100110111111011110000000000 aaabf

#46500
0aaaar

#47000
1aaaar

#47001
b1010010000001001010000110 aaaaa
0aaaac
b11110110100101000010101011110011101100100100000001010010000001001010000110 aaaae
b110 aaaaf
0aaaat
1aaaau
1aaaax
1aaaay
b1 aaabb
b1010 aaabc
b1010000101010111100111011001001 aaabd
b1001100011100111010100111000110 aaabe
b1010010000001001010000110010001 aaabf

#47500
0aaaar

#48000
1aaaar

#48001
b1 aaaaa
1aaaac
b1011000100011110100100000011001100001001100000000000000000000000000000001 aaaae
b111 aaaaf
1aaaat
0aaaau
0aaaav
0aaaax
b10 aaaba
b10 aaabc
b111101001000000110011000010011 aaabd
b101010101100100110010110000111 aaabe
b1100010001011011000000100000010 aaabf

#48500
0aaaar

#49000
1aaaar

#49001
b1110011110011111110000101 aaaaa
b1010111110010101001111001111011000100100100000001110011110011111110000101 aaaae
b110 aaaaf
1aaaau
b1 aaaba
b10 aaabb
b1111 aaabc
b101010011110011110110001001001 aaabd
b100000111110001000111010100110 aaabe
b1110011110011111110000101100101 aaabf

#49500
0aaaar

#50000
1aaaar

#50001
b1111111111101111111110111111110 aaaaa
b1111100010000111000001101001100011111111101111111111101111111110111111110 aaaae
b1010 aaaaf
0aaaau
1aaaax
b11 aaaba
b1 aaabc
b1110000011010011000111111111 aaabd
b11010111101111111000011101010 aaabe
b1110101010100001001110101110110 aaabf

#50500
0aaaar

#51000
1aaaar

#51001
b1 aaaaa
0aaaac
b111011100000000100101001010100010111111000000000000000000000000000000001 aaaae
b1101 aaaaf
0aaaat
0aaaaw
b10 aaaba
b1 aaabb
b1110 aaabc
b1001010010101000101111110 aaabd
b11111000011100101110100001101 aaabe
b1001000001001001001110110111111 aaabf

#51500
0aaaar

#52000
1aaaar

#52001
b10110111100101010011000011111111 aaaaa
1aaaac
b1000100100010010101111101011000111111010010110111100101010011000011111111 aaaae
b100 aaaaf
1aaaat
1aaaaw
0aaaax
0aaaay
b1 aaaba
b0 aaabb
b10 aaabc
b100101011111010110001111110100 aaabd
b1010001110010110000110110100100 aaabe
b1100101110010100010001101011011 aaabf

#52500
0aaaar

#53000
1aaaar

#53001
b1101110110011101001000111110000 aaaaa
0aaaac
1aaaad
b11100111110001011110001111011110110110011101101110110011101001000111110000 aaaae
b0 aaaaf
1aaaag
0aaaas
0aaaat
1aaaau
1aaaav
1aaaax
b1111 aaabc
b10111100011110111101101100111 aaabd
b1001111110001001101011000000000 aaabe
b1101110110011101001000111110000 aaabf

#53500
0aaaar

#54000
b11100111110001011110001111011110110110011101101110110011101001000111110000 aaaab
0aaaad
0aaaag
0aaaah
1aaaak
b1 aaaam
b1111 aaaan
b10111100011110111101101100111 aaaao
b1101110110011101001000111110000 aaaap
1aaaar

#54001
b111000110010111 aaaaa
1aaaac
b11011111000101001100000011100001101101000100000000000000000111000110010111 aaaae
b1010 aaaaf
1aaaat
0aaaax
1aaaay
b11 aaaba
b1 aaabb
b1100 aaabc
b1010011000000111000011011010001 aaabd
b10100100101011110010100001010 aaabe
b1110001100101111010011000 aaabf

#54500
0aaaar

#55000
1aaaad
1aaaag
1aaaah
1aaaar

#55001
b1 aaaaa
0aaaac
b1101000100000010001110001100101011110010100000000000000000000000000000001 aaaae
b11000 aaaaf
0aaaat
0aaaau
0aaaav
1aaaax
0aaaay
b10 aaaba
b10 aaabc
b100011100011001010111100101 aaabd
b1110100110010010011011010011000 aaabe
b11111001111011010010011010101 aaabf

#55500
0aaaar

#56000
b1101000100000010001110001100101011110010100000000000000000000000000000001 aaaab
0aaaad
0aaaag
0aaaah
b10 aaaam
b10 aaaan
b100011100011001010111100101 aaaao
b1 aaaap
1aaaar

#56001
b10101001011010110 aaaaa
b1110101100101001011000111011101000000001000000000000000010101001011010110 aaaae
b1110 aaaaf
1aaaas
1aaaau
1aaaay
b1 aaaba
b110 aaabc
b1010010110001110111010000000010 aaabd
b1011001100100101010000000101110 aaabe
b1010100101101011001011000100001 aaabf

#56500
0aaaar

#57000
1aaaar

#57001
b1100000010100010011 aaaaa
b11110110110100101110101001100000110001101000000000000001100000010100010011 aaaae
b1100 aaaaf
1aaaav
b10 aaabb
b1011 aaabc
b1001011101010011000001100011010 aaabd
b100110001000101010110100001100 aaabe
b1100000010100010011100011011110 aaabf

#57500
0aaaar

#58000
1aaaar

#58001
b111100100 aaaaa
1aaaac
b1100110010000011100100010111001010010000000000000000000000000111100100 aaaae
b10110 aaaaf
1aaaat
0aaaav
0aaaaw
0aaaax
0aaaay
b11 aaaba
b11 aaabc
b100000111001000101110010100100 aaabd
b111001010111011110000010110 aaabe
b1111001000001100011001010001011 aaabf

#58500
0aaaar

#59000
1aaaah
1aaaar

#59001
b1011101010 aaaaa
0aaaac
b11000100110100010011100010111011010110110000000000000000000000001011101010 aaaae
b10101 aaaaf
0aaaat
1aaaav
1aaaaw
b1 aaaba
b1 aaabb
b1000100111000101110110101101100 aaabd
b11100110101001000010011010101 aaabe
b1011101010111001110011101100001 aaabf

#59500
0aaaar

#60000
1aaaar

#60001
b1010010011101111111110111100000 aaaaa
b10100110110010101010011100001101001110001001010010011101111111110111100000 aaaae
b101 aaaaf
0aaaaw
1aaaax
b0 aaabb
b1011 aaabc
b101010100111000011010011100010 aaabd
b111000101111110101001111100101 aaabe
b1010010100100111011111111101111 aaabf

#60500
0aaaar

#61000
1aaaar

#61001
b1111100010110011001101011110100 aaaaa
1aaaac
1aaaad
b11111000010000000000110111001000010010001111100010110011001101011110100 aaaae
b1110 aaaaf
1aaaag
0aaaas
1aaaat
0aaaau
0aaaav
0aaaax
1aaaay
b11 aaaba
b11 aaabb
b1100 aaabc
b100000000001101110010000100100 aaabd
b1010101011111111011011111101110 aaabe
b101001001001100010110100011010 aaabf

#61500
0aaaar

#62000
b11111000010000000000110111001000010010001111100010110011001101011110100 aaaab
0aaaad
0aaaag
0aaaah
0aaaaj
0aaaak
1aaaal
b11 aaaam
b1100 aaaan
b100000000001101110010000100100 aaaao
b1111100010110011001101011110100 aaaap
1aaaar

#62001
b10001010010101001001011001011011 aaaaa
b10001101110000001100001101111100110000011010001010010101001001011001011011 aaaae
b10011 aaaaf
1aaaav
0aaaay
b0 aaabb
b111 aaabc
b11000011011111001100000110 aaabd
b101100000001101101110011110011 aaabe
b1011110010011011011100101101000 aaabf

#62500
0aaaar

#63000
1aaaad
1aaaag
1aaaah
1aaaar

#63001
b11000011100100010 aaaaa
0aaaac
0aaaad
b11001000000101011001101111110101100000000000000000000011000011100100010 aaaae
b1100 aaaaf
0aaaag
1aaaas
0aaaat
1aaaau
0aaaav
1aaaay
b10 aaaba
b10 aaabb
b100 aaabc
b1010110011011111101011000000 aaabd
b111101111010000011000001101100 aaabe
b11000011100100010011000011111 aaabf

#63500
0aaaar

#64000
1aaaar

#64001
b1 aaaaa
1aaaac
b1000010110101111001000100011000100000100000000000000000000000000000000001 aaaae
b11110 aaaaf
1aaaat
1aaaaw
0aaaay
b0 aaaba
b11 aaabb
b1011 aaabc
b1011110010001000110001000001000 aaabd
b1100011100001010100100010011110 aaabe
b1100000111011101001110000010110 aaabf

#64500
0aaaar

#65000
1aaaar

#65001
b1101011100011111111101011101110 aaaaa
1aaaad
b11110100100001011000101110101101110000110101101011100011111111101011101110 aaaae
b11011 aaaaf
1aaaag
0aaaas
0aaaau
1aaaav
1aaaax
1aaaay
b1 aaaba
b10 aaabc
b10110001011101011011100001101 aaabd
b1100001010100101110001011011 aaabe
b1100111101001011010011010110101 aaabf

#65500
0aaaar

#66000
b11110100100001011000101110101101110000110101101011100011111111101011101110 aaaab
0aaaad
0aaaag
0aaaah
1aaaaj
1aaaak
b1 aaaam
b10 aaaan
b10110001011101011011100001101 aaaao
b1101011100011111111101011101110 aaaap
1aaaar

#66001
b10001011010100011001000100101011 aaaaa
0aaaac
b1011001100001000010100011000011011001110010001011010100011001000100101011 aaaae
b10101 aaaaf
1aaaas
0aaaat
0aaaav
0aaaax
b10 aaaba
b0 aaabb
b110 aaabc
b10000101000110000110110011100 aaabd
b1010011101101110011010111010101 aaabe
b110111100110100101101101010110 aaabf

#66500
0aaaar

#67000
1aaaar

#67001
b1010111101110111111111110101111 aaaaa
1aaaac
b1010100000110001001010100100011111101100001010111101110111111111110101111 aaaae
b111 aaaaf
1aaaat
b1 aaaba
b10 aaabb
b0 aaabc
b1100010010101001000111111011000 aaabd
b1000011101100100111111110100111 aaabe
b1010101100010111011000100001101 aaabf

#67500
0aaaar

#68000
1aaaah
1aaaar

