CORE/EXE/tf.vcd
$date
     Jan 29, 2022       20:54:39
$end

$version
 SystemC 2.3.3-Accellera --- Jan 21 2022 18:16:13
$end

$timescale
     1 ps
$end

$scope module SystemC $end
$var wire   32  aaaaa  exe2mem_din [31:0]  $end
$var wire   74  aaaab  exe2mem_fout [73:0]  $end
$var wire    1  aaaac  exe2mem_pop       $end
$var wire    1  aaaad  exe2mem_push       $end
$var wire   74  aaaae  exe2mem_din [73:0]  $end
$var wire    1  aaaaf  DEC2EXE_POP       $end
$var wire    1  aaaag  EXE2MEM_EMPTY       $end
$var wire    1  aaaah  FFOUT_MEM_SIGN_EXTEND       $end
$var wire    1  aaaai  FFOUT_MEM_STORE       $end
$var wire    1  aaaaj  FFOUT_MEM_LOAD       $end
$var wire    1  aaaak  FFOUT_WB       $end
$var wire    2  aaaal  FFOUT_MEM_SIZE [1:0]  $end
$var wire    4  aaaam  FFOUT_DEST [3:0]  $end
$var wire   32  aaaan  FFOUT_MEM_DATA [31:0]  $end
$var wire   32  aaaao  FFOUT_EXE_RES [31:0]  $end
$var wire    1  aaaap  RESET       $end
$var wire    1  aaaaq  CLK       $end
$var wire    1  aaaar  DEC2EXE_EMPTY       $end
$var wire    1  aaaas  EXE2MEM_POP       $end
$var wire    1  aaaat  SELECT_SHIFT       $end
$var wire    1  aaaau  MEM_SIGN_EXTEND       $end
$var wire    1  aaaav  MEM_STORE       $end
$var wire    1  aaaaw  MEM_LOAD       $end
$var wire    1  aaaax  WB       $end
$var wire    1  aaaay  NEG_OP1       $end
$var wire    2  aaaaz  MEM_SIZE [1:0]  $end
$var wire    2  aaaba  CMD [1:0]  $end
$var wire    4  aaabb  DEST [3:0]  $end
$var wire   32  aaabc  MEM_DATA [31:0]  $end
$var wire   32  aaabd  OP2 [31:0]  $end
$var wire   32  aaabe  OP1 [31:0]  $end
$upscope $end
$enddefinitions  $end

$comment
All initial values are dumped below at time 0 sec = 0 timescale units.
$end

$dumpvars
b0 aaaaa
b0 aaaab
0aaaac
1aaaad
b0 aaaae
1aaaaf
1aaaag
0aaaah
0aaaai
0aaaaj
0aaaak
b0 aaaal
b0 aaaam
b0 aaaan
b0 aaaao
1aaaap
1aaaaq
0aaaar
0aaaas
0aaaat
0aaaau
0aaaav
0aaaaw
0aaaax
0aaaay
b0 aaaaz
b0 aaaba
b0 aaabb
b0 aaabc
b0 aaabd
b0 aaabe
$end

#500
0aaaaq

#1000
1aaaaq

#1001
0aaaap

#1500
0aaaaq

#2000
1aaaaq

#2500
0aaaaq

#3000
1aaaaq

#3001
b110101110001011010001010 aaaaa
1aaaac
b10101011110111010010110000110111000101000100000000110101110001011010001010 aaaae
1aaaas
1aaaat
1aaaau
1aaaaw
b10 aaaaz
b1 aaaba
b1111 aaabb
b1110100101100001101110001010001 aaabc
b110010011110110010001111000110 aaabd
b1101011100010110100010101100111 aaabe

#3500
0aaaaq

#4000
b10101011110111010010110000110111000101000100000000110101110001011010001010 aaaab
0aaaad
0aaaaf
0aaaag
1aaaaj
b10 aaaal
b1111 aaaam
b1110100101100001101110001010001 aaaan
b110101110001011010001010 aaaao
1aaaaq

#4001
b1111001111101111011111111111011 aaaaa
0aaaac
b11010001000101101111010000011000101100001001111001111101111011111111111011 aaaae
0aaaas
0aaaat
1aaaav
0aaaaw
1aaaax
b0 aaaaz
b10 aaaba
b100 aaabb
b1011011110100000110001011000010 aaabc
b1111001111000101010100111100011 aaabd
b1000001101101110001111011111011 aaabe

#4500
0aaaaq

#5000
1aaaaq

#5001
b100001001110011 aaaaa
b11101010100100000110100111110001001100100100000000000000000100001001110011 aaaae
1aaaar
1aaaat
1aaaaw
0aaaax
b10 aaaaz
b11 aaaba
b1010 aaabb
b1000001101001111100010011001001 aaabc
b1101111011010111001001100011 aaabd
b10000100111001111100100101110 aaabe

#5500
0aaaaq

#6000
1aaaaq

#6001
b11000 aaaaa
1aaaac
b10000110000111001000011101101000110001011100000000000000000000000000011000 aaaae
0aaaar
1aaaas
0aaaav
0aaaaw
b1 aaaaz
b1 aaaba
b1000 aaabb
b1110010000111011010001100010111 aaabc
b1000011011011000110000100100101 aaabd
b1100010101110111101100101011010 aaabe

#6500
0aaaaq

#7000
1aaaad
1aaaaf
1aaaag
1aaaaq

#7001
b11011000000000000000000000000000 aaaaa
b10110000100000100000110110110001000000111011011000000000000000000000000000 aaaae
1aaaaw
1aaaax
b0 aaaaz
b0 aaaba
b10 aaabb
b1000001101101100010000001110 aaabc
b1010100111001001001111010110100 aaabd
b11000100110100111011010011011 aaabe

#7500
0aaaaq

#8000
b10110000100000100000110110110001000000111011011000000000000000000000000000 aaaab
0aaaad
0aaaaf
0aaaag
1aaaak
b0 aaaal
b10 aaaam
b1000001101101100010000001110 aaaan
b11011000000000000000000000000000 aaaao
1aaaaq

#8001
b1000101000101101101110 aaaaa
0aaaac
b1101111000101010101110111111110001110000100000000001000101000101101101110 aaaae
0aaaas
0aaaau
1aaaav
0aaaax
b11 aaaaz
b1 aaaba
b1100 aaabb
b1010101011101111111100011100001 aaabc
b110000000001101100100000111110 aaabd
b1000101000101101101110111101001 aaabe

#8500
0aaaaq

#9000
1aaaaq

#9001
b1111100101110111010010011111101 aaaaa
1aaaac
b10100010100011100001010101010110000101110001111100101110111010010011111101 aaaae
1aaaas
0aaaat
1aaaau
0aaaav
b0 aaaaz
b11 aaaba
b1010 aaabb
b111000010101010101100001011100 aaabc
b101101010100010111011110010110 aaabd
b1010001111010101101001101101011 aaabe

#9500
0aaaaq

#10000
1aaaad
1aaaaf
1aaaag
1aaaaq

#10001
b11110101010000000000000000000000 aaaaa
0aaaac
b10101000100111011001000100101001000101110011110101010000000000000000000000 aaaae
0aaaas
1aaaat
b10 aaaaz
b0 aaaba
b10 aaabb
b1110110010001001010010001011100 aaabc
b1010100001000101000100111101100 aaabd
b1001011010110001000111101010100 aaabe

#10500
0aaaaq

#11000
b10101000100111011001000100101001000101110011110101010000000000000000000000 aaaab
0aaaad
0aaaaf
0aaaag
0aaaak
b10 aaaal
b1110110010001001010010001011100 aaaan
b11110101010000000000000000000000 aaaao
1aaaaq

#11001
b1 aaaaa
1aaaac
b100011000100111101001110111100000000010100000000000000000000000000000001 aaaae
1aaaar
1aaaas
0aaaat
0aaaau
b0 aaaaz
b1 aaaba
b1100 aaabb
b1001111010011101111000000000101 aaabc
b1110000110001101010010100101001 aaabd
b10010111001101000010111111011 aaabe

#11500
0aaaaq

#12000
1aaaag
1aaaaq

#12001
b100000111110100100011010100101 aaaaa
b11110111110001000000100011001111001001100100100000111110100100011010100101 aaaae
1aaaau
1aaaav
1aaaax
b1 aaaaz
b11 aaaba
b1111 aaabb
b10000001000110011110010011001 aaabc
b10101101101011010111101011100 aaabd
b110101010011111110100111111001 aaabe

#12500
0aaaaq

#13000
1aaaaq

#13001
b1001011 aaaaa
1aaaad
b111001010001001110000001100000100011101000000000000000000000000001001011 aaaae
1aaaaf
0aaaar
1aaaat
0aaaau
0aaaav
b10 aaaaz
b1 aaaba
b101 aaabb
b10011100000011000001000111010 aaabc
b11101101110101011111100000000 aaabd
b100101101001110000101111110111 aaabe

#13500
0aaaaq

#14000
b111001010001001110000001100000100011101000000000000000000000000001001011 aaaab
0aaaad
0aaaaf
0aaaag
1aaaak
b101 aaaam
b10011100000011000001000111010 aaaan
b1001011 aaaao
1aaaaq

#14001
b1010100010011001000010010100010 aaaaa
0aaaac
b1101111000101110111000111100111101010100001010100010011001000010010100010 aaaae
1aaaar
0aaaas
0aaaat
1aaaav
0aaaax
b11 aaaaz
b11 aaaba
b1100 aaabb
b1011101110001111001111010101000 aaabc
b10110100011100001001000011111 aaabd
b1000010110000101001011010111101 aaabe

#14500
0aaaaq

#15000
1aaaaq

#15001
b0 aaaaa
b1100000000100100101100010100000010011101100000000000000000000000000000000 aaaae
0aaaar
1aaaat
b0 aaaaz
b1 aaaba
b0 aaabb
b1001001011000101000000100111011 aaabc
b11010001100100010001101001011 aaabd
b1000111100101011000101011110 aaabe

#15500
0aaaaq

#16000
1aaaaq

#16001
b1101110 aaaaa
b10111111110111011000100111001000010001000000000000000000000000000001101110 aaaae
1aaaar
1aaaau
0aaaav
1aaaax
b11 aaaaz
b10 aaaba
b1111 aaabb
b1110110001001110010000100010000 aaabc
b1101111011011011101100110101100 aaabd
b110111010110101101111010100 aaabe

#16500
0aaaaq

#17000
1aaaaq

#17001
b1001010001 aaaaa
1aaaac
b11111010010100001111110001100001000010001000000000000000000000001001010001 aaaae
0aaaar
1aaaas
1aaaav
b10 aaaaz
b11 aaaba
b1001 aaabb
b1000011111100011000010000100010 aaabc
b111001111011100000000101011100 aaabd
b1001010001010101100001100010101 aaabe

#17500
0aaaaq

#18000
1aaaad
1aaaaf
1aaaag
1aaaaq

#18001
b110101000111111000111001100011 aaaaa
0aaaac
b10110010000110101001011111011100000010100100110101000111111000111001100011 aaaae
0aaaas
0aaaat
0aaaav
b0 aaaaz
b1000 aaabb
b1101010010111110111000000101001 aaabc
b1101010101001111000111101111111 aaabd
b1011111101110000000000100011100 aaabe

#18500
0aaaaq

#19000
b10110010000110101001011111011100000010100100110101000111111000111001100011 aaaab
0aaaad
0aaaaf
0aaaag
b0 aaaal
b1000 aaaam
b1101010010111110111000000101001 aaaan
b110101000111111000111001100011 aaaao
1aaaaq

#19001
b1111011101001000000100011001010 aaaaa
1aaaac
b10000111010101000010010010110010100111100101111011101001000000100011001010 aaaae
1aaaas
0aaaaw
0aaaax
b1 aaaaz
b0 aaaba
b1101 aaabb
b1010000100100101100101001111001 aaabc
b1001110110101111011000110010 aaabd
b1110001110010010001001010011000 aaabe

#19500
0aaaaq

#20000
1aaaad
1aaaaf
1aaaag
1aaaaq

#20001
b1 aaaaa
0aaaac
b10001100010100010111100110110101001000011000000000000000000000000000000001 aaaae
0aaaas
b11 aaaaz
b1 aaaba
b1 aaabb
b1000101111001101101010010000110 aaabc
b1000001010111100010100001101100 aaabd
b1010011010110000100101111001011 aaabe

#20500
0aaaaq

#21000
b10001100010100010111100110110101001000011000000000000000000000000000000001 aaaab
0aaaad
0aaaaf
0aaaag
0aaaaj
0aaaak
b11 aaaal
b1 aaaam
b1000101111001101101010010000110 aaaan
b1 aaaao
1aaaaq

#21001
b110111111101111100001011000110 aaaaa
b10101000110110101010100111101101110101110000110111111101111100001011000110 aaaae
1aaaaw
b10 aaaaz
b11 aaaba
b11 aaabb
b1101010101001111011011101011100 aaabc
b11010011110001101110011 aaabd
b110111100111100010000110110101 aaabe

#21500
0aaaaq

#22000
1aaaaq

#22001
b0 aaaaa
b101011010101000110011110001100010100100100000000000000000000000000000000 aaaae
1aaaat
0aaaau
b10 aaaba
b1101 aaabb
b1010001100111100011000101001001 aaabc
b110100111111010110101101001111 aaabd
b101001110110000101010011110 aaabe

#22500
0aaaaq

#23000
1aaaaq

#23001
b11001101100001101001111110110011 aaaaa
b10010100100010000100111000001101001101011001101100001101001111110110011 aaaae
0aaaat
0aaaaw
1aaaax
b0 aaaaz
b0 aaaba
b1010 aaabb
b1000100001001110000011010011010 aaabc
b1010111101001100001101000101001 aaabd
b1110101111000001000010110001010 aaabe

#23500
0aaaaq

#24000
1aaaaq

#24001
b1011111111111111111101111111011 aaaaa
b10011111010010010011101001100111011101011101011111111111111111101111111011 aaaae
1aaaar
1aaaau
b11 aaaaz
b10 aaaba
b1101 aaabb
b100100111010011001110111010111 aaabc
b1010101010100011011100111110011 aaabd
b1001011111011100101101001011011 aaabe

#24500
0aaaaq

#25000
1aaaaq

#25001
b1111001010110001111101100010 aaaaa
b10000111010000111110000001100111100111111100001111001010110001111101100010 aaaae
0aaaar
0aaaax
b1 aaaaz
b11 aaaba
b1111100000011001111001111111 aaabc
b1110101100111111000001011001101 aaabd
b1111010101101001001110110101111 aaabe

#25500
0aaaaq

#26000
1aaaaq

#26001
b1101100001100111100101000110110 aaaaa
1aaaac
b10011100000110111111011110100010101111011001101100001100111100101000110110 aaaae
1aaaas
1aaaax
b11 aaaaz
b0 aaaba
b0 aaabb
b1101111110111101000101011110110 aaabc
b100110000011011000110001001010 aaabd
b1000110001001100011110111101100 aaabe

#26500
0aaaaq

#27000
1aaaad
1aaaaf
1aaaag
1aaaaq

#27001
b1111110111 aaaaa
0aaaac
0aaaad
b11011010100101110100100000010111100010000000000000000000000000001111110111 aaaae
0aaaaf
1aaaar
0aaaas
1aaaat
1aaaav
b10 aaaaz
b11 aaaba
b1010 aaabb
b1011101001000000101111000100000 aaabc
b100101010000010011101111101100 aaabd
b111111011111000010111111110100 aaabe

#27500
0aaaaq

#28000
1aaaaq

#28001
b111110000101011010000 aaaaa
1aaaac
1aaaad
b10101100110111011101001000010110000101000000000000000111110000101011010000 aaaae
1aaaaf
0aaaar
1aaaas
0aaaav
1aaaaw
0aaaax
b11 aaaaz
b11 aaabb
b1110111010010000101100001010000 aaabc
b10001101100011100110000110011 aaabd
b1111100001010110100001100111 aaabe

#28500
0aaaaq

#29000
b10101100110111011101001000010110000101000000000000000111110000101011010000 aaaab
0aaaad
0aaaaf
0aaaag
1aaaaj
b11 aaaam
b1110111010010000101100001010000 aaaan
b111110000101011010000 aaaao
1aaaaq

#29001
b1101111000100111011010110010010 aaaaa
0aaaac
b10001010000110111001101111110001111011001101111000100111011010110010010 aaaae
0aaaas
0aaaat
0aaaau
0aaaaw
1aaaax
b0 aaaaz
b0 aaaba
b101 aaabb
b1101110011011111100011110110 aaabc
b100001001000111101010111110010 aaabd
b1001101111011111101111110100000 aaabe

#29500
0aaaaq

#30000
1aaaaq

#30001
b1 aaaaa
b101000000001010000100001011111100010001100000000000000000000000000000001 aaaae
1aaaaw
0aaaax
b10 aaaaz
b1 aaaba
b0 aaabb
b10100001000010111111000100011 aaabc
b1010100010100011100111101001001 aaabd
b100001111110101010001011111010 aaabe

#30500
0aaaaq

#31000
1aaaaq

#31001
b110110111111001101010001110100 aaaaa
b11101000110111111000001111011000111000010000110110111111001101010001110100 aaaae
1aaaau
1aaaav
b11 aaaba
b11 aaabb
b1111110000011110110001110000100 aaabc
b101001101110101100111100100101 aaabd
b11111010001100001101101010001 aaabe

#31500
0aaaaq

#32000
1aaaaq

#32001
b11101 aaaaa
1aaaac
b1110110010011100101111100010001101011110000000000000000000000000000011101 aaaae
1aaaas
1aaaat
0aaaau
1aaaax
b1 aaaaz
b10 aaaba
b1001 aaabb
b111001011111000100011010111100 aaabc
b1101110110010011101100001000100 aaabd
b1110101011010110111101010111 aaabe

#32500
0aaaaq

#33000
1aaaad
1aaaaf
1aaaag
1aaaaq

#33001
b1111010101111001010110110110001 aaaaa
b10000100000011010010111110100101101001001111010101111001010110110110001 aaaae
0aaaat
0aaaav
0aaaaw
b0 aaaaz
b0 aaaba
b10 aaabb
b110100101111101001011010010 aaabc
b1010100000111001000000101010011 aaabd
b100110101000000010110001011110 aaabe

#33500
0aaaaq

#34000
b10000100000011010010111110100101101001001111010101111001010110110110001 aaaab
0aaaad
0aaaaf
0aaaag
0aaaaj
1aaaak
b0 aaaal
b10 aaaam
b110100101111101001011010010 aaaan
b1111010101111001010110110110001 aaaao
1aaaaq

#34001
b1001111111110111111110111110110 aaaaa
0aaaac
b10110010010111000111000001101011111001100001001111111110111111110111110110 aaaae
0aaaas
1aaaau
1aaaaw
b10 aaaba
b1001 aaabb
b1110001110000011010111110011000 aaabc
b1001100001010100111000101100110 aaabd
b1000011110100111011110011010100 aaabe

#34500
0aaaaq

#35000
1aaaaq

#35001
b10000000000000000000000000000000 aaaaa
1aaaac
b1110011100011110110101001011100000100010010000000000000000000000000000000 aaaae
1aaaar
1aaaas
1aaaat
0aaaau
1aaaav
b0 aaaba
b1110 aaabb
b111101101010010111000001000100 aaabc
b1100101001101011010001100010 aaabd
b1000111110001011011100111111 aaabe

#35500
0aaaaq

#36000
1aaaag
1aaaaq

#36001
b100101100110110001110111111110 aaaaa
0aaaac
1aaaad
b11010000000110101100000101011100101001010100100101100110110001110111111110 aaaae
1aaaaf
0aaaar
0aaaas
0aaaat
1aaaau
0aaaaw
b0 aaabb
b1101011000001010111001010010101 aaabc
b100000111101001011110110101101 aaabd
b100101001100110000001010001 aaabe

#36500
0aaaaq

#37000
b11010000000110101100000101011100101001010100100101100110110001110111111110 aaaab
0aaaad
0aaaaf
0aaaag
1aaaai
b0 aaaam
b1101011000001010111001010010101 aaaan
b100101100110110001110111111110 aaaao
1aaaaq

#37001
b1001100111111110100001101010111 aaaaa
1aaaac
b1010110001110110010001010001100111110001001100111111110100001101010111 aaaae
1aaaar
1aaaas
0aaaau
0aaaav
0aaaax
b10 aaaaz
b1011 aaabb
b11101100100010100011001111100 aaabc
b110011010110100001110111110001 aaabd
b11001101001010010010101100110 aaabe

#37500
0aaaaq

#38000
1aaaag
1aaaaq

#38001
b1111111011101110110000111101111 aaaaa
1aaaad
b11010101000111010110110101001001111000001101111111011101110110000111101111 aaaae
1aaaaf
0aaaar
1aaaau
1aaaav
1aaaax
b1 aaaaz
b10 aaaba
b100 aaabb
b1110101101101010010011110000011 aaabc
b100001010101100100000110101111 aaabd
b1011110011000110110000001100011 aaabe

#38500
0aaaaq

#39000
b11010101000111010110110101001001111000001101111111011101110110000111101111 aaaab
0aaaad
0aaaaf
0aaaag
b1 aaaal
b100 aaaam
b1110101101101010010011110000011 aaaan
b1111111011101110110000111101111 aaaao
1aaaaq

#39001
b100111100101 aaaaa
b11100111010010111001011011000100101011100000000000000000000000100111100101 aaaae
1aaaar
1aaaat
1aaaaw
0aaaax
b11 aaaba
b1101 aaabb
b101110010110110001001010111000 aaabc
b1010010010000111011111110101100 aaabd
b1001111001010010100001110010011 aaabe

#39500
0aaaaq

#40000
1aaaag
1aaaaq

#40001
b10011110011 aaaaa
1aaaad
b10100001110000000010111011000100111100000100000000000000000000010011110011 aaaae
1aaaaf
0aaaar
0aaaav
b0 aaaaz
b111 aaabb
b101110110001001111000001 aaabc
b1011001101000110111011110110110 aaabd
b1001111001110100000011011010100 aaabe

#40500
0aaaaq

#41000
b10100001110000000010111011000100111100000100000000000000000000010011110011 aaaab
0aaaad
0aaaaf
0aaaag
0aaaai
1aaaaj
0aaaak
b0 aaaal
b111 aaaam
b101110110001001111000001 aaaan
b10011110011 aaaao
1aaaaq

#41001
b1010011100111 aaaaa
b11000110000001010000011101001000110000001000000000000000000001010011100111 aaaae
1aaaar
1aaaav
0aaaaw
b1 aaaaz
b1 aaaba
b1000 aaabb
b10100000111010010001100000010 aaabc
b101000000101111110011111101100 aaabd
b1010011100111110111111100010010 aaabe

#41500
0aaaaq

#42000
1aaaag
1aaaaq

#42001
b1 aaaaa
0aaaac
1aaaad
b1001001010111011010011010000010010001111100000000000000000000000000000001 aaaae
1aaaaf
0aaaar
0aaaas
0aaaat
0aaaau
b10 aaaaz
b101 aaabb
b1110110100110100000100100011111 aaabc
b1011110100101100011100010010110 aaabd
b1000110000100010001101110100101 aaabe

#42500
0aaaaq

#43000
b1001001010111011010011010000010010001111100000000000000000000000000000001 aaaab
0aaaad
0aaaaf
0aaaag
1aaaai
0aaaaj
b10 aaaal
b101 aaaam
b1110110100110100000100100011111 aaaan
b1 aaaao
1aaaaq

#43001
b11010011100001010010010111100011 aaaaa
1aaaac
b1010100110111111101001010111101010110011010011100001010010010111100011 aaaae
1aaaas
0aaaav
b0 aaaba
b1010 aaabb
b1101111111010010101111010101100 aaabc
b1111111011001011111110100010110 aaabd
b1010100000111110010100011001101 aaabe

#43500
0aaaaq

#44000
1aaaad
1aaaaf
1aaaag
1aaaaq

#44001
b101010101111011000100110000 aaaaa
0aaaac
0aaaad
b110111110101010100001011100010000000100000000101010101111011000100110000 aaaae
0aaaaf
1aaaar
0aaaas
1aaaat
1aaaaw
1aaaax
b1 aaaaz
b10 aaaba
b1111 aaabb
b1010101000010111000100000001000 aaabc
b1100101110100101010000100110111 aaabd
b10101010111101100010011000010 aaabe

#44500
0aaaaq

#45000
1aaaaq

#45001
b10110111011011100010100000000000 aaaaa
1aaaac
b10100110010000111001101011001111110110101010110111011011100010100000000000 aaaae
1aaaas
1aaaau
0aaaax
b0 aaaba
b1001 aaabb
b1110011010110011111101101010 aaabc
b1000010010100101100001011011010 aaabd
b1011001101101110110111000101000 aaabe

#45500
0aaaaq

#46000
1aaaaq

#46001
b111111110111111111111100100010 aaaaa
b11000110000101101111011010001101011101010000111111110111111111111100100010 aaaae
0aaaat
1aaaav
0aaaaw
b10 aaaba
b1000 aaabb
b1011011110110100011010111010100 aaabc
b11111100111101100001100100010 aaabd
b110100110111111011110000000000 aaabe

#46500
0aaaaq

#47000
1aaaaq

#47001
b10100100000010 aaaaa
0aaaac
b11110110100101000010101011110011101100100100000000000000000010100100000010 aaaae
0aaaas
1aaaat
1aaaaw
1aaaax
b1 aaaba
b1010 aaabb
b1010000101010111100111011001001 aaabc
b1001100011100111010100111000110 aaabd
b1010010000001001010000110010001 aaabe

#47500
0aaaaq

#48000
1aaaaq

#48001
b1 aaaaa
1aaaac
b1011000100011110100100000011001100001001100000000000000000000000000000001 aaaae
1aaaas
0aaaat
0aaaau
0aaaaw
b10 aaaaz
b10 aaabb
b111101001000000110011000010011 aaabc
b101010101100100110010110000111 aaabd
b1100010001011011000000100000010 aaabe

#48500
0aaaaq

#49000
1aaaaq

#49001
b11100111100111111100001011 aaaaa
b1010111110010101001111001111011000100100100000011100111100111111100001011 aaaae
1aaaat
b1 aaaaz
b10 aaaba
b1111 aaabb
b101010011110011110110001001001 aaabc
b100000111110001000111010100110 aaabd
b1110011110011111110000101100101 aaabe

#49500
0aaaaq

#50000
1aaaaq

#50001
b1111111111101111111110111111110 aaaaa
b1111100010000111000001101001100011111111101111111111101111111110111111110 aaaae
0aaaat
1aaaaw
b11 aaaaz
b1 aaabb
b1110000011010011000111111111 aaabc
b11010111101111111000011101010 aaabd
b1110101010100001001110101110110 aaabe

#50500
0aaaaq

#51000
1aaaaq

#51001
b1 aaaaa
0aaaac
b111011100000000100101001010100010111111000000000000000000000000000000001 aaaae
0aaaas
0aaaav
b10 aaaaz
b1 aaaba
b1110 aaabb
b1001010010101000101111110 aaabc
b11111000011100101110100001101 aaabd
b1001000001001001001110110111111 aaabe

#51500
0aaaaq

#52000
1aaaaq

#52001
b10110111100101010011000011111111 aaaaa
1aaaac
b1000100100010010101111101011000111111010010110111100101010011000011111111 aaaae
1aaaas
1aaaav
0aaaaw
0aaaax
b1 aaaaz
b0 aaaba
b10 aaabb
b100101011111010110001111110100 aaabc
b1010001110010110000110110100100 aaabd
b1100101110010100010001101011011 aaabe

#52500
0aaaaq

#53000
1aaaaq

#53001
b10010001111100000000000000000000 aaaaa
0aaaac
1aaaad
b11100111110001011110001111011110110110011110010001111100000000000000000000 aaaae
1aaaaf
0aaaar
0aaaas
1aaaat
1aaaau
1aaaaw
b1111 aaabb
b10111100011110111101101100111 aaabc
b1001111110001001101011000000000 aaabd
b1101110110011101001000111110000 aaabe

#53500
0aaaaq

#54000
b11100111110001011110001111011110110110011110010001111100000000000000000000 aaaab
0aaaad
0aaaaf
0aaaag
1aaaaj
b1 aaaal
b1111 aaaam
b10111100011110111101101100111 aaaan
b10010001111100000000000000000000 aaaao
1aaaaq

#54001
b1 aaaaa
1aaaac
b11011111000101001100000011100001101101000100000000000000000000000000000001 aaaae
1aaaas
0aaaaw
1aaaax
b11 aaaaz
b1 aaaba
b1100 aaabb
b1010011000000111000011011010001 aaabc
b10100100101011110010100001010 aaabd
b1110001100101111010011000 aaabe

#54500
0aaaaq

#55000
1aaaad
1aaaaf
1aaaag
1aaaaq

#55001
0aaaac
b1101000100000010001110001100101011110010100000000000000000000000000000001 aaaae
0aaaas
0aaaat
0aaaau
1aaaaw
0aaaax
b10 aaaaz
b10 aaabb
b100011100011001010111100101 aaabc
b1110100110010010011011010011000 aaabd
b11111001111011010010011010101 aaabe

#55500
0aaaaq

#56000
b1101000100000010001110001100101011110010100000000000000000000000000000001 aaaab
0aaaad
0aaaaf
0aaaag
b10 aaaal
b10 aaaam
b100011100011001010111100101 aaaan
b1 aaaao
1aaaaq

#56001
b101010010110101100101100010000 aaaaa
b1110101100101001011000111011101000000001000101010010110101100101100010000 aaaae
1aaaar
1aaaat
1aaaax
b1 aaaaz
b110 aaabb
b1010010110001110111010000000010 aaabc
b1011001100100101010000000101110 aaabd
b1010100101101011001011000100001 aaabe

#56500
0aaaaq

#57000
1aaaaq

#57001
b1 aaaaa
b11110110110100101110101001100000110001101000000000000000000000000000000001 aaaae
1aaaau
b10 aaaba
b1011 aaabb
b1001011101010011000001100011010 aaabc
b100110001000101010110100001100 aaabd
b1100000010100010011100011011110 aaabe

#57500
0aaaaq

#58000
1aaaaq

#58001
b11110010000011000110 aaaaa
1aaaac
b1100110010000011100100010111001010010000000000000011110010000011000110 aaaae
1aaaas
0aaaau
0aaaav
0aaaaw
0aaaax
b11 aaaaz
b11 aaabb
b100000111001000101110010100100 aaabc
b111001010111011110000010110 aaabd
b1111001000001100011001010001011 aaabe

#58500
0aaaaq

#59000
1aaaag
1aaaaq

#59001
b101110101011100111001110110000 aaaaa
0aaaac
b11000100110100010011100010111011010110110000101110101011100111001110110000 aaaae
0aaaas
1aaaau
1aaaav
b1 aaaaz
b1 aaaba
b1000100111000101110110101101100 aaabc
b11100110101001000010011010101 aaabd
b1011101010111001110011101100001 aaabe

#59500
0aaaaq

#60000
1aaaaq

#60001
b11011111111101111000000000000000 aaaaa
b10100110110010101010011100001101001110001011011111111101111000000000000000 aaaae
0aaaav
1aaaaw
b0 aaaba
b1011 aaabb
b101010100111000011010011100010 aaabc
b111000101111110101001111100101 aaabd
b1010010100100111011111111101111 aaabe

#60500
0aaaaq

#61000
1aaaaq

#61001
b1111100010110011001101011110100 aaaaa
1aaaac
1aaaad
b11111000010000000000110111001000010010001111100010110011001101011110100 aaaae
1aaaaf
0aaaar
1aaaas
0aaaat
0aaaau
0aaaaw
1aaaax
b11 aaaaz
b11 aaaba
b1100 aaabb
b100000000001101110010000100100 aaabc
b1010101011111111011011111101110 aaabd
b101001001001100010110100011010 aaabe

#61500
0aaaaq

#62000
b11111000010000000000110111001000010010001111100010110011001101011110100 aaaab
0aaaad
0aaaaf
0aaaag
0aaaai
0aaaaj
1aaaak
b11 aaaal
b1100 aaaam
b100000000001101110010000100100 aaaan
b1111100010110011001101011110100 aaaao
1aaaaq

#62001
b10001010010101001001011001011011 aaaaa
b10001101110000001100001101111100110000011010001010010101001001011001011011 aaaae
1aaaau
0aaaax
b0 aaaba
b111 aaabb
b11000011011111001100000110 aaabc
b101100000001101101110011110011 aaabd
b1011110010011011011100101101000 aaabe

#62500
0aaaaq

#63000
1aaaad
1aaaaf
1aaaag
1aaaaq

#63001
b0 aaaaa
0aaaac
0aaaad
b11001000000101011001101111110101100000000000000000000000000000000000000 aaaae
0aaaaf
1aaaar
0aaaas
1aaaat
0aaaau
1aaaax
b10 aaaaz
b10 aaaba
b100 aaabb
b1010110011011111101011000000 aaabc
b111101111010000011000001101100 aaabd
b11000011100100010011000011111 aaabe

#63500
0aaaaq

#64000
1aaaaq

#64001
b110000011 aaaaa
1aaaac
b1000010110101111001000100011000100000100000000000000000000000000110000011 aaaae
1aaaas
1aaaav
0aaaax
b0 aaaaz
b11 aaaba
b1011 aaabb
b1011110010001000110001000001000 aaabc
b1100011100001010100100010011110 aaabd
b1100000111011101001110000010110 aaabe

#64500
0aaaaq

#65000
1aaaaq

#65001
b1101011100011111111101011101110 aaaaa
1aaaad
b11110100100001011000101110101101110000110101101011100011111111101011101110 aaaae
1aaaaf
0aaaar
0aaaat
1aaaau
1aaaaw
1aaaax
b1 aaaaz
b10 aaabb
b10110001011101011011100001101 aaabc
b1100001010100101110001011011 aaabd
b1100111101001011010011010110101 aaabe

#65500
0aaaaq

#66000
b11110100100001011000101110101101110000110101101011100011111111101011101110 aaaab
0aaaad
0aaaaf
0aaaag
1aaaai
1aaaaj
b1 aaaal
b10 aaaam
b10110001011101011011100001101 aaaan
b1101011100011111111101011101110 aaaao
1aaaaq

#66001
b10001011010100011001000100101011 aaaaa
0aaaac
b1011001100001000010100011000011011001110010001011010100011001000100101011 aaaae
1aaaar
0aaaas
0aaaau
0aaaaw
b10 aaaaz
b0 aaaba
b110 aaabb
b10000101000110000110110011100 aaabc
b1010011101101110011010111010101 aaabd
b110111100110100101101101010110 aaabe

#66500
0aaaaq

#67000
1aaaaq

#67001
b1010111101110111111111110101111 aaaaa
1aaaac
b1010100000110001001010100100011111101100001010111101110111111111110101111 aaaae
1aaaas
b1 aaaaz
b10 aaaba
b0 aaabb
b1100010010101001000111111011000 aaabc
b1000011101100100111111110100111 aaabd
b1010101100010111011000100001101 aaabe

#67500
0aaaaq

#68000
1aaaag
1aaaaq

#68001
b1 aaaaa
b111110110011101100100001001001011010001100000000000000000000000000000001 aaaae
0aaaav
1aaaaw
b11 aaaaz
b1 aaaba
b1011 aaabb
b111011001000010010010110100011 aaabc
b101100100001011100101010 aaabd
b110111100001010110010101011010 aaabe

#68500
0aaaaq

#69000
1aaaaq

#69001
b1010111111111110111101100110011 aaaaa
1aaaad
b11010110110011000110101001110110110111011001010111111111110111101100110011 aaaae
1aaaaf
0aaaar
1aaaau
1aaaav
0aaaaw
b1 aaaaz
b10 aaaba
b110001101010011101101101110110 aaabc
b10110101011000100101100100011 aaabd
b1000011011101110011000100110010 aaabe

#69500
0aaaaq

#70000
b11010110110011000110101001110110110111011001010111111111110111101100110011 aaaab
0aaaad
0aaaaf
0aaaag
0aaaaj
b1011 aaaam
b110001101010011101101101110110 aaaan
b1010111111111110111101100110011 aaaao
1aaaaq

