CORE/DEC/tf.vcd
$date
     Feb 02, 2022       00:07:36
$end

$version
 SystemC 2.3.3-Accellera --- Jan 11 2022 05:11:53
$end

$timescale
     1 ps
$end

$scope module SystemC $end
$var wire    1  aaabh  REG_VALID0       $end
$var wire    1  aaabi  REG_VALID1       $end
$var wire    1  aaabj  REG_VALID2       $end
$var wire    1  aaabk  REG_VALID3       $end
$var wire    1  aaabl  REG_VALID4       $end
$var wire    1  aaabm  REG_VALID5       $end
$var wire    1  aaabn  REG_VALID6       $end
$var wire    1  aaabo  REG_VALID7       $end
$var wire    1  aaabp  REG_VALID8       $end
$var wire    1  aaabq  REG_VALID9       $end
$var wire    1  aaabr  REG_VALID10       $end
$var wire    1  aaabs  REG_VALID11       $end
$var wire    1  aaabt  REG_VALID12       $end
$var wire    1  aaabu  REG_VALID13       $end
$var wire    1  aaabv  REG_VALID14       $end
$var wire    1  aaabw  REG_VALID15       $end
$var wire    1  aaabx  REG_VALID16       $end
$var wire    1  aaaby  REG_VALID17       $end
$var wire    1  aaabz  REG_VALID18       $end
$var wire    1  aaaca  REG_VALID19       $end
$var wire    1  aaacb  REG_VALID20       $end
$var wire    1  aaacc  REG_VALID21       $end
$var wire    1  aaacd  REG_VALID22       $end
$var wire    1  aaace  REG_VALID23       $end
$var wire    1  aaacf  REG_VALID24       $end
$var wire    1  aaacg  REG_VALID25       $end
$var wire    1  aaach  REG_VALID26       $end
$var wire    1  aaaci  REG_VALID27       $end
$var wire    1  aaacj  REG_VALID28       $end
$var wire    1  aaack  REG_VALID29       $end
$var wire    1  aaacl  REG_VALID30       $end
$var wire    1  aaacm  REG_VALID31       $end
$var wire    1  aaacn  REG_VALID32       $end
$var wire    1  aaaco  RESET_N       $end
$var wire    1  aaacp  CLK       $end
$var wire    1  aaacq  READ_PC_VALID       $end
$var wire    1  aaacr  INC_PC_VALID       $end
$var wire   32  aaacs  READ_PC [31:0]  $end
$var wire   32  aaact  WADR1_DATA [31:0]  $end
$var wire    1  aaacu  WADR1_VALID       $end
$var wire    6  aaacv  WADR1 [5:0]  $end
$var wire   32  aaacw  RADR2_DATA [31:0]  $end
$var wire   32  aaacx  RADR1_DATA [31:0]  $end
$var wire    1  aaacy  RADR2_VALID       $end
$var wire    1  aaacz  RADR1_VALID       $end
$var wire    6  aaada  RADR2 [5:0]  $end
$var wire    6  aaadb  RADR1 [5:0]  $end
$scope module reg_inst $end
$var wire   32  aaaaa  REG0 [31:0]  $end
$var wire   32  aaaab  REG1 [31:0]  $end
$var wire   32  aaaac  REG2 [31:0]  $end
$var wire   32  aaaad  REG3 [31:0]  $end
$var wire   32  aaaae  REG4 [31:0]  $end
$var wire   32  aaaaf  REG5 [31:0]  $end
$var wire   32  aaaag  REG6 [31:0]  $end
$var wire   32  aaaah  REG7 [31:0]  $end
$var wire   32  aaaai  REG8 [31:0]  $end
$var wire   32  aaaaj  REG9 [31:0]  $end
$var wire   32  aaaak  REG10 [31:0]  $end
$var wire   32  aaaal  REG11 [31:0]  $end
$var wire   32  aaaam  REG12 [31:0]  $end
$var wire   32  aaaan  REG13 [31:0]  $end
$var wire   32  aaaao  REG14 [31:0]  $end
$var wire   32  aaaap  REG15 [31:0]  $end
$var wire   32  aaaaq  REG16 [31:0]  $end
$var wire   32  aaaar  REG17 [31:0]  $end
$var wire   32  aaaas  REG18 [31:0]  $end
$var wire   32  aaaat  REG19 [31:0]  $end
$var wire   32  aaaau  REG20 [31:0]  $end
$var wire   32  aaaav  REG21 [31:0]  $end
$var wire   32  aaaaw  REG22 [31:0]  $end
$var wire   32  aaaax  REG23 [31:0]  $end
$var wire   32  aaaay  REG24 [31:0]  $end
$var wire   32  aaaaz  REG25 [31:0]  $end
$var wire   32  aaaba  REG26 [31:0]  $end
$var wire   32  aaabb  REG27 [31:0]  $end
$var wire   32  aaabc  REG28 [31:0]  $end
$var wire   32  aaabd  REG29 [31:0]  $end
$var wire   32  aaabe  REG30 [31:0]  $end
$var wire   32  aaabf  REG31 [31:0]  $end
$var wire   32  aaabg  REG32 [31:0]  $end
$upscope $end
$upscope $end
$enddefinitions  $end

$comment
All initial values are dumped below at time 0 sec = 0 timescale units.
$end

$dumpvars
b0 aaaaa
b0 aaaab
b0 aaaac
b0 aaaad
b0 aaaae
b0 aaaaf
b0 aaaag
b0 aaaah
b0 aaaai
b0 aaaaj
b0 aaaak
b0 aaaal
b0 aaaam
b0 aaaan
b0 aaaao
b0 aaaap
b0 aaaaq
b0 aaaar
b0 aaaas
b0 aaaat
b0 aaaau
b0 aaaav
b0 aaaaw
b0 aaaax
b0 aaaay
b0 aaaaz
b0 aaaba
b0 aaabb
b0 aaabc
b0 aaabd
b0 aaabe
b0 aaabf
b0 aaabg
1aaabh
1aaabi
1aaabj
1aaabk
1aaabl
1aaabm
1aaabn
1aaabo
1aaabp
1aaabq
1aaabr
1aaabs
1aaabt
1aaabu
1aaabv
1aaabw
1aaabx
1aaaby
1aaabz
1aaaca
1aaacb
1aaacc
1aaacd
1aaace
1aaacf
1aaacg
1aaach
1aaaci
1aaacj
1aaack
1aaacl
1aaacm
1aaacn
1aaaco
1aaacp
0aaacq
0aaacr
b0 aaacs
b0 aaact
0aaacu
b0 aaacv
b0 aaacw
b0 aaacx
1aaacy
1aaacz
b0 aaada
b0 aaadb
$end

#500
0aaacp

#1000
1aaacp

#1500
0aaacp

#2000
1aaacp

#2500
0aaacp

#3000
0aaaco
1aaacp
1aaacr
b1110100101100001101110001010001 aaact
1aaacu
b110 aaacv
b1010 aaada
b11100 aaadb

#3500
0aaacp

#4000
1aaacp
b111101000110110101100010111010 aaact
b11 aaacv
b110 aaada
b10110 aaadb

#4500
0aaacp

#5000
0aaack
1aaacp
1aaacq
0aaacr
b1010001010111110000000001111100 aaact
0aaacu
b11101 aaacv
b11001 aaada
b101 aaadb

#5500
0aaacp

#6000
0aaacn
1aaacp
1aaacr
b10001100100001100110111100111 aaact
b100000 aaacv
b10110 aaada
b1101 aaadb

#6500
0aaacp

#7000
b1111111110111001100001000110011 aaaal
1aaacp
0aaacq
b1111111110111001100001000110011 aaact
1aaacu
b1011 aaacv
b10001 aaada
b11010 aaadb

#7500
0aaacp

#8000
0aaacc
1aaacp
b1010001100110110101000000001101 aaact
0aaacu
b10101 aaacv
0aaacz
b10010 aaada
b100000 aaadb

#8500
0aaacp

#9000
0aaabu
1aaacp
b1000011011011000110000100100101 aaact
b1101 aaacv
1aaacz
b10011 aaada
b111 aaadb

#9500
0aaacp

#10000
b1100111011000111000010001011110 aaaal
1aaacp
0aaacr
b1100111011000111000010001011110 aaact
1aaacu
b1011 aaacv
b10111 aaada
b1111 aaadb

#10500
0aaacp

#11000
0aaabp
1aaacp
b11000100110100111011010011011 aaact
0aaacu
b1000 aaacv
0aaacz
b110 aaada
b11101 aaadb

#11500
0aaacp

#12000
0aaaby
1aaacp
1aaacr
b111010100101011111100001110100 aaact
b10001 aaacv

#12500
0aaacp

#13000
b100010001000100001101001110000 aaaba
1aaacp
b100010001000100001101001110000 aaact
1aaacu
b11010 aaacv
1aaacz
b1111 aaada
b1111 aaadb

#13500
0aaacp

#14000
b1000100000010111010110111111100 aaaae
1aaacp
b1000100000010111010110111111100 aaact
b100 aaacv
b11000 aaada
b1010 aaadb

#14500
0aaacp

#15000
b100100011000111011100111101010 aaaal
1aaacp
0aaacr
b100100011000111011100111101010 aaact
b1011 aaacv
b1111 aaada
b1001 aaadb

#15500
0aaacp

#16000
0aaabo
1aaacp
b111000010101010101100001011100 aaact
0aaacu
b111 aaacv
b10100 aaada
b110 aaadb

#16500
0aaacp

#17000
b101100110110001001101000110010 aaaay
1aaacp
1aaacr
b101100110110001001101000110010 aaact
1aaacu
b11000 aaacv
b1001 aaada
b1110 aaadb

#17500
0aaacp

#18000
0aaacb
1aaacp
0aaacr
b111000010000110111111111011011 aaact
0aaacu
b10100 aaacv
b11110 aaada
b110 aaadb

#18500
0aaacp

#19000
b111101110000100100000011111011 aaabb
1aaacp
b111101110000100100000011111011 aaact
1aaacu
b11011 aaacv
b1001 aaada
b10000 aaadb

#19500
0aaacp

#20000
b1010010000011101110110111010001 aaaaf
1aaacp
b1010010000011101110110111010001 aaact
b101 aaacv
0aaacy
0aaacz
b111 aaada
b1000 aaadb

#20500
0aaacp

#21000
0aaabx
1aaacp
b111001001110000110010101110101 aaact
0aaacu
b10000 aaacv
1aaacy
1aaacz
b11110 aaada
b10010 aaadb

#21500
0aaacp

#22000
b10101101101011010111101011100 aaaag
1aaacp
1aaacr
b10101101101011010111101011100 aaact
1aaacu
b110 aaacv
0aaacz
b10110 aaada
b1000 aaadb

#22500
0aaacp

#23000
b1111110000011000101011110110001 aaaap
1aaacp
b1111110000011000101011110110001 aaact
b1111 aaacv
b101100110110001001101000110010 aaacw
b1000100000010111010110111111100 aaacx
1aaacz
b11000 aaada
b100 aaadb

#23500
0aaacp

#24000
b100101101001110000101111110111 aaaav
1aaacc
1aaacp
0aaacr
b100101101001110000101111110111 aaact
b10101 aaacv
b0 aaacw
b111101110000100100000011111011 aaacx
b10 aaada
b11011 aaadb

#24500
0aaacp

#25000
b10000000011111000111111001010 aaaav
1aaacp
1aaacr
b10000000011111000111111001010 aaact
b111101110000100100000011111011 aaacw
b100100011000111011100111101010 aaacx
b11011 aaada
b1011 aaadb

#25500
0aaacp

#26000
b110101110010100011101100100 aaaak
1aaacp
b110101110010100011101100100 aaact
b1010 aaacv
b0 aaacw
0aaacy
b11101 aaada

#26500
0aaacp

#27000
0aaabq
1aaacp
b1010100000010100100011100011100 aaact
0aaacu
b1001 aaacv
b100010001000100001101001110000 aaacw
b10000000011111000111111001010 aaacx
1aaacy
b11010 aaada
b10101 aaadb

#27500
0aaacp

#28000
b1000010100101100011111001011010 aaaas
1aaacp
b1000010100101100011111001011010 aaact
1aaacu
b10010 aaacv
b0 aaacw
b0 aaacx
0aaacz
b11110 aaada
b1101 aaadb

#28500
0aaacp

#29000
b1001001011000101000000100111011 aaaah
1aaabo
1aaacp
0aaacr
b1001001011000101000000100111011 aaact
b111 aaacv
b1010010000011101110110111010001 aaacx
1aaacz
b1100 aaada
b101 aaadb

#29500
0aaacp

#30000
0aaacd
1aaacp
b1110001111010100001000100001001 aaact
0aaacu
b10110 aaacv
b0 aaacx
0aaacy
0aaacz
b1000 aaada
b1000 aaadb

#30500
0aaacp

#31000
0aaaci
1aaacp
b100010000101111000011011 aaact
b11011 aaacv
b100100011000111011100111101010 aaacx
1aaacy
1aaacz
b1 aaada
b1011 aaadb

#31500
0aaacp

#32000
b1110100110111100000111011100011 aaaac
1aaacp
b1110100110111100000111011100011 aaact
1aaacu
b10 aaacv
b1111110000011000101011110110001 aaacw
b10101101101011010111101011100 aaacx
b1111 aaada
b110 aaadb

#32500
0aaacp

#33000
0aaace
1aaacp
1aaacr
b1010111111111000100111110111011 aaact
0aaacu
b10111 aaacv
b0 aaacw
b1001001011000101000000100111011 aaacx
0aaacy
b10100 aaada
b111 aaadb

#33500
0aaacp

#34000
b1001001110110100011000001111101 aaaau
1aaacb
1aaacp
b1001001110110100011000001111101 aaact
1aaacu
b10100 aaacv
b0 aaacx
1aaacy
b10011 aaada
b11110 aaadb

#34500
0aaacp

#35000
0aaach
1aaacp
b1101010101001111000111101111111 aaact
0aaacu
b11010 aaacv

#35500
0aaacp

#36000
0aaacb
1aaacp
b1110011101000011000001000011011 aaact
b10100 aaacv
b101100110110001001101000110010 aaacw
b1111110000011000101011110110001 aaacx
b11000 aaada
b1111 aaadb

#36500
0aaacp

#37000
1aaacp
0aaacr
b1110001110010010001001010011000 aaact
b11010 aaacv
b0 aaacw
b0 aaacx
0aaacz
b1110 aaada
b10001 aaadb

#37500
0aaacp

#38000
b1011001101011011110101000111101 aaaav
1aaacp
b1011001101011011110101000111101 aaact
1aaacu
b10101 aaacv
1aaacz
b0 aaada
b1100 aaadb

#38500
0aaacp

#39000
b11100101000001100010111111010 aaaas
1aaacp
1aaacr
b11100101000001100010111111010 aaact
b10010 aaacv
b1011001101011011110101000111101 aaacw
0aaacz
b10101 aaada
b1000 aaadb

#39500
0aaacp

#40000
1aaacp
b1011100000100001111111000100001 aaact
0aaacu
b1101 aaacv
b0 aaacw
0aaacy
b10100 aaada
b1101 aaadb

#40500
0aaacp

#41000
0aaabz
1aaacp
0aaacr
b101011000011011000110110111110 aaact
b10010 aaacv
b10000 aaada
b10111 aaadb

#41500
0aaacp

#42000
0aaabn
1aaacp
1aaacr
b1101010101001111011011101011100 aaact
b110 aaacv
1aaacy
1aaacz
b11 aaada
b10011 aaadb

#42500
0aaacp

#43000
b1011011001001011010110011100010 aaabg
1aaacn
1aaacp
0aaacr
b1011011001001011010110011100010 aaact
1aaacu
b100000 aaacv
b0 aaada
b1110 aaadb

#43500
0aaacp

#44000
0aaabs
1aaacp
1aaacq
1aaacr
b1010110010000111000110100010101 aaact
0aaacu
b1011 aaacv
b1001001011000101000000100111011 aaacw
b111 aaada
b1 aaadb

#44500
0aaacp

#45000
b1011101100010001000101000001000 aaaat
1aaacp
0aaacr
b1011101100010001000101000001000 aaact
1aaacu
b10011 aaacv
b1111110000011000101011110110001 aaacw
0aaacz
b1111 aaada
b1101 aaadb

#45500
0aaacp

#46000
b1010011100110011100011001010100 aaaad
1aaacp
b1010011100110011100011001010100 aaact
b11 aaacv
b0 aaacw
b1011101100010001000101000001000 aaacx
0aaacy
1aaacz
b1001 aaada
b10011 aaadb

#46500
0aaacp

#47000
b1010111110100101111000100001110 aaaba
1aaach
1aaacp
b1010111110100101111000100001110 aaact
b11010 aaacv
b1110100110111100000111011100011 aaacw
b0 aaacx
1aaacy
0aaacz
b10 aaada
b11011 aaadb

#47500
0aaacp

#48000
b1010101010100011011100111110011 aaaao
1aaacp
b1010101010100011011100111110011 aaact
b1110 aaacv
b0 aaacw
0aaacy
1aaacz
b11011 aaada
b11110 aaadb

#48500
0aaacp

#49000
b1111101111111111001110100001001 aaaav
1aaacp
b1111101111111111001110100001001 aaact
b10101 aaacv
b1010111110100101111000100001110 aaacw
1aaacy
0aaacz
b11010 aaada
b10100 aaadb

#49500
0aaacp

#50000
b1111010101101001001110110101111 aaaae
1aaacp
1aaacr
b1111010101101001001110110101111 aaact
b100 aaacv
b0 aaacw
0aaacy
1aaacz
b10111 aaada
b11111 aaadb

#50500
0aaacp

#51000
1aaacp
0aaacr
b110001001000010110011110101101 aaact
b0 aaacv
b1110100110111100000111011100011 aaacx
1aaacy
b1 aaada
b10 aaadb

#51500
0aaacp

#52000
1aaacp
b1100101100101101000110000011100 aaact
0aaacu
b10100 aaacv
b1010111110100101111000100001110 aaacx
b11100 aaada
b11010 aaadb

#52500
0aaacp

#53000
1aaacp
1aaacr
b111111110000110010111000100000 aaact
b11011 aaacv
b0 aaacx
0aaacy
b10111 aaada
b11111 aaadb

#53500
0aaacp

#54000
1aaacp
0aaacr
b111011010110010100100000000111 aaact
b1101 aaacv
b1010011100110011100011001010100 aaacw
b101100110110001001101000110010 aaacx
1aaacy
b11 aaada
b11000 aaadb

#54500
0aaacp

#55000
b1011101001000000101111000100000 aaaam
1aaacp
b1011101001000000101111000100000 aaact
1aaacu
b1100 aaacv
b0 aaacw
b0 aaacx
b11100 aaada
b1 aaadb

#55500
0aaacp

#56000
b10110110011111000000011110001 aaabb
1aaaci
1aaacp
b10110110011111000000011110001 aaact
b11011 aaacv
0aaacy
b1011 aaada
b11110 aaadb

#56500
0aaacp

#57000
b101001100100110100011010011001 aaaau
1aaacb
1aaacp
b101001100100110100011010011001 aaact
b10100 aaacv
b1111010101101001001110110101111 aaacw
1aaacy
0aaacz
b100 aaada
b1101 aaadb

#57500
0aaacp

#58000
b111111011111110101110111011001 aaaac
1aaacp
b111111011111110101110111011001 aaact
b10 aaacv
b1011101100010001000101000001000 aaacw
1aaacz
b10011 aaada
b11111 aaadb

#58500
0aaacp

#59000
0aaacc
1aaacp
b10011010110111000000100010000 aaact
0aaacu
b10101 aaacv
b101001100100110100011010011001 aaacw
0aaacz
b10100 aaada
b1000 aaadb

#59500
0aaacp

#60000
b101010011010101101100110111110 aaaao
1aaacp
b101010011010101101100110111110 aaact
1aaacu
b1110 aaacv
b1011011001001011010110011100010 aaacw
b1001001011000101000000100111011 aaacx
1aaacz
b100000 aaada
b111 aaadb

#60500
0aaacp

#61000
0aaabj
1aaacp
1aaacr
b1010100010100011100111101001001 aaact
0aaacu
b10 aaacv
b0 aaacw
b0 aaacx
0aaacz
b0 aaada
b1101 aaadb

#61500
0aaacp

#62000
0aaaca
1aaacp
b1000010010001000111100111011010 aaact
b10011 aaacv
b1001001011000101000000100111011 aaacw
b1011011001001011010110011100010 aaacx
1aaacz
b111 aaada
b100000 aaadb

#62500
0aaacp

#63000
0aaacf
1aaacp
b11111010001100001101101010001 aaact
b11000 aaacv
b0 aaacw
0aaacy
b10 aaada

#63500
0aaacp

#64000
b1110010111000110100000100111010 aaaag
1aaabn
1aaacp
0aaacr
b1110010111000110100000100111010 aaact
1aaacu
b110 aaacv
b0 aaacx
1aaacy
0aaacz
b11111 aaada
b10010 aaadb

#64500
0aaacp

#65000
1aaacp
1aaacr
b100101100101110011111000110010 aaact
0aaacu
b0 aaacv
0aaacy
b10111 aaada
b10111 aaadb

#65500
0aaacp

#66000
0aaacn
1aaacp
b1111110010001001000110111101001 aaact
b100000 aaacv
1aaacz
b10110 aaada
b11100 aaadb

#66500
0aaacp

#67000
b1100101111100101101111101001 aaaac
1aaabj
1aaacp
0aaacq
0aaacr
b1100101111100101101111101001 aaact
1aaacu
b10 aaacv
1aaacy
0aaacz
b11001 aaada
b1000 aaadb

#67500
0aaacp

#68000
0aaabo
1aaacp
b110100101111101001011010010 aaact
0aaacu
b111 aaacv
0aaacy
1aaacz
b1001 aaada
b11110 aaadb

#68500
0aaacp

#69000
0aaaci
1aaacp
1aaacr
b1111001111110000100111011000 aaact
b11011 aaacv
b1010010000011101110110111010001 aaacx
1aaacy
b11001 aaada
b101 aaadb

#69500
0aaacp

#70000
1aaacp
0aaacr
b100110111100101101001101100100 aaact
b0 aaacv
b110101110010100011101100100 aaacx
0aaacy
b10010 aaada
b1010 aaadb

#70500
0aaacp

#71000
b1001111001110001111001001100101 aaabe
1aaacp
b1001111001110001111001001100101 aaact
1aaacu
b11110 aaacv
b101010011010101101100110111110 aaacw
1aaacy
b1110 aaada

#71500
0aaacp

#72000
1aaacp
1aaacr
b1110110001111001011011010000000 aaact
0aaacu
b1101 aaacv
b0 aaacw
b1010011100110011100011001010100 aaacx
0aaacy
b10010 aaada
b11 aaadb

#72500
0aaacp

#73000
1aaacp
0aaacr
b101101101110001000000010001001 aaact
1aaacu
b0 aaacv
b1110010111000110100000100111010 aaacw
b0 aaacx
1aaacy
0aaacz
b110 aaada
b1000 aaadb

#73500
0aaacp

#74000
b100000111101001011110110101101 aaabe
1aaacp
b100000111101001011110110101101 aaact
b11110 aaacv
b0 aaacw
b110101110010100011101100100 aaacx
1aaacz
b11111 aaada
b1010 aaadb

#74500
0aaacp

#75000
1aaacp
b11001010110001011110100010111 aaact
0aaacu
b1000 aaacv
b1111110000011000101011110110001 aaacw
b1011101001000000101111000100000 aaacx
b1111 aaada
b1100 aaadb

#75500
0aaacp

#76000
0aaabr
1aaacp
1aaacr
b11001101001010010010101100110 aaact
b1010 aaacv
b0 aaacw
b0 aaacx
0aaacz
b0 aaada
b10010 aaadb

#76500
0aaacp

#77000
b1000100001101000100110000100010 aaaac
1aaacp
0aaacr
b1000100001101000100110000100010 aaact
1aaacu
b10 aaacv
b1010011100110011100011001010100 aaacx
0aaacy
1aaacz
b1011 aaada
b11 aaadb

#77500
0aaacp

#78000
b100111000101111001110000001011 aaaar
1aaaby
1aaacp
1aaacr
b100111000101111001110000001011 aaact
b10001 aaacv
b101001100100110100011010011001 aaacw
b0 aaacx
1aaacy
0aaacz
b10100 aaada
b111 aaadb

#78500
0aaacp

#79000
b1010111110011100110011010110100 aaaag
1aaacp
b1010111110011100110011010110100 aaact
b110 aaacv
b0 aaacw
0aaacy
b1011 aaada
b1011 aaadb

#79500
0aaacp

#80000
b1000100001110000000011100100111 aaaaz
1aaacp
0aaacr
b1000100001110000000011100100111 aaact
b11001 aaacv
b11000 aaada
b100000 aaadb

#80500
0aaacp

#81000
b101110010110110001001010111000 aaaam
1aaacp
1aaacr
b101110010110110001001010111000 aaact
b1100 aaacv
b101001100100110100011010011001 aaacw
1aaacy
1aaacz
b10100 aaada
b1 aaadb

#81500
0aaacp

#82000
b1000001000101100000011101111 aaabd
1aaack
1aaacp
b1000001000101100000011101111 aaact
b11101 aaacv
b1010011100110011100011001010100 aaacw
b11 aaada
b11100 aaadb

#82500
0aaacp

#83000
b1001001110000100110101 aaabf
1aaacp
b1001001110000100110101 aaact
b11111 aaacv
b1000100001110000000011100100111 aaacw
b1010111110011100110011010110100 aaacx
b11001 aaada
b110 aaadb

#83500
0aaacp

#84000
b10111001100000100101001100111 aaaaj
1aaabq
1aaacp
0aaacr
b10111001100000100101001100111 aaact
b1001 aaacv
b0 aaacw
b0 aaacx
0aaacy
0aaacz
b111 aaada
b100000 aaadb

#84500
0aaacp

#85000
0aaabt
1aaacp
1aaacr
b1110001010010000010010101000101 aaact
0aaacu
b1100 aaacv
b1111110000011000101011110110001 aaacx
1aaacz
b1101 aaada
b1111 aaadb

#85500
0aaacp

#86000
1aaacp
b1110011101110111101011111111000 aaact
b100000 aaacv
b100111000101111001110000001011 aaacw
b100111000101111001110000001011 aaacx
1aaacy
b10001 aaada
b10001 aaadb

#86500
0aaacp

#87000
1aaacp
b1011110100101100011100010010110 aaact
1aaacu
b0 aaacv
b101001100100110100011010011001 aaacw
b1111110000011000101011110110001 aaacx
b10100 aaada
b1111 aaadb

#87500
0aaacp

#88000
1aaacp
0aaacr
b111111010010001011100110000010 aaact
0aaacu
b1000 aaacv
b0 aaacw
b101001100100110100011010011001 aaacx
0aaacy
b10101 aaada
b10100 aaadb

#88500
0aaacp

#89000
1aaacp
b1010100000111110010100011001101 aaact
b1011 aaacv
b0 aaacx
0aaacz
b1000 aaada
b10000 aaadb

#89500
0aaacp

#90000
0aaabl
1aaacp
b1010001101000100111101010100110 aaact
b100 aaacv
b1000100001110000000011100100111 aaacw
1aaacy
b11001 aaada
b1011 aaadb

#90500
0aaacp

#91000
b111100001110110111001010110010 aaaad
1aaacp
b111100001110110111001010110010 aaact
1aaacu
b11 aaacv
b101010011010101101100110111110 aaacw
1aaacz
b1110 aaada
b1 aaadb

#91500
0aaacp

#92000
0aaabw
1aaacp
1aaacr
b110100110011000011101011001111 aaact
0aaacu
b1111 aaacv
b1000100001110000000011100100111 aaacw
b1000001000101100000011101111 aaacx
b11001 aaada
b11101 aaadb

#92500
0aaacp

#93000
0aaabv
1aaacp
b1001010000111010110000001101110 aaact
b1110 aaacv
b0 aaacw
b0 aaacx
0aaacy
0aaacz
b10110 aaada
b1010 aaadb

#93500
0aaacp

#94000
b1110011010110011111101101010 aaabe
1aaacp
b1110011010110011111101101010 aaact
1aaacu
b11110 aaacv
b101001100100110100011010011001 aaacw
b101001100100110100011010011001 aaacx
1aaacy
1aaacz
b10100 aaada
b10100 aaadb

#94500
0aaacp

#95000
b1010001100111101011100101001100 aaabg
1aaacn
1aaacp
b1010001100111101011100101001100 aaact
b100000 aaacv
b100111000101111001110000001011 aaacw
b0 aaacx
0aaacz
b10001 aaada
b10101 aaadb

#95500
0aaacp

#96000
1aaacp
1aaacq
0aaacr
b10001111000000010010011010 aaact
0aaacu
b111 aaacv
b0 aaacw
b10111001100000100101001100111 aaacx
0aaacy
1aaacz
b100 aaada
b1001 aaadb

#96500
0aaacp

#97000
0aaabn
1aaacp
1aaacr
b111101000110100010110111011001 aaact
b110 aaacv
b1110011010110011111101101010 aaacw
b0 aaacx
1aaacy
0aaacz
b11110 aaada
b1000 aaadb

#97500
0aaacp

#98000
0aaack
1aaacp
b11100011111100011110000000001 aaact
b11101 aaacv
b1001001110000100110101 aaacw
b11111 aaada
b1111 aaadb

#98500
0aaacp

#99000
b111000001000101100101100000001 aaaau
1aaacp
b111000001000101100101100000001 aaact
1aaacu
b10100 aaacv
b1000100001101000100110000100010 aaacw
b10 aaada
b10011 aaadb

#99500
0aaacp

#100000
1aaacp
b101010101100100110010110000111 aaact
0aaacu
b1100 aaacv
b0 aaacw
0aaacy
b10010 aaada
b10110 aaadb

#100500
0aaacp

#101000
0aaacb
1aaacp
0aaacr
b1110001001100010101001101101001 aaact
b10100 aaacv
b10000 aaada
b1100 aaadb

#101500
0aaacp

#102000
b1110011110011111110000101100101 aaaaq
1aaabx
1aaacp
b1110011110011111110000101100101 aaact
1aaacu
b10000 aaacv
b1000100001101000100110000100010 aaacw
1aaacy
1aaacz
b10 aaada
b0 aaadb

#102500
0aaacp

#103000
b1000111110001111100100101110001 aaaab
1aaacp
1aaacr
b1000111110001111100100101110001 aaact
b1 aaacv
b0 aaacw
0aaacy
0aaacz
b111 aaada
b1101 aaadb

#103500
0aaacp

#104000
b1010011101100100101011001001111 aaaaq
1aaacp
0aaacr
b1010011101100100101011001001111 aaact
b10000 aaacv
b10011 aaada
b111 aaadb

#104500
0aaacp

#105000
b101111110100001010110110000001 aaabd
1aaack
1aaacp
1aaacr
b101111110100001010110110000001 aaact
b11101 aaacv
b10100 aaada
b10010 aaadb

#105500
0aaacp

#106000
b111100010001011110110011011 aaaaq
1aaacp
b111100010001011110110011011 aaact
b10000 aaacv
b100111000101111001110000001011 aaacw
1aaacy
b10001 aaada
b1011 aaadb

#106500
0aaacp

#107000
1aaacp
0aaacr
b1001010010101000101111110 aaact
0aaacu
b1011 aaacv
b1000111110001111100100101110001 aaacw
b1 aaada
b1111 aaadb

#107500
0aaacp

#108000
1aaacp
b10110001001101111101110001100 aaact
b111 aaacv
b0 aaacw
b1010001100111101011100101001100 aaacx
0aaacy
1aaacz
b10100 aaada
b100000 aaadb

#108500
0aaacp

#109000
0aaach
1aaacp
b10011111000100001000000000010 aaact
b11010 aaacv
b0 aaacx
1aaacy
0aaacz
b0 aaada
b1111 aaadb

#109500
0aaacp

#110000
1aaacp
1aaacr
b111100111001110011001011101100 aaact
b1100 aaacv
b10111001100000100101001100111 aaacw
b10111001100000100101001100111 aaacx
1aaacz
b1001 aaada
b1001 aaadb

#110500
0aaacp

#111000
0aaacn
1aaacp
b1011011111111010100001000010000 aaact
b100000 aaacv
b0 aaacw
b111100001110110111001010110010 aaacx
0aaacy
b1101 aaada
b11 aaadb

#111500
0aaacp

#112000
1aaacp
0aaacq
b1010000001001001101111001011011 aaact
b0 aaacv
b0 aaacx
0aaacz
b10110 aaada
b11010 aaadb

#112500
0aaacp

#113000
1aaacp
b10100100101011110010100001010 aaact
b11010 aaacv
b111100010001011110110011011 aaacw
b1010010000011101110110111010001 aaacx
1aaacy
1aaacz
b10000 aaada
b101 aaadb

#113500
0aaacp

#114000
b1001110100111101111101100001101 aaaar
1aaacp
0aaacr
b1001110100111101111101100001101 aaact
1aaacu
b10001 aaacv
b1110011010110011111101101010 aaacw
b0 aaacx
0aaacz
b11110 aaada
b10010 aaadb

#114500
0aaacp

#115000
1aaacp
b11111001111011010010011010101 aaact
0aaacu
b1110 aaacv
b0 aaacw
b1000111110001111100100101110001 aaacx
1aaacz
b0 aaada
b1 aaadb

#115500
0aaacp

#116000
0aaacl
1aaacp
b1101000001011011111111011010110 aaact
b11110 aaacv
b1000100001101000100110000100010 aaacw
b0 aaacx
0aaacz
b10 aaada
b11011 aaadb

#116500
0aaacp

#117000
1aaacp
1aaacr
b11001101110001010000010001110 aaact
b11011 aaacv
b0 aaacw
0aaacy
b1110 aaada
b10111 aaadb

#117500
0aaacp

#118000
0aaack
1aaacp
b101011101101011011000111000110 aaact
b11101 aaacv
b10101 aaada
b11110 aaadb

#118500
0aaacp

#119000
b1110011101111000110011101110000 aaaag
1aaabn
1aaacp
b1110011101111000110011101110000 aaact
1aaacu
b110 aaacv
b1001110100111101111101100001101 aaacw
b1010010000011101110110111010001 aaacx
1aaacy
1aaacz
b10001 aaada
b101 aaadb

#119500
0aaacp

#120000
b1001011101010011000001100011010 aaabe
1aaacl
1aaacp
b1001011101010011000001100011010 aaact
b11110 aaacv
b0 aaacw
b0 aaacx
0aaacy
0aaacz
b11010 aaada
b11010 aaadb

#120500
0aaacp

#121000
b1001011011010000011110100001101 aaabf
1aaacp
0aaacr
b1001011011010000011110100001101 aaact
b11111 aaacv
b1001011101010011000001100011010 aaacw
1aaacy
b11110 aaada
b10110 aaadb

#121500
0aaacp

#122000
1aaacp
b111100000010011101010010100001 aaact
0aaacu
b11101 aaacv
b0 aaacw
0aaacy
b1101 aaada
b11011 aaadb

#122500
0aaacp

#123000
0aaabi
1aaacp
b1101000011000111110100011010010 aaact
b1 aaacv
b11101 aaada
b100000 aaadb

#123500
0aaacp

#124000
b100001110100000110001001010101 aaaap
1aaabw
1aaacp
1aaacr
b100001110100000110001001010101 aaact
1aaacu
b1111 aaacv
b1000100001101000100110000100010 aaacx
1aaacz
b10101 aaada
b10 aaadb

#124500
0aaacp

#125000
1aaacp
b11010010101001101011110111100 aaact
0aaacu
b100000 aaacv
b1001011011010000011110100001101 aaacw
b111100001110110111001010110010 aaacx
1aaacy
b11111 aaada
b11 aaadb

#125500
0aaacp

#126000
1aaacp
0aaacr
b111000101111110101001111100101 aaact
1aaacu
b0 aaacv
b0 aaacw
b0 aaacx
0aaacy
0aaacz
b11010 aaada
b11011 aaadb

#126500
0aaacp

#127000
b100001000010011100110110100100 aaabf
1aaacp
1aaacr
b100001000010011100110110100100 aaact
b11111 aaacv
b1010010000011101110110111010001 aaacw
1aaacy
b101 aaada
b1010 aaadb

#127500
0aaacp

