CORE/DEC/tf.vcd
$date
     Feb 01, 2022       20:01:11
$end

$version
 SystemC 2.3.3-Accellera --- Jan 21 2022 18:16:13
$end

$timescale
     1 ps
$end

$scope module SystemC $end
$var wire    1  aaabh  REG_VALID0       $end
$var wire    1  aaabi  REG_VALID1       $end
$var wire    1  aaabj  REG_VALID2       $end
$var wire    1  aaabk  REG_VALID3       $end
$var wire    1  aaabl  REG_VALID4       $end
$var wire    1  aaabm  REG_VALID5       $end
$var wire    1  aaabn  REG_VALID6       $end
$var wire    1  aaabo  REG_VALID7       $end
$var wire    1  aaabp  REG_VALID8       $end
$var wire    1  aaabq  REG_VALID9       $end
$var wire    1  aaabr  REG_VALID10       $end
$var wire    1  aaabs  REG_VALID11       $end
$var wire    1  aaabt  REG_VALID12       $end
$var wire    1  aaabu  REG_VALID13       $end
$var wire    1  aaabv  REG_VALID14       $end
$var wire    1  aaabw  REG_VALID15       $end
$var wire    1  aaabx  REG_VALID16       $end
$var wire    1  aaaby  REG_VALID17       $end
$var wire    1  aaabz  REG_VALID18       $end
$var wire    1  aaaca  REG_VALID19       $end
$var wire    1  aaacb  REG_VALID20       $end
$var wire    1  aaacc  REG_VALID21       $end
$var wire    1  aaacd  REG_VALID22       $end
$var wire    1  aaace  REG_VALID23       $end
$var wire    1  aaacf  REG_VALID24       $end
$var wire    1  aaacg  REG_VALID25       $end
$var wire    1  aaach  REG_VALID26       $end
$var wire    1  aaaci  REG_VALID27       $end
$var wire    1  aaacj  REG_VALID28       $end
$var wire    1  aaack  REG_VALID29       $end
$var wire    1  aaacl  REG_VALID30       $end
$var wire    1  aaacm  REG_VALID31       $end
$var wire    1  aaacn  REG_VALID32       $end
$var wire    1  aaaco  RESET_N       $end
$var wire    1  aaacp  CLK       $end
$var wire    1  aaacq  READ_PC_VALID       $end
$var wire    1  aaacr  INC_PC_VALID       $end
$var wire   32  aaacs  READ_PC [31:0]  $end
$var wire    1  aaact  INVAL_DEST       $end
$var wire    6  aaacu  adr_dest [5:0]  $end
$var wire   32  aaacv  WADR1_DATA [31:0]  $end
$var wire    1  aaacw  WADR1_VALID       $end
$var wire    6  aaacx  WADR1 [5:0]  $end
$var wire   32  aaacy  RADR2_DATA [31:0]  $end
$var wire   32  aaacz  RADR1_DATA [31:0]  $end
$var wire    1  aaada  RADR2_VALID       $end
$var wire    1  aaadb  RADR1_VALID       $end
$var wire    6  aaadc  RADR2 [5:0]  $end
$var wire    6  aaadd  RADR1 [5:0]  $end
$scope module reg_inst $end
$var wire   32  aaaaa  REG0 [31:0]  $end
$var wire   32  aaaab  REG1 [31:0]  $end
$var wire   32  aaaac  REG2 [31:0]  $end
$var wire   32  aaaad  REG3 [31:0]  $end
$var wire   32  aaaae  REG4 [31:0]  $end
$var wire   32  aaaaf  REG5 [31:0]  $end
$var wire   32  aaaag  REG6 [31:0]  $end
$var wire   32  aaaah  REG7 [31:0]  $end
$var wire   32  aaaai  REG8 [31:0]  $end
$var wire   32  aaaaj  REG9 [31:0]  $end
$var wire   32  aaaak  REG10 [31:0]  $end
$var wire   32  aaaal  REG11 [31:0]  $end
$var wire   32  aaaam  REG12 [31:0]  $end
$var wire   32  aaaan  REG13 [31:0]  $end
$var wire   32  aaaao  REG14 [31:0]  $end
$var wire   32  aaaap  REG15 [31:0]  $end
$var wire   32  aaaaq  REG16 [31:0]  $end
$var wire   32  aaaar  REG17 [31:0]  $end
$var wire   32  aaaas  REG18 [31:0]  $end
$var wire   32  aaaat  REG19 [31:0]  $end
$var wire   32  aaaau  REG20 [31:0]  $end
$var wire   32  aaaav  REG21 [31:0]  $end
$var wire   32  aaaaw  REG22 [31:0]  $end
$var wire   32  aaaax  REG23 [31:0]  $end
$var wire   32  aaaay  REG24 [31:0]  $end
$var wire   32  aaaaz  REG25 [31:0]  $end
$var wire   32  aaaba  REG26 [31:0]  $end
$var wire   32  aaabb  REG27 [31:0]  $end
$var wire   32  aaabc  REG28 [31:0]  $end
$var wire   32  aaabd  REG29 [31:0]  $end
$var wire   32  aaabe  REG30 [31:0]  $end
$var wire   32  aaabf  REG31 [31:0]  $end
$var wire   32  aaabg  REG32 [31:0]  $end
$upscope $end
$upscope $end
$enddefinitions  $end

$comment
All initial values are dumped below at time 0 sec = 0 timescale units.
$end

$dumpvars
b0 aaaaa
b0 aaaab
b0 aaaac
b0 aaaad
b0 aaaae
b0 aaaaf
b0 aaaag
b0 aaaah
b0 aaaai
b0 aaaaj
b0 aaaak
b0 aaaal
b0 aaaam
b0 aaaan
b0 aaaao
b0 aaaap
b0 aaaaq
b0 aaaar
b0 aaaas
b0 aaaat
b0 aaaau
b0 aaaav
b0 aaaaw
b0 aaaax
b0 aaaay
b0 aaaaz
b0 aaaba
b0 aaabb
b0 aaabc
b0 aaabd
b0 aaabe
b0 aaabf
b0 aaabg
1aaabh
1aaabi
1aaabj
1aaabk
1aaabl
1aaabm
1aaabn
1aaabo
1aaabp
1aaabq
1aaabr
1aaabs
1aaabt
1aaabu
1aaabv
1aaabw
1aaabx
1aaaby
1aaabz
1aaaca
1aaacb
1aaacc
1aaacd
1aaace
1aaacf
1aaacg
1aaach
1aaaci
1aaacj
1aaack
1aaacl
1aaacm
1aaacn
1aaaco
1aaacp
0aaacq
0aaacr
b0 aaacs
0aaact
b0 aaacu
b0 aaacv
0aaacw
b0 aaacx
b0 aaacy
b0 aaacz
1aaada
1aaadb
b0 aaadc
b0 aaadd
$end

#500
0aaacp

#1000
1aaacp

#1500
0aaacp

#2000
1aaacp

#2500
0aaacp

#3000
0aaaco
1aaacp
1aaacr
b11 aaacu
b1100110001100110100100001110011 aaacv
1aaacw
b110 aaacx
b1010 aaadc
b11100 aaadd

#3500
0aaacp

#4000
1aaacp
1aaact
b110 aaacu
b111101000110110101100010111010 aaacv
b1 aaacx
b11 aaadc
b110 aaadd

#4500
0aaacp

#5000
b1011011110100000110001011000010 aaaaj
1aaacp
1aaacq
0aaacr
b10 aaacu
b1011011110100000110001011000010 aaacv
b1001 aaacx
b100 aaadc
b11101 aaadd

#5500
0aaacp

#6000
1aaacp
b101 aaacu
b10100000011100000111101110110 aaacv
b0 aaacx
b11011 aaadc
b1000 aaadd

#6500
0aaacp

#7000
b1101011011010000000011110011010 aaabg
1aaacp
b1101011011010000000011110011010 aaacv
b100000 aaacx
b1010 aaadc
b11001 aaadd

#7500
0aaacp

#8000
b100101011100010011000010100011 aaaat
1aaacp
b1 aaacu
b100101011100010011000010100011 aaacv
b10011 aaacx
b1011011110100000110001011000010 aaacz
b111 aaadc
b1001 aaadd

#8500
0aaacp

#9000
b101101000111010101101011101001 aaaal
1aaacp
b10 aaacu
b101101000111010101101011101001 aaacv
b1011 aaacx
b0 aaacz
b10111 aaadc
b1111 aaadd

#9500
0aaacp

#10000
b11000100110100111011010011011 aaabc
1aaacp
b1 aaacu
b11000100110100111011010011011 aaacv
b11100 aaacx
b1000 aaadc
b110 aaadd

#10500
0aaacp

#11000
b1000000100111000011001000001 aaaaq
0aaabn
1aaacp
1aaacr
0aaact
b110 aaacu
b1000000100111000011001000001 aaacv
b10000 aaacx
b101 aaadc
b10001 aaadd

#11500
0aaacp

#12000
b110000000001101100100000111110 aaaau
1aaacp
1aaact
b11 aaacu
b110000000001101100100000111110 aaacv
b10100 aaacx
b10001 aaadc
b11 aaadd

#12500
0aaacp

#13000
b1110111010001100101111100000001 aaaaj
0aaabj
1aaacp
0aaacr
0aaact
b10 aaacu
b1110111010001100101111100000001 aaacv
b1001 aaacx
b10101 aaadc
b0 aaadd

#13500
0aaacp

#14000
b1011000000010111101011110001111 aaaau
0aaabm
1aaacp
b101 aaacu
b1011000000010111101011110001111 aaacv
b10100 aaacx
0aaada
0aaadb
b110 aaadc
b10 aaadd

#14500
0aaacp

#15000
b1110010010110100000011011111011 aaaay
0aaabi
1aaacp
b1 aaacu
b1110010010110100000011011111011 aaacv
b11000 aaacx
b1110111010001100101111100000001 aaacy
1aaada
1aaadb
b1001 aaadc
b1110 aaadd

#15500
0aaacp

#16000
b111000010000110111111111011011 aaabe
0aaabl
1aaacp
b100 aaacu
b111000010000110111111111011011 aaacv
b11110 aaacx
b1011000000010111101011110001111 aaacy
b10100 aaadc
b11110 aaadd

#16500
0aaacp

#17000
b11011101000000010011011111010 aaabe
1aaacp
1aaact
b0 aaacu
b11011101000000010011011111010 aaacv
b11011 aaadd

#17500
0aaacp

#18000
b1001111010011101111000000000101 aaabd
1aaacp
0aaact
b110 aaacu
b1001111010011101111000000000101 aaacv
b11101 aaacx
b0 aaacy
b11010 aaadc
b10010 aaadd

#18500
0aaacp

#19000
b100011010110111010100001100001 aaaai
1aaacp
1aaacr
b100011010110111010100001100001 aaacv
b1000 aaacx
b1001111010011101111000000000101 aaacy
b11101 aaadc
b1010 aaadd

#19500
0aaacp

#20000
b111111011010101011011000001111 aaaay
1aaacp
1aaact
b11 aaacu
b111111011010101011011000001111 aaacv
b11000 aaacx
b0 aaacy
b1011000000010111101011110001111 aaacz
0aaada
b100 aaadc
b10100 aaadd

#20500
0aaacp

#21000
b101111001100000101110111101111 aaaav
1aaacp
b101111001100000101110111101111 aaacv
b10101 aaacx
b0 aaacz
b10 aaadc
b11011 aaadd

#21500
0aaacp

#22000
b10000000011111000111111001010 aaaar
1aaacp
0aaact
b100 aaacu
b10000000011111000111111001010 aaacv
b10001 aaacx
b101111001100000101110111101111 aaacy
1aaada
b10101 aaadc

#22500
0aaacp

#23000
b1000010110000101001011010111101 aaaar
1aaacp
b1000010110000101001011010111101 aaacv
b0 aaacy
b11011 aaadc
b1010 aaadd

#23500
0aaacp

#24000
b1010001110110011100010101100100 aaabd
1aaacp
1aaact
b1010001110110011100010101100100 aaacv
b11101 aaacx
b11001 aaadc
b11011 aaadd

#24500
0aaacp

#25000
b11010001100100010001101001011 aaaaf
1aaabm
1aaacp
b0 aaacu
b11010001100100010001101001011 aaacv
b101 aaacx
b1011000000010111101011110001111 aaacz
0aaada
b100 aaadc
b10100 aaadd

#25500
0aaacp

#26000
b1111111111111111100101000010001 aaaai
1aaacp
0aaacr
0aaact
b1111111111111111100101000010001 aaacv
b1000 aaacx
b1111111111111111100101000010001 aaacy
b11000100110100111011010011011 aaacz
1aaada
b1000 aaadc
b11100 aaadd

#26500
0aaacp

#27000
b1001010000100001000111110010 aaabb
1aaacp
1aaacr
1aaact
b1 aaacu
b1001010000100001000111110010 aaacv
b11011 aaacx
b0 aaacy
b101101000111010101101011101001 aaacz
0aaada
b1 aaadc
b1011 aaadd

#27500
0aaacp

#28000
b1110100110111100000111011100011 aaaan
1aaacp
0aaacr
b10 aaacu
b1110100110111100000111011100011 aaacv
b1101 aaacx
b0 aaacz
b10 aaadc
b1111 aaadd

#28500
0aaacp

#29000
b1100110000010000000101101111 aaaao
1aaacp
0aaact
b1 aaacu
b1100110000010000000101101111 aaacv
b1110 aaacx
1aaada
b11001 aaadc
b10111 aaadd

#29500
0aaacp

#30000
b1011111101110000011011100001011 aaaat
0aaabk
1aaacp
1aaacr
b11 aaacu
b1011111101110000011011100001011 aaacv
b10011 aaacx
b101101000111010101101011101001 aaacy
0aaadb
b1011 aaadc
b100 aaadd

#30500
0aaacp

#31000
b1101010010111110111000000101001 aaaap
1aaacp
0aaacr
1aaact
b110 aaacu
b1101010010111110111000000101001 aaacv
b1111 aaacx
b0 aaacy
b1101010010111110111000000101001 aaacz
1aaadb
b10010 aaadc
b1111 aaadd

#31500
0aaacp

#32000
b10100111111001110011101001110 aaaao
1aaacp
0aaact
b100 aaacu
b10100111111001110011101001110 aaacv
b1110 aaacx
b1000010110000101001011010111101 aaacy
b1110100110111100000111011100011 aaacz
b10001 aaadc
b1101 aaadd

#32500
0aaacp

#33000
b11101010101000101110001001101 aaaav
1aaacp
1aaacr
b110 aaacu
b11101010101000101110001001101 aaacv
b10101 aaacx
b0 aaacy
b0 aaacz
b0 aaadc
b1100 aaadd

#33500
0aaacp

#34000
b11100101000001100010111111010 aaabd
1aaacp
1aaact
b11 aaacu
b11100101000001100010111111010 aaacv
b11101 aaacx
b11101010101000101110001001101 aaacz
b10010 aaadc
b10101 aaadd

#34500
0aaacp

#35000
b1110011111111111101000101011 aaaac
1aaabj
1aaacp
0aaacr
b0 aaacu
b1110011111111111101000101011 aaacv
b10 aaacx
b1110100110111100000111011100011 aaacz
0aaada
b110 aaadc
b1101 aaadd

#35500
0aaacp

#36000
b110111100111100010000110110101 aaaba
1aaacp
1aaacr
0aaact
b110111100111100010000110110101 aaacv
b11010 aaacx
b11101010101000101110001001101 aaacy
b1111111111111111100101000010001 aaacz
1aaada
b10101 aaadc
b1000 aaadd

#36500
0aaacp

#37000
b111101110100010101000010010100 aaaao
0aaabm
1aaacp
b101 aaacu
b111101110100010101000010010100 aaacv
b1110 aaacx
b1101011011010000000011110011010 aaacy
b0 aaacz
b100000 aaadc
b10111 aaadd

#37500
0aaacp

#38000
b110100111111010110101101001111 aaaah
1aaacp
0aaacr
1aaact
b0 aaacu
b110100111111010110101101001111 aaacv
b111 aaacx
b0 aaacy
0aaada
b1 aaadc

#38500
0aaacp

#39000
b1010000010001101011010110101001 aaaat
1aaacp
0aaact
b11 aaacu
b1010000010001101011010110101001 aaacv
b10011 aaacx
b1101010010111110111000000101001 aaacy
b1110100110111100000111011100011 aaacz
1aaada
b1111 aaadc
b1101 aaadd

#39500
0aaacp

#40000
b1010011100110011100011001010100 aaaac
0aaabj
1aaacp
b10 aaacu
b1010011100110011100011001010100 aaacv
b10 aaacx
b0 aaacy
b1110111010001100101111100000001 aaacz
0aaada
b11 aaadc
b1001 aaadd

#40500
0aaacp

#41000
b1011111111111010111000011000 aaaap
1aaacp
b0 aaacu
b1011111111111010111000011000 aaacv
b1111 aaacx
b110111100111100010000110110101 aaacz
1aaada
b0 aaadc
b11010 aaadd

#41500
0aaacp

#42000
b1100011010011000101011101001100 aaaan
1aaacp
1aaacr
1aaact
b11 aaacu
b1100011010011000101011101001100 aaacv
b1101 aaacx
b1001010000100001000111110010 aaacy
b11100101000001100010111111010 aaacz
b11011 aaadc
b11101 aaadd

#42500
0aaacp

#43000
b101010011011011110100000000110 aaabf
1aaacp
0aaacr
b10 aaacu
b101010011011011110100000000110 aaacv
b11111 aaacx
b0 aaacy
b0 aaacz
b10110 aaadc
b1100 aaadd

#43500
0aaacp

#44000
b1111100000011001111001111111 aaaab
1aaabi
1aaacp
1aaacr
0aaact
b0 aaacu
b1111100000011001111001111111 aaacv
b1 aaacx
b110111100111100010000110110101 aaacz
0aaada
b10 aaadc
b11010 aaadd

#44500
0aaacp

#45000
b11010000011011101111000110010 aaaau
1aaacp
0aaacr
b11 aaacu
b11010000011011101111000110010 aaacv
b10100 aaacx
b11000100110100111011010011011 aaacy
1aaada
b11100 aaadc

#45500
0aaacp

#46000
b111111110000110010111000100000 aaaam
1aaacp
1aaacr
b100 aaacu
b111111110000110010111000100000 aaacv
b1100 aaacx
b1001010000100001000111110010 aaacy
b0 aaacz
b11011 aaadc
b10111 aaadd

#46500
0aaacp

#47000
b1101100101010100010001100000100 aaabg
1aaacp
0aaacr
1aaact
b10 aaacu
b1101100101010100010001100000100 aaacv
b100000 aaacx
b111111110000110010111000100000 aaacy
b1100011010011000101011101001100 aaacz
b1100 aaadc
b1101 aaadd

#47500
0aaacp

#48000
b1001101001100101010101110000110 aaaba
1aaacp
1aaacr
b0 aaacu
b1001101001100101010101110000110 aaacv
b11010 aaacx
b101101000111010101101011101001 aaacy
b0 aaacz
0aaadb
b1011 aaadc
b110 aaadd

#48500
0aaacp

#49000
b1111100001010110100001100111 aaaan
1aaacp
b110 aaacu
b1111100001010110100001100111 aaacv
b1101 aaacx
b1001010000100001000111110010 aaacy
b1111100001010110100001100111 aaacz
1aaadb
b11011 aaadc
b1101 aaadd

#49500
0aaacp

#50000
b1101011000111010010110000010100 aaaat
1aaacp
0aaact
b11 aaacu
b1101011000111010010110000010100 aaacv
b10011 aaacx
b101010011011011110100000000110 aaacy
b111101110100010101000010010100 aaacz
b11111 aaadc
b1110 aaadd

#50500
0aaacp

#51000
b100001001000111101010111110010 aaaav
1aaacp
0aaacr
b100001001000111101010111110010 aaacv
b10101 aaacx
b11010000011011101111000110010 aaacy
b1111111111111111100101000010001 aaacz
b10100 aaadc
b1000 aaadd

#51500
0aaacp

#52000
b101010011010101101100110111110 aaaat
1aaacp
b101 aaacu
b101010011010101101100110111110 aaacv
b10011 aaacx
b111101110100010101000010010100 aaacy
b1101100101010100010001100000100 aaacz
b1110 aaadc
b100000 aaadd

#52500
0aaacp

#53000
b1100001100000011110111101101001 aaabc
1aaacp
b10 aaacu
b1100001100000011110111101101001 aaacv
b11100 aaacx
b0 aaacy
b0 aaacz
0aaada
0aaadb
b101 aaadc
b10 aaadd

#53500
0aaacp

#54000
b1000111010111100010010101101010 aaaaf
1aaabm
1aaacp
b11 aaacu
b1000111010111100010010101101010 aaacv
b101 aaacx
b11010000011011101111000110010 aaacz
1aaadb
b10100 aaadd

#54500
0aaacp

#55000
b1010001101111110110101101001000 aaaas
1aaacp
b110 aaacu
b1010001101111110110101101001000 aaacv
b10010 aaacx
b1010001101111110110101101001000 aaacy
b0 aaacz
1aaada
b10010 aaadc
b10111 aaadd

#55500
0aaacp

#56000
b1100100010000101001010110011001 aaaax
1aaacp
1aaact
b0 aaacu
b1100100010000101001010110011001 aaacv
b10111 aaacx
b0 aaacy
b1111100000011001111001111111 aaacz
b10111 aaadc
b1 aaadd

#56500
0aaacp

#57000
b111001011111000100011010111100 aaabg
1aaacp
1aaacr
b100 aaacu
b111001011111000100011010111100 aaacv
b100000 aaacx
b1100001100000011110111101101001 aaacz
b10110 aaadc
b11100 aaadd

#57500
0aaacp

#58000
b1100101111100101101111101001 aaaaz
1aaacp
0aaacr
b101 aaacu
b1100101111100101101111101001 aaacv
b11001 aaacx
b1100101111100101101111101001 aaacz
0aaada
b10 aaadc
b11001 aaadd

#58500
0aaacp

#59000
b110110101101000101010110010 aaaah
1aaacp
0aaact
b100 aaacu
b110110101101000101010110010 aaacv
b111 aaacx
b101010011010101101100110111110 aaacy
b110110101101000101010110010 aaacz
1aaada
b10011 aaadc
b111 aaadd

#59500
0aaacp

#60000
b1001010000100001011010011101000 aaaak
1aaacp
b0 aaacu
b1001010000100001011010011101000 aaacv
b1010 aaacx
b1001010000100001000111110010 aaacy
b1110111010001100101111100000001 aaacz
b11011 aaadc
b1001 aaadd

#60500
0aaacp

#61000
b10101101111001010101110101000 aaaak
1aaacp
1aaacr
1aaact
b1 aaacu
b10101101111001010101110101000 aaacv
b1110111010001100101111100000001 aaacy
b100001001000111101010111110010 aaacz
b1001 aaadc
b10101 aaadd

#61500
0aaacp

#62000
b1000111110001011011100111111 aaaas
1aaacp
0aaacr
b10 aaacu
b1000111110001011011100111111 aaacv
b10010 aaacx
b0 aaacy
b1100100010000101001010110011001 aaacz
0aaada
b11 aaadc
b10111 aaadd

#62500
0aaacp

#63000
1aaacp
1aaacr
b100 aaacu
b100101001110011101111110100101 aaacv
b0 aaacx
b1111111111111111100101000010001 aaacz
b110 aaadc
b1000 aaadd

#63500
0aaacp

#64000
b100000111101001011110110101101 aaaac
1aaabj
1aaacp
0aaacr
b101 aaacu
b100000111101001011110110101101 aaacv
b10 aaacx
b11011101000000010011011111010 aaacy
b101010011011011110100000000110 aaacz
1aaada
b11110 aaadc
b11111 aaadd

#64500
0aaacp

#65000
b1001110011001000111111111100100 aaaaw
1aaacp
1aaacr
0aaact
b100 aaacu
b1001110011001000111111111100100 aaacv
b10110 aaacx
b10101101111001010101110101000 aaacy
b1111111111111111100101000010001 aaacz
b1010 aaadc
b1000 aaadd

#65500
0aaacp

#66000
b101000011001110111101101111100 aaaas
1aaacp
0aaacr
1aaact
b10 aaacu
b101000011001110111101101111100 aaacv
b10010 aaacx
b1111111111111111100101000010001 aaacy
b1011111111111010111000011000 aaacz
b1000 aaadc
b1111 aaadd

#66500
0aaacp

#67000
b1110111011011110001100110 aaaah
1aaacp
b1 aaacu
b1110111011011110001100110 aaacv
b111 aaacx
b101101000111010101101011101001 aaacy
b111101110100010101000010010100 aaacz
b1011 aaadc
b1110 aaadd

#67500
0aaacp

#68000
b1000110101100100100110110111100 aaaal
1aaacp
1aaacr
b10 aaacu
b1000110101100100100110110111100 aaacv
b1011 aaacx
b10101101111001010101110101000 aaacz
b1010 aaadd

#68500
0aaacp

#69000
b110001001100001110101111 aaaaz
1aaacp
b101 aaacu
b110001001100001110101111 aaacv
b11001 aaacx
b111111011010101011011000001111 aaacy
b111001011111000100011010111100 aaacz
b11000 aaadc
b100000 aaadd

#69500
0aaacp

#70000
b101110010110110001001010111000 aaaaj
1aaacp
0aaact
b11 aaacu
b101110010110110001001010111000 aaacv
b1001 aaacx
b111111110000110010111000100000 aaacy
b11010000011011101111000110010 aaacz
b1100 aaadc
b10100 aaadd

#70500
0aaacp

#71000
b1010111110001011011101101001111 aaaar
1aaacp
b100 aaacu
b1010111110001011011101101001111 aaacv
b10001 aaacx
b1100001100000011110111101101001 aaacy
b11100101000001100010111111010 aaacz
b11100 aaadc
b11101 aaadd

#71500
0aaacp

#72000
b100111000100100001000011000111 aaabe
1aaacp
0aaacr
1aaact
b101 aaacu
b100111000100100001000011000111 aaacv
b11110 aaacx
b11100101000001100010111111010 aaacy
b1100100010000101001010110011001 aaacz
b11101 aaadc
b10111 aaadd

#72500
0aaacp

#73000
b1110000100000110110000110010110 aaaap
1aaacp
b0 aaacu
b1110000100000110110000110010110 aaacv
b1111 aaacx
b100001001000111101010111110010 aaacy
b111101110100010101000010010100 aaacz
b10101 aaadc
b1110 aaadd

#73500
0aaacp

#74000
b1101010000110110100010111100101 aaaar
1aaacp
b1 aaacu
b1101010000110110100010111100101 aaacv
b10001 aaacx
b1010111110001011011101101001111 aaacy
b111111110000110010111000100000 aaacz
b10001 aaadc
b1100 aaadd

#74500
0aaacp

#75000
1aaacp
0aaact
b0 aaacu
b1000110000100010001101110100101 aaacv
b0 aaacx
b11010000011011101111000110010 aaacy
b1110000100000110110000110010110 aaacz
b10100 aaadc
b1111 aaadd

#75500
0aaacp

#76000
b111111010010001011100110000010 aaaas
1aaacp
1aaact
b101 aaacu
b111111010010001011100110000010 aaacv
b10010 aaacx
b1111111111111111100101000010001 aaacy
b100001001000111101010111110010 aaacz
b1000 aaadc
b10101 aaadd

#76500
0aaacp

#77000
b1111111011001011111110100010110 aaaam
0aaabj
1aaacp
0aaact
b10 aaacu
b1111111011001011111110100010110 aaacv
b1100 aaacx
b1100100010000101001010110011001 aaacy
b1000110101100100100110110111100 aaacz
b10111 aaadc
b1011 aaadd

#77500
0aaacp

#78000
b1100011010000010000001010110100 aaaav
1aaacp
1aaact
b101 aaacu
b1100011010000010000001010110100 aaacv
b10101 aaacx
b100111000100100001000011000111 aaacy
b100001001000111101010111110010 aaacz
b11110 aaadc
b10101 aaadd

#78500
0aaacp

#79000
b1101110101110110001111100101010 aaabd
1aaacp
1aaacr
b1 aaacu
b1101110101110110001111100101010 aaacv
b11101 aaacx
b1100001100000011110111101101001 aaacy
b101110010110110001001010111000 aaacz
b11100 aaadc
b1001 aaadd

#79500
0aaacp

#80000
b1000100111011110110101110000000 aaaaw
1aaacp
0aaacr
b11 aaacu
b1000100111011110110101110000000 aaacv
b10110 aaacx
b10101101111001010101110101000 aaacy
b1100001100000011110111101101001 aaacz
b1010 aaadc
b11100 aaadd

#80500
0aaacp

#81000
b1000001111011010010000011010111 aaabe
1aaacp
b0 aaacu
b1000001111011010010000011010111 aaacv
b11110 aaacx
b11010000011011101111000110010 aaacy
b11010000011011101111000110010 aaacz
b10100 aaadc
b10100 aaadd

#81500
0aaacp

#82000
b1010001100111101011100101001100 aaaax
1aaacp
1aaacr
0aaact
b110 aaacu
b1010001100111101011100101001100 aaacv
b10111 aaacx
b111001011111000100011010111100 aaacy
b1101010000110110100010111100101 aaacz
b100000 aaadc
b10001 aaadd

#82500
0aaacp

#83000
b1011011110110100011010111010100 aaaab
1aaacp
0aaacr
b0 aaacu
b1011011110110100011010111010100 aaacv
b1 aaacx
b1111100001010110100001100111 aaacy
b1110111011011110001100110 aaacz
b1101 aaadc
b111 aaadd

#83500
0aaacp

#84000
b111100001000011111001000101 aaaai
1aaacp
1aaacr
b100 aaacu
b111100001000011111001000101 aaacv
b1000 aaacx
b1000100111011110110101110000000 aaacy
b1000100111011110110101110000000 aaacz
b10110 aaadc
b10110 aaadd

#84500
0aaacp

#85000
b1110110001101011010101000101010 aaaat
1aaacp
1aaact
b101 aaacu
b1110110001101011010101000101010 aaacv
b10011 aaacx
b0 aaacy
b111101110100010101000010010100 aaacz
b0 aaadc
b1110 aaadd

#85500
0aaacp

#86000
b1110011000101010100000100010101 aaaas
1aaacp
0aaacr
b110 aaacu
b1110011000101010100000100010101 aaacv
b10010 aaacx
b1000100111011110110101110000000 aaacy
b1100001100000011110111101101001 aaacz
b10110 aaadc
b11100 aaadd

#86500
0aaacp

#87000
b111011101010110110100110011110 aaaau
1aaacp
1aaacr
0aaact
b0 aaacu
b111011101010110110100110011110 aaacv
b10100 aaacx
b1000000100111000011001000001 aaacy
b1111111011001011111110100010110 aaacz
b10000 aaadc
b1100 aaadd

#87500
0aaacp

#88000
b1110011110011111110000101100101 aaaah
1aaacp
0aaacr
1aaact
b100 aaacu
b1110011110011111110000101100101 aaacv
b111 aaacx
b0 aaacz
0aaadb
b10 aaadd

#88500
0aaacp

#89000
b1000110111110000010100001001011 aaaac
1aaabj
1aaacp
b11 aaacu
b1000110111110000010100001001011 aaacv
b10 aaacx
b1110011110011111110000101100101 aaacy
b1011011110110100011010111010100 aaacz
1aaadb
b111 aaadc
b1 aaadd

#89500
0aaacp

#90000
b11010111101111111000011101010 aaaan
1aaacp
b1 aaacu
b11010111101111111000011101010 aaacv
b1101 aaacx
b0 aaacy
b110001001100001110101111 aaacz
b0 aaadc
b11001 aaadd

#90500
0aaacp

#91000
b1001011110111010101001111111101 aaaal
1aaacp
b110 aaacu
b1001011110111010101001111111101 aaacv
b1011 aaacx
b1000111010111100010010101101010 aaacz
b101 aaadd

#91500
0aaacp

#92000
b10011010111010101011101001 aaaab
0aaabi
1aaacp
0aaact
b1 aaacu
b10011010111010101011101001 aaacv
b1 aaacx
b1110000100000110110000110010110 aaacy
b10101101111001010101110101000 aaacz
b1111 aaadc
b1010 aaadd

#92500
0aaacp

#93000
b1110111011101010111100101111100 aaaah
1aaacp
1aaact
b0 aaacu
b1110111011101010111100101111100 aaacv
b111 aaacx
b111011101010110110100110011110 aaacy
b111001011111000100011010111100 aaacz
b10100 aaadc
b100000 aaadd

#93500
0aaacp

#94000
b10011111000100001000000000010 aaabf
1aaacp
b100 aaacu
b10011111000100001000000000010 aaacv
b11111 aaacx
b1001101001100101010101110000110 aaacy
b0 aaacz
b11010 aaadc
b0 aaadd

#94500
0aaacp

#95000
b100010111100010011110111110011 aaaae
1aaabl
1aaacp
1aaacr
0aaact
b11 aaacu
b100010111100010011110111110011 aaacv
b100 aaacx
b0 aaacy
b1111111011001011111110100010110 aaacz
0aaada
b11 aaadc
b1100 aaadd

#95500
0aaacp

#96000
1aaacp
b0 aaacu
b10111100011110111101101100111 aaacv
b0 aaacx
b101110010110110001001010111000 aaacy
b1110011000101010100000100010101 aaacz
1aaada
b1001 aaadc
b10010 aaadd

#96500
0aaacp

#97000
b11101001000000110101110001110 aaaaf
1aaacp
0aaacr
b1 aaacu
b11101001000000110101110001110 aaacv
b101 aaacx
b0 aaacy
0aaada
b110 aaadc

#97500
0aaacp

#98000
b1110101001001011111001010111100 aaabe
0aaabl
1aaacp
1aaacr
b100 aaacu
b1110101001001011111001010111100 aaacv
b11110 aaacx
b1110011000101010100000100010101 aaacy
b1101010000110110100010111100101 aaacz
1aaada
b10010 aaadc
b10001 aaadd

#98500
0aaacp

#99000
b100101100001101101011000001110 aaaao
1aaacp
1aaact
b100101100001101101011000001110 aaacv
b1110 aaacx
b0 aaacy
b0 aaacz
0aaadb
b0 aaadc
b1 aaadd

#99500
0aaacp

#100000
b1101000001011011111111011010110 aaaaz
1aaacp
0aaacr
0aaact
b1 aaacu
b1101000001011011111111011010110 aaacv
b11001 aaacx
b1110101001001011111001010111100 aaacy
b1000110111110000010100001001011 aaacz
1aaadb
b11110 aaadc
b10 aaadd

#100500
0aaacp

#101000
b1010100101101011001011000100001 aaaaq
1aaacp
1aaact
b0 aaacu
b1010100101101011001011000100001 aaacv
b10000 aaacx
b1010001100111101011100101001100 aaacy
b1001010000100001000111110010 aaacz
b10111 aaadc
b11011 aaadd

#101500
0aaacp

#102000
b1100010001000110100001101100011 aaaaj
1aaacp
1aaacr
b11 aaacu
b1100010001000110100001101100011 aaacv
b1001 aaacx
b111001011111000100011010111100 aaacy
b1100011010000010000001010110100 aaacz
b100000 aaadc
b10101 aaadd

#102500
0aaacp

#103000
b100110001000101010110100001100 aaaba
1aaacp
0aaacr
0aaact
b110 aaacu
b100110001000101010110100001100 aaacv
b11010 aaacx
b1110101001001011111001010111100 aaacy
b1001101001100101010101110000110 aaacz
b11110 aaadc
b11010 aaadd

#103500
0aaacp

#104000
b11111010000000100001100000001 aaabe
1aaacp
1aaacr
b1 aaacu
b11111010000000100001100000001 aaacv
b11110 aaacx
b1000100111011110110101110000000 aaacy
b1101110101110110001111100101010 aaacz
b10110 aaadc
b11101 aaadd

#104500
0aaacp

#105000
b1110110011011011001100011000010 aaabd
1aaacp
1aaact
b101 aaacu
b1110110011011011001100011000010 aaacv
b11101 aaacx
b11010111101111111000011101010 aaacy
b1001010000100001000111110010 aaacz
b1101 aaadc
b11011 aaadd

#105500
0aaacp

