CORE/DEC/tf.vcd
$date
     Jan 31, 2022       17:27:00
$end

$version
 SystemC 2.3.3-Accellera --- Jan 11 2022 05:11:53
$end

$timescale
     1 ps
$end

$scope module SystemC $end
$var wire    1  aaabh  RESET_N       $end
$var wire    1  aaabi  CLK       $end
$var wire    1  aaabj  READ_PC_VALID       $end
$var wire    1  aaabk  INC_PC_VALID       $end
$var wire   32  aaabl  READ_PC [31:0]  $end
$var wire    1  aaabm  INVAL_DEST       $end
$var wire    6  aaabn  adr_dest [5:0]  $end
$var wire   32  aaabo  WADR1_DATA [31:0]  $end
$var wire    6  aaabp  WADR1 [5:0]  $end
$var wire   32  aaabq  RADR2_DATA [31:0]  $end
$var wire   32  aaabr  RADR1_DATA [31:0]  $end
$var wire    1  aaabs  RADR2_VALID       $end
$var wire    1  aaabt  RADR1_VALID       $end
$var wire    6  aaabu  RADR2 [5:0]  $end
$var wire    6  aaabv  RADR1 [5:0]  $end
$scope module reg_inst $end
$var wire   32  aaaaa  REG0 [31:0]  $end
$var wire   32  aaaab  REG1 [31:0]  $end
$var wire   32  aaaac  REG2 [31:0]  $end
$var wire   32  aaaad  REG3 [31:0]  $end
$var wire   32  aaaae  REG4 [31:0]  $end
$var wire   32  aaaaf  REG5 [31:0]  $end
$var wire   32  aaaag  REG6 [31:0]  $end
$var wire   32  aaaah  REG7 [31:0]  $end
$var wire   32  aaaai  REG8 [31:0]  $end
$var wire   32  aaaaj  REG9 [31:0]  $end
$var wire   32  aaaak  REG10 [31:0]  $end
$var wire   32  aaaal  REG11 [31:0]  $end
$var wire   32  aaaam  REG12 [31:0]  $end
$var wire   32  aaaan  REG13 [31:0]  $end
$var wire   32  aaaao  REG14 [31:0]  $end
$var wire   32  aaaap  REG15 [31:0]  $end
$var wire   32  aaaaq  REG16 [31:0]  $end
$var wire   32  aaaar  REG17 [31:0]  $end
$var wire   32  aaaas  REG18 [31:0]  $end
$var wire   32  aaaat  REG19 [31:0]  $end
$var wire   32  aaaau  REG20 [31:0]  $end
$var wire   32  aaaav  REG21 [31:0]  $end
$var wire   32  aaaaw  REG22 [31:0]  $end
$var wire   32  aaaax  REG23 [31:0]  $end
$var wire   32  aaaay  REG24 [31:0]  $end
$var wire   32  aaaaz  REG25 [31:0]  $end
$var wire   32  aaaba  REG26 [31:0]  $end
$var wire   32  aaabb  REG27 [31:0]  $end
$var wire   32  aaabc  REG28 [31:0]  $end
$var wire   32  aaabd  REG29 [31:0]  $end
$var wire   32  aaabe  REG30 [31:0]  $end
$var wire   32  aaabf  REG31 [31:0]  $end
$var wire   32  aaabg  REG32 [31:0]  $end
$upscope $end
$upscope $end
$enddefinitions  $end

$comment
All initial values are dumped below at time 0 sec = 0 timescale units.
$end

$dumpvars
b0 aaaaa
b0 aaaab
b0 aaaac
b0 aaaad
b0 aaaae
b0 aaaaf
b0 aaaag
b0 aaaah
b0 aaaai
b0 aaaaj
b0 aaaak
b0 aaaal
b0 aaaam
b0 aaaan
b0 aaaao
b0 aaaap
b0 aaaaq
b0 aaaar
b0 aaaas
b0 aaaat
b0 aaaau
b0 aaaav
b0 aaaaw
b0 aaaax
b0 aaaay
b0 aaaaz
b0 aaaba
b0 aaabb
b0 aaabc
b0 aaabd
b0 aaabe
b0 aaabf
b0 aaabg
1aaabh
1aaabi
0aaabj
0aaabk
b0 aaabl
0aaabm
b0 aaabn
b0 aaabo
b0 aaabp
b0 aaabq
b0 aaabr
1aaabs
1aaabt
b0 aaabu
b0 aaabv
$end

#500
0aaabi

#1000
1aaabi

#1500
0aaabi

#2000
1aaabi

#2500
0aaabi

#3000
0aaabh
1aaabi
1aaabk
b11 aaabn
b1100110001100110100100001110011 aaabo
b10 aaabp
b100 aaabu
b1 aaabv

#3500
0aaabi

#4000
1aaabi
1aaabm
b110 aaabn
b111101000110110101100010111010 aaabo
b11 aaabp
b1 aaabu
b10 aaabv

#4500
0aaabi

#5000
b1011011110100000110001011000010 aaaad
1aaabi
1aaabj
0aaabk
b10 aaabn
b1011011110100000110001011000010 aaabo
b0 aaabu
b110 aaabv

#5500
0aaabi

#6000
b10100000011100000111101110110 aaaac
1aaabi
b101 aaabn
b10100000011100000111101110110 aaabo
b10 aaabp
0aaabs
b101 aaabu
b0 aaabv

#6500
0aaabi

#7000
b1101011011010000000011110011010 aaaaf
1aaabi
b1101011011010000000011110011010 aaabo
b101 aaabp
b1 aaabv

#7500
0aaabi

#8000
1aaabi
b1 aaabn
b100101011100010011000010100011 aaabo
b0 aaabp
b10100000011100000111101110110 aaabr
b1 aaabu
b10 aaabv

#8500
0aaabi

#9000
b101101000111010101101011101001 aaaag
1aaabi
b10 aaabn
b101101000111010101101011101001 aaabo
b110 aaabp
b1101011011010000000011110011010 aaabr
b0 aaabu
b101 aaabv

#9500
0aaabi

#10000
b11000100110100111011010011011 aaaaf
1aaabi
b1 aaabn
b11000100110100111011010011011 aaabo
b101 aaabp
b0 aaabr
0aaabt
b11 aaabu
b1 aaabv

#10500
0aaabi

#11000
b1000000100111000011001000001 aaaab
1aaabi
1aaabk
0aaabm
b110 aaabn
b1000000100111000011001000001 aaabo
b1 aaabp
b100 aaabu
b100 aaabv

#11500
0aaabi

#12000
b110000000001101100100000111110 aaaaf
1aaabi
1aaabm
b11 aaabn
b110000000001101100100000111110 aaabo
b101 aaabp
b11 aaabu
b101 aaabv

#12500
0aaabi

#13000
b1110111010001100101111100000001 aaaac
1aaabi
0aaabk
0aaabm
b10 aaabn
b1110111010001100101111100000001 aaabo
b10 aaabp

#13500
0aaabi

#14000
1aaabi
b101 aaabn
b1011000000010111101011110001111 aaabo
b0 aaabp
b10 aaabu
b0 aaabv

#14500
0aaabi

#15000
1aaabi
b1 aaabn
b1110010010110100000011011111011 aaabo
b100 aaabu
b100 aaabv

#15500
0aaabi

#16000
1aaabi
b100 aaabn
b111000010000110111111111011011 aaabo
1aaabt
b101 aaabu

#16500
0aaabi

#17000
b11011101000000010011011111010 aaaae
1aaabi
1aaabm
b0 aaabn
b11011101000000010011011111010 aaabo
b100 aaabp
b0 aaabu

#17500
0aaabi

#18000
b1001111010011101111000000000101 aaaag
1aaabi
0aaabm
b110 aaabn
b1001111010011101111000000000101 aaabo
b110 aaabp
b110000000001101100100000111110 aaabr
b101 aaabv

#18500
0aaabi

#19000
b100011010110111010100001100001 aaaag
1aaabi
1aaabk
b100011010110111010100001100001 aaabo
b11011101000000010011011111010 aaabr
b10 aaabu
b100 aaabv

#19500
0aaabi

#20000
b111111011010101011011000001111 aaaad
1aaabi
1aaabm
b11 aaabn
b111111011010101011011000001111 aaabo
b11 aaabp
b1000000100111000011001000001 aaabr
b101 aaabu
b1 aaabv

#20500
0aaabi

#21000
b101111001100000101110111101111 aaaab
1aaabi
b101111001100000101110111101111 aaabo
b1 aaabp
b0 aaabr
0aaabt
b11 aaabv

#21500
0aaabi

#22000
1aaabi
0aaabm
b100 aaabn
b10000000011111000111111001010 aaabo
b0 aaabp
b1 aaabu
b101 aaabv

#22500
0aaabi

#23000
b1000010110000101001011010111101 aaaae
1aaabi
b1000010110000101001011010111101 aaabo
b100 aaabp
b11 aaabu
b0 aaabv

#23500
0aaabi

#24000
b1010001110110011100010101100100 aaaad
1aaabi
1aaabm
b1010001110110011100010101100100 aaabo
b11 aaabp
b11 aaabv

#24500
0aaabi

#25000
b11010001100100010001101001011 aaaag
1aaabi
b0 aaabn
b11010001100100010001101001011 aaabo
b110 aaabp
b101 aaabu
b100 aaabv

#25500
0aaabi

#26000
1aaabi
0aaabk
0aaabm
b1111111111111111100101000010001 aaabo
b0 aaabp
b10 aaabu
b1 aaabv

#26500
0aaabi

#27000
b1001010000100001000111110010 aaaae
1aaabi
1aaabk
1aaabm
b1 aaabn
b1001010000100001000111110010 aaabo
b100 aaabp
b101 aaabv

#27500
0aaabi

#28000
b1110100110111100000111011100011 aaaab
1aaabi
0aaabk
b10 aaabn
b1110100110111100000111011100011 aaabo
b1 aaabp
b11 aaabu
b0 aaabv

#28500
0aaabi

#29000
b1100110000010000000101101111 aaaac
1aaabi
0aaabm
b1 aaabn
b1100110000010000000101101111 aaabo
b10 aaabp
b110 aaabu

#29500
0aaabi

#30000
b1011111101110000011011100001011 aaaae
1aaabi
1aaabk
b11 aaabn
b1011111101110000011011100001011 aaabo
b100 aaabp
b0 aaabu
b10 aaabv

#30500
0aaabi

#31000
b1101010010111110111000000101001 aaaae
1aaabi
0aaabk
1aaabm
b110 aaabn
b1101010010111110111000000101001 aaabo
b11 aaabu
b101 aaabv

#31500
0aaabi

#32000
b10100111111001110011101001110 aaaac
1aaabi
0aaabm
b100 aaabn
b10100111111001110011101001110 aaabo
b10 aaabp
b110 aaabu
b10 aaabv

#32500
0aaabi

#33000
b11101010101000101110001001101 aaaag
1aaabi
1aaabk
b110 aaabn
b11101010101000101110001001101 aaabo
b110 aaabp
b100 aaabu
b0 aaabv

#33500
0aaabi

#34000
b11100101000001100010111111010 aaaab
1aaabi
1aaabm
b11 aaabn
b11100101000001100010111111010 aaabo
b1 aaabp
b110 aaabu

#34500
0aaabi

#35000
b1110011111111111101000101011 aaaae
1aaabi
0aaabk
b0 aaabn
b1110011111111111101000101011 aaabo
b100 aaabp
b110 aaabv

#35500
0aaabi

#36000
b110111100111100010000110110101 aaaag
1aaabi
1aaabk
0aaabm
b110111100111100010000110110101 aaabo
b110 aaabp
b100 aaabu
b101 aaabv

#36500
0aaabi

#37000
b111101110100010101000010010100 aaaab
1aaabi
b101 aaabn
b111101110100010101000010010100 aaabo
b1 aaabp
b10 aaabu
b100 aaabv

#37500
0aaabi

#38000
b110100111111010110101101001111 aaaag
1aaabi
0aaabk
1aaabm
b0 aaabn
b110100111111010110101101001111 aaabo
b110 aaabp
b101 aaabu
b1 aaabv

#38500
0aaabi

#39000
1aaabi
0aaabm
b11 aaabn
b1010000010001101011010110101001 aaabo
b0 aaabp
b10 aaabu

#39500
0aaabi

#40000
b1010011100110011100011001010100 aaaae
1aaabi
b10 aaabn
b1010011100110011100011001010100 aaabo
b100 aaabp
b11 aaabu
b0 aaabv

#40500
0aaabi

#41000
b1011111111111010111000011000 aaaab
1aaabi
b0 aaabn
b1011111111111010111000011000 aaabo
b1 aaabp
b10 aaabu

#41500
0aaabi

#42000
b1100011010011000101011101001100 aaaad
1aaabi
1aaabk
1aaabm
b11 aaabn
b1100011010011000101011101001100 aaabo
b11 aaabp
b101 aaabu
b1 aaabv

#42500
0aaabi

#43000
b101010011011011110100000000110 aaaae
1aaabi
0aaabk
b10 aaabn
b101010011011011110100000000110 aaabo
b100 aaabp
b1 aaabu
b101 aaabv

#43500
0aaabi

#44000
b1111100000011001111001111111 aaaaf
1aaabi
1aaabk
0aaabm
b0 aaabn
b1111100000011001111001111111 aaabo
b101 aaabp
b101 aaabu

#44500
0aaabi

#45000
b11010000011011101111000110010 aaaae
1aaabi
0aaabk
b11 aaabn
b11010000011011101111000110010 aaabo
b100 aaabp
b10 aaabu

#45500
0aaabi

#46000
b111111110000110010111000100000 aaaac
1aaabi
1aaabk
b100 aaabn
b111111110000110010111000100000 aaabo
b10 aaabp
b11010000011011101111000110010 aaabr
1aaabt
b11 aaabu
b100 aaabv

#46500
0aaabi

#47000
1aaabi
0aaabk
1aaabm
b10 aaabn
b1101100101010100010001100000100 aaabo
b0 aaabp
b1011111111111010111000011000 aaabr
b0 aaabu
b1 aaabv

#47500
0aaabi

#48000
b1001101001100101010101110000110 aaaac
1aaabi
1aaabk
b0 aaabn
b1001101001100101010101110000110 aaabo
b10 aaabp
b1111100000011001111001111111 aaabr
b101 aaabu
b101 aaabv

#48500
0aaabi

#49000
b1111100001010110100001100111 aaaae
1aaabi
b110 aaabn
b1111100001010110100001100111 aaabo
b100 aaabp
b0 aaabr
0aaabt
b110 aaabu
b110 aaabv

#49500
0aaabi

#50000
b1101011000111010010110000010100 aaaad
1aaabi
0aaabm
b11 aaabn
b1101011000111010010110000010100 aaabo
b11 aaabp
b10 aaabu
b10 aaabv

#50500
0aaabi

#51000
b100001001000111101010111110010 aaaae
1aaabi
0aaabk
b100001001000111101010111110010 aaabo
b100 aaabp
b0 aaabu
b1 aaabv

#51500
0aaabi

#52000
b101010011010101101100110111110 aaaac
1aaabi
b101 aaabn
b101010011010101101100110111110 aaabo
b10 aaabp
b1111100000011001111001111111 aaabq
1aaabs
b101 aaabu
b0 aaabv

#52500
0aaabi

#53000
b1100001100000011110111101101001 aaaag
1aaabi
b10 aaabn
b1100001100000011110111101101001 aaabo
b110 aaabp
b1101011000111010010110000010100 aaabq
b11 aaabu
b11 aaabv

#53500
0aaabi

#54000
1aaabi
b11 aaabn
b1000111010111100010010101101010 aaabo
b0 aaabp
b1011111111111010111000011000 aaabq
b1 aaabu
b10 aaabv

#54500
0aaabi

#55000
b1010001101111110110101101001000 aaaae
1aaabi
b110 aaabn
b1010001101111110110101101001000 aaabo
b100 aaabp
b100001001000111101010111110010 aaabq
b100 aaabu
b11 aaabv

#55500
0aaabi

#56000
b1100100010000101001010110011001 aaaaf
1aaabi
1aaabm
b0 aaabn
b1100100010000101001010110011001 aaabo
b101 aaabp
b101010011010101101100110111110 aaabq
b10 aaabu
b1 aaabv

#56500
0aaabi

#57000
b111001011111000100011010111100 aaaae
1aaabi
1aaabk
b100 aaabn
b111001011111000100011010111100 aaabo
b100 aaabp
b1100100010000101001010110011001 aaabq
b101 aaabu
b10 aaabv

#57500
0aaabi

#58000
b1100101111100101101111101001 aaaaf
1aaabi
0aaabk
b101 aaabn
b1100101111100101101111101001 aaabo
b101 aaabp
b1100001100000011110111101101001 aaabq
b110 aaabu

#58500
0aaabi

#59000
1aaabi
0aaabm
b100 aaabn
b110110101101000101010110010 aaabo
b0 aaabp
b0 aaabv

#59500
0aaabi

#60000
b1001010000100001011010011101000 aaaac
1aaabi
b0 aaabn
b1001010000100001011010011101000 aaabo
b10 aaabp
b1011111111111010111000011000 aaabq
b1 aaabu

#60500
0aaabi

#61000
b10101101111001010101110101000 aaaad
1aaabi
1aaabk
1aaabm
b1 aaabn
b10101101111001010101110101000 aaabo
b11 aaabp
b0 aaabq
b0 aaabu
b11 aaabv

#61500
0aaabi

#62000
b1000111110001011011100111111 aaaad
1aaabi
0aaabk
b10 aaabn
b1000111110001011011100111111 aaabo
b10101101111001010101110101000 aaabq
b11 aaabu
b100 aaabv

#62500
0aaabi

#63000
b100101001110011101111110100101 aaaae
1aaabi
1aaabk
b100 aaabn
b100101001110011101111110100101 aaabo
b100 aaabp
b1100101111100101101111101001 aaabq
b101 aaabu
b101 aaabv

#63500
0aaabi

#64000
b100000111101001011110110101101 aaaad
1aaabi
0aaabk
b101 aaabn
b100000111101001011110110101101 aaabo
b11 aaabp
b1100001100000011110111101101001 aaabq
b110 aaabu
b10 aaabv

#64500
0aaabi

#65000
1aaabi
1aaabk
0aaabm
b100 aaabn
b1001110011001000111111111100100 aaabo
b0 aaabp
b100000111101001011110110101101 aaabq
b11 aaabu
b11 aaabv

#65500
0aaabi

#66000
1aaabi
0aaabk
1aaabm
b10 aaabn
b101000011001110111101101111100 aaabo
b110 aaabv

#66500
0aaabi

#67000
b1110111011011110001100110 aaaaf
1aaabi
b1 aaabn
b1110111011011110001100110 aaabo
b101 aaabp
b1001010000100001011010011101000 aaabq
b10 aaabu

#67500
0aaabi

#68000
b1000110101100100100110110111100 aaaaf
1aaabi
1aaabk
b10 aaabn
b1000110101100100100110110111100 aaabo
b100000111101001011110110101101 aaabq
b11 aaabu
b101 aaabv

#68500
0aaabi

#69000
b110001001100001110101111 aaaaf
1aaabi
b101 aaabn
b110001001100001110101111 aaabo
b0 aaabq
0aaabs
b101 aaabu
b10 aaabv

#69500
0aaabi

#70000
b101110010110110001001010111000 aaaac
1aaabi
0aaabm
b11 aaabn
b101110010110110001001010111000 aaabo
b10 aaabp
b0 aaabu
b100 aaabv

#70500
0aaabi

#71000
b1010111110001011011101101001111 aaaaf
1aaabi
b100 aaabn
b1010111110001011011101101001111 aaabo
b101 aaabp
b11 aaabu
b0 aaabv

#71500
0aaabi

#72000
b100111000100100001000011000111 aaaag
1aaabi
0aaabk
1aaabm
b101 aaabn
b100111000100100001000011000111 aaabo
b110 aaabp
b101 aaabv

#72500
0aaabi

#73000
b1110000100000110110000110010110 aaaae
1aaabi
b0 aaabn
b1110000100000110110000110010110 aaabo
b100 aaabp
b101 aaabu
b0 aaabv

#73500
0aaabi

#74000
b1101010000110110100010111100101 aaaaf
1aaabi
b1 aaabn
b1101010000110110100010111100101 aaabo
b101 aaabp
b11 aaabu
b11 aaabv

#74500
0aaabi

#75000
b1000110000100010001101110100101 aaaab
1aaabi
0aaabm
b0 aaabn
b1000110000100010001101110100101 aaabo
b1 aaabp
b10 aaabu
b101 aaabv

#75500
0aaabi

#76000
b111111010010001011100110000010 aaaaf
1aaabi
1aaabm
b101 aaabn
b111111010010001011100110000010 aaabo
b101 aaabp
b11 aaabv

#76500
0aaabi

#77000
1aaabi
0aaabm
b10 aaabn
b1111111011001011111110100010110 aaabo
b0 aaabp
b1 aaabu
b100 aaabv

#77500
0aaabi

#78000
b1100011010000010000001010110100 aaaac
1aaabi
1aaabm
b101 aaabn
b1100011010000010000001010110100 aaabo
b10 aaabp
b10 aaabu
b0 aaabv

#78500
0aaabi

#79000
b1101110101110110001111100101010 aaaac
1aaabi
1aaabk
b1 aaabn
b1101110101110110001111100101010 aaabo
b100 aaabu

#79500
0aaabi

#80000
b1000100111011110110101110000000 aaaag
1aaabi
0aaabk
b11 aaabn
b1000100111011110110101110000000 aaabo
b110 aaabp
b110 aaabu
b10 aaabv

#80500
0aaabi

#81000
b1000001111011010010000011010111 aaaac
1aaabi
b0 aaabn
b1000001111011010010000011010111 aaabo
b10 aaabp
b100 aaabv

#81500
0aaabi

#82000
b1010001100111101011100101001100 aaaag
1aaabi
1aaabk
0aaabm
b110 aaabn
b1010001100111101011100101001100 aaabo
b110 aaabp
b10 aaabu
b10 aaabv

#82500
0aaabi

#83000
b1011011110110100011010111010100 aaaaf
1aaabi
0aaabk
b0 aaabn
b1011011110110100011010111010100 aaabo
b101 aaabp
b101 aaabu
b110 aaabv

#83500
0aaabi

#84000
b111100001000011111001000101 aaaag
1aaabi
1aaabk
b100 aaabn
b111100001000011111001000101 aaabo
b110 aaabp
b110 aaabu
b0 aaabv

#84500
0aaabi

#85000
b1110110001101011010101000101010 aaaaf
1aaabi
1aaabm
b101 aaabn
b1110110001101011010101000101010 aaabo
b101 aaabp
b101 aaabu
b11 aaabv

#85500
0aaabi

#86000
b1110011000101010100000100010101 aaaac
1aaabi
0aaabk
b110 aaabn
b1110011000101010100000100010101 aaabo
b10 aaabp
b110 aaabu
b10 aaabv

#86500
0aaabi

#87000
b111011101010110110100110011110 aaaac
1aaabi
1aaabk
0aaabm
b0 aaabn
b111011101010110110100110011110 aaabo
b0 aaabv

#87500
0aaabi

#88000
1aaabi
0aaabk
1aaabm
b100 aaabn
b1110011110011111110000101100101 aaabo
b0 aaabp
b101 aaabu
b100 aaabv

#88500
0aaabi

#89000
1aaabi
b11 aaabn
b1000110111110000010100001001011 aaabo
b110 aaabu
b110 aaabv

#89500
0aaabi

#90000
b11010111101111111000011101010 aaaab
1aaabi
b1 aaabn
b11010111101111111000011101010 aaabo
b1 aaabp
b1 aaabu

#90500
0aaabi

#91000
b1001011110111010101001111111101 aaaag
1aaabi
b110 aaabn
b1001011110111010101001111111101 aaabo
b110 aaabp
b101 aaabu
b11 aaabv

#91500
0aaabi

#92000
b10011010111010101011101001 aaaad
1aaabi
0aaabm
b1 aaabn
b10011010111010101011101001 aaabo
b11 aaabp
b100 aaabu
b110 aaabv

#92500
0aaabi

#93000
b1110111011101010111100101111100 aaaac
1aaabi
1aaabm
b0 aaabn
b1110111011101010111100101111100 aaabo
b10 aaabp
b110 aaabu
b10 aaabv

#93500
0aaabi

#94000
b10011111000100001000000000010 aaaaf
1aaabi
b100 aaabn
b10011111000100001000000000010 aaabo
b101 aaabp
b11 aaabu
b1 aaabv

#94500
0aaabi

#95000
b100010111100010011110111110011 aaaag
1aaabi
1aaabk
0aaabm
b11 aaabn
b100010111100010011110111110011 aaabo
b110 aaabp
b10011010111010101011101001 aaabq
1aaabs

#95500
0aaabi

#96000
b10111100011110111101101100111 aaaaf
1aaabi
b0 aaabn
b10111100011110111101101100111 aaabo
b101 aaabp
b1110111011101010111100101111100 aaabq
b10 aaabu
b100 aaabv

#96500
0aaabi

#97000
b11101001000000110101110001110 aaaab
1aaabi
0aaabk
b1 aaabn
b11101001000000110101110001110 aaabo
b1 aaabp
b11010111101111111000011101010 aaabq
b1 aaabu

#97500
0aaabi

#98000
b1110101001001011111001010111100 aaaab
1aaabi
1aaabk
b100 aaabn
b1110101001001011111001010111100 aaabo
b1110111011101010111100101111100 aaabq
b10 aaabu
b10 aaabv

#98500
0aaabi

#99000
b100101100001101101011000001110 aaaae
1aaabi
1aaabm
b100101100001101101011000001110 aaabo
b100 aaabp
b100010111100010011110111110011 aaabq
b110 aaabu
b110 aaabv

#99500
0aaabi

#100000
b1101000001011011111111011010110 aaaaf
1aaabi
0aaabk
0aaabm
b1 aaabn
b1101000001011011111111011010110 aaabo
b101 aaabp
b10111100011110111101101100111 aaabq
b101 aaabu

#100500
0aaabi

#101000
b1010100101101011001011000100001 aaaag
1aaabi
1aaabm
b0 aaabn
b1010100101101011001011000100001 aaabo
b110 aaabp
b1110101001001011111001010111100 aaabq
b1 aaabu
b11 aaabv

#101500
0aaabi

#102000
b1100010001000110100001101100011 aaaac
1aaabi
1aaabk
b11 aaabn
b1100010001000110100001101100011 aaabo
b10 aaabp
b1110111011101010111100101111100 aaabq
b10 aaabu
b1 aaabv

#102500
0aaabi

#103000
b100110001000101010110100001100 aaaae
1aaabi
0aaabk
0aaabm
b110 aaabn
b100110001000101010110100001100 aaabo
b100 aaabp
b1101000001011011111111011010110 aaabq
b101 aaabu
b0 aaabv

#103500
0aaabi

#104000
b11111010000000100001100000001 aaaad
1aaabi
1aaabk
b1 aaabn
b11111010000000100001100000001 aaabo
b11 aaabp
b1110101001001011111001010111100 aaabq
b1 aaabu
b10 aaabv

#104500
0aaabi

#105000
b1110110011011011001100011000010 aaaag
1aaabi
1aaabm
b101 aaabn
b1110110011011011001100011000010 aaabo
b110 aaabp
b11111010000000100001100000001 aaabq
b11 aaabu
b1 aaabv

#105500
0aaabi

#106000
1aaabi
0aaabk
b10 aaabn
b1101000011000111110100011010010 aaabo
b0 aaabp
b1110110011011011001100011000010 aaabq
b110 aaabu
b11 aaabv

#106500
0aaabi

#107000
b1010001000110010100111011010001 aaaac
1aaabi
b100 aaabn
b1010001000110010100111011010001 aaabo
b10 aaabp
b11111010000000100001100000001 aaabq
b11 aaabu

#107500
0aaabi

#108000
b110011010100110111110011101101 aaaab
1aaabi
b101 aaabn
b110011010100110111110011101101 aaabo
b1 aaabp

#108500
0aaabi

#109000
b101010100111000011010011100010 aaaad
1aaabi
1aaabk
0aaabm
b10 aaabn
b101010100111000011010011100010 aaabo
b11 aaabp
b100110001000101010110100001100 aaabq
b100 aaabu
b101 aaabv

#109500
0aaabi

#110000
b1101101000110111100111100011100 aaaad
1aaabi
b1 aaabn
b1101101000110111100111100011100 aaabo
b1101000001011011111111011010110 aaabq
b110011010100110111110011101101 aaabr
1aaabt
b101 aaabu
b1 aaabv

#110500
0aaabi

#111000
b100000110011000001001101001100 aaaaf
1aaabi
b0 aaabn
b100000110011000001001101001100 aaabo
b101 aaabp
b100110001000101010110100001100 aaabq
b1101101000110111100111100011100 aaabr
b100 aaabu
b11 aaabv

#111500
0aaabi

#112000
b1111010101111110001100101101010 aaaad
1aaabi
0aaabk
b11 aaabn
b1111010101111110001100101101010 aaabo
b11 aaabp
b0 aaabr
b0 aaabv

#112500
0aaabi

#113000
b111110010111100101100000101011 aaaaf
1aaabi
1aaabm
b1 aaabn
b111110010111100101100000101011 aaabo
b101 aaabp
b1110110011011011001100011000010 aaabq
b1111010101111110001100101101010 aaabr
b110 aaabu
b11 aaabv

#113500
0aaabi

#114000
b11000011100100010011000011111 aaaad
1aaabi
b110 aaabn
b11000011100100010011000011111 aaabo
b11 aaabp
b110011010100110111110011101101 aaabq
b1010001000110010100111011010001 aaabr
b1 aaabu
b10 aaabv

#114500
0aaabi

#115000
b1001110001111010010011010101011 aaaae
1aaabi
0aaabm
b10 aaabn
b1001110001111010010011010101011 aaabo
b100 aaabp
b111110010111100101100000101011 aaabq
b101 aaabu

#115500
0aaabi

#116000
1aaabi
1aaabk
b1 aaabn
b1100011100001010100100010011110 aaabo
b0 aaabp
b0 aaabq
b1110110011011011001100011000010 aaabr
b0 aaabu
b110 aaabv

#116500
0aaabi

#117000
b1100100110100010111011100100010 aaaaf
1aaabi
0aaabk
1aaabm
b11 aaabn
b1100100110100010111011100100010 aaabo
b101 aaabp
b1001110001111010010011010101011 aaabq
b1010001000110010100111011010001 aaabr
b100 aaabu
b10 aaabv

#117500
0aaabi

#118000
b1011111100101001101110000000011 aaaac
1aaabi
0aaabm
b101 aaabn
b1011111100101001101110000000011 aaabo
b10 aaabp
b1100100110100010111011100100010 aaabr
b101 aaabv

#118500
0aaabi

#119000
b1101100001100011110011111001101 aaaae
1aaabi
1aaabk
b110 aaabn
b1101100001100011110011111001101 aaabo
b100 aaabp
b1011111100101001101110000000011 aaabq
b11000011100100010011000011111 aaabr
b10 aaabu
b11 aaabv

#119500
0aaabi

#120000
b1001100110111001110110101001100 aaaac
1aaabi
0aaabk
b0 aaabn
b1001100110111001110110101001100 aaabo
b10 aaabp
b1110110011011011001100011000010 aaabq
b110011010100110111110011101101 aaabr
b110 aaabu
b1 aaabv

#120500
0aaabi

#121000
b1110000101110100011100111101011 aaaac
1aaabi
1aaabm
b1 aaabn
b1110000101110100011100111101011 aaabo
b1001100110111001110110101001100 aaabq
b1110110011011011001100011000010 aaabr
b10 aaabu
b110 aaabv

#121500
0aaabi

#122000
b1100010010101001000111111011000 aaaae
1aaabi
b100 aaabn
b1100010010101001000111111011000 aaabo
b100 aaabp
b0 aaabq
0aaabs
b100 aaabu

#122500
0aaabi

#123000
b10100100000000010111101011101 aaaab
1aaabi
1aaabk
0aaabm
b11 aaabn
b10100100000000010111101011101 aaabo
b1 aaabp
b0 aaabr
0aaabt
b10 aaabu
b11 aaabv

#123500
0aaabi

#124000
b1010110001101000111111111011 aaaac
1aaabi
1aaabm
b100 aaabn
b1010110001101000111111111011 aaabo
b10 aaabp
b1 aaabu
b101 aaabv

#124500
0aaabi

#125000
b110000010100001010001100011 aaaag
1aaabi
0aaabk
0aaabm
b1 aaabn
b110000010100001010001100011 aaabo
b110 aaabp
b101 aaabu

#125500
0aaabi

#126000
b1010001101101110110011001110101 aaaab
1aaabi
1aaabk
1aaabm
b100 aaabn
b1010001101101110110011001110101 aaabo
b1 aaabp
b10 aaabu
b0 aaabv

#126500
0aaabi

#127000
b11100011000011000001001110001 aaaad
1aaabi
0aaabk
b10 aaabn
b11100011000011000001001110001 aaabo
b11 aaabp
b1 aaabu

#127500
0aaabi

#128000
b1011111101001101100011011011100 aaaag
1aaabi
b1 aaabn
b1011111101001101100011011011100 aaabo
b110 aaabp
b110 aaabu
b110 aaabv

#128500
0aaabi

#129000
b1001111111101001100110001101101 aaaad
1aaabi
b10 aaabn
b1001111111101001100110001101101 aaabo
b11 aaabp
b100 aaabu
b101 aaabv

#129500
0aaabi

#130000
b10001110010101100011101001010 aaaag
1aaabi
1aaabk
0aaabm
b110 aaabn
b10001110010101100011101001010 aaabo
b110 aaabp
b11 aaabv

#130500
0aaabi

#131000
b1010101010101101010100001111011 aaaac
1aaabi
0aaabk
1aaabm
b100 aaabn
b1010101010101101010100001111011 aaabo
b10 aaabp
b11 aaabu
b100 aaabv

#131500
0aaabi

#132000
b11001100100001000110100000010 aaaab
1aaabi
1aaabk
0aaabm
b0 aaabn
b11001100100001000110100000010 aaabo
b1 aaabp
b110 aaabu

#132500
0aaabi

#133000
b1110111110110100100101001010111 aaaab
1aaabi
0aaabk
b10 aaabn
b1110111110110100100101001010111 aaabo
b0 aaabu
b1 aaabv

#133500
0aaabi

#134000
b1010110010001011000000011001000 aaaab
1aaabi
1aaabk
b1 aaabn
b1010110010001011000000011001000 aaabo
b101 aaabu
b10 aaabv

#134500
0aaabi

#135000
b1001111000011001110111011011011 aaaac
1aaabi
b101 aaabn
b1001111000011001110111011011011 aaabo
b10 aaabp
b1100100110100010111011100100010 aaabq
1aaabs
b100 aaabv

#135500
0aaabi

#136000
b10110111010010000100011001000 aaaac
1aaabi
b11 aaabn
b10110111010010000100011001000 aaabo
b1001111000011001110111011011011 aaabq
b10 aaabu
b1 aaabv

#136500
0aaabi

#137000
b1101111010010011100110110001010 aaaac
1aaabi
1aaabm
b1 aaabn
b1101111010010011100110110001010 aaabo
b10110111010010000100011001000 aaabq
b11 aaabv

#137500
0aaabi

#138000
1aaabi
b110010011101100110101001010101 aaabo
b0 aaabp
b1100010010101001000111111011000 aaabq
b100 aaabu
b100 aaabv

#138500
0aaabi

#139000
b1010110011000010111100001101110 aaaab
1aaabi
0aaabk
b10 aaabn
b1010110011000010111100001101110 aaabo
b1 aaabp
b0 aaabq
b0 aaabu
b0 aaabv

#139500
0aaabi

#140000
b100110100011001011001101111111 aaaab
1aaabi
b11 aaabn
b100110100011001011001101111111 aaabo
b1100100110100010111011100100010 aaabq
b101 aaabu
b100 aaabv

#140500
0aaabi

#141000
b10001000100101101101110110110 aaaab
1aaabi
b1 aaabn
b10001000100101101101110110110 aaabo

#141500
0aaabi

#142000
b1010011010000110100011110101000 aaaad
1aaabi
1aaabk
b1010011010000110100011110101000 aaabo
b11 aaabp
b1001111111101001100110001101101 aaabq
b11 aaabu
b10 aaabv

