MIPS/tmp/mips14/tf.vcd
$date
     Mar 23, 2004       18:06:02
$end

$version
              SystemC 2.0.1 --- Oct  3 2002 15:15:24
$end

$timescale
     1 ps
$end

$scope module SystemC $end
$var wire    1  aaa  CLK       $end
$var wire    1  aab  D_FRZ       $end
$var wire    1  aac  I_FRZ       $end
$var wire    1  aad  D_RQ       $end
$var wire   32  aae  PI_A       $end
$var wire   32  aaf  PI_D       $end
$var wire    3  aag  PI_ACK       $end
$var wire    1  aah  PI_READ       $end
$var wire    1  aai  PI_LOCK       $end
$var wire   32  aaj  R1       $end
$var wire    1  aak  d_cache1.RESET_RX       $end
$var wire    1  aal  d_cache1.MISS_SX       $end
$var wire    1  aam  d_cache1.PILINEN_SX       $end
$var wire    1  aan  d_cache1.DEFLTEN_SX       $end
$var wire    3  aao  d_cache1.C_NXTS_SX       $end
$var wire   26  aap  ADRTAG_SX       $end
$var wire    2  aaq  BLCNBR_SX       $end
$var wire    2  aar  BLCOFS_SX       $end
$var wire    1  aas  DIRMISS_SX       $end
$var wire    1  aat  MISS_SX       $end
$var wire    2  aau  RSTCNT_SX       $end
$var wire    3  aav  RSTCRY_SX       $end
$var wire    1  aaw  ENDRST_SX       $end
$var wire    3  aax  C_STAT_RX       $end
$var wire    1  aay  RQSPSH_SX       $end
$var wire   39  aaz  RQSDIN_SX       $end
$var wire   32  aba  RQSADR_SX       $end
$var wire   32  abb  ADRCNT_RX       $end
$var wire   32  abc  SENDADR_RX       $end
$var wire    4  abd  RQSACSC_SX       $end
$var wire    1  abe  R_STAT_RX       $end
$var wire    1  abf  RQSPOP_SX       $end
$var wire    3  abg  i_cache1.C_STAT_RX       $end
$var wire    3  abh  i_cache1.P_STAT_RX       $end
$var wire    1  abi  i_cache1.PILINEN_SX       $end
$var wire    3  abj  d_cache1.C_STAT_RX       $end
$var wire    3  abk  d_cache1.P_STAT_RX       $end
$var wire    1  abl  d_cache1.WRTDAT0_SX       $end
$var wire    1  abm  d_cache1.WRTDAT1_SX       $end
$var wire    1  abn  d_cache1.WRTDAT2_SX       $end
$var wire    1  abo  d_cache1.WRTDAT3_SX       $end
$var wire    1  abp  d_cache1.WRTDATA_SX       $end
$var wire   32  abq  d_cache1.REDBLC0_RX       $end
$var wire   32  abr  d_cache1.REDBLC1_RX       $end
$var wire   32  abs  d_cache1.REDBLC2_RX       $end
$var wire   32  abt  d_cache1.REDBLC3_RX       $end
$var wire   128  abu  BLOC0_RX       $end
$var wire    8  abv  pi_control1.PI_IREQ       $end
$var wire    8  abw  pi_control1.PI_GNT       $end
$var wire    8  abx  pi_control1.PI_SEL       $end
$var wire    8  aby  pi_control1.PRIOR_RX       $end
$var wire    8  abz  pi_control1.GRANT_SX       $end
$var wire   32  aca  DAT       $end
$var wire   32  acb  d_cache1.D_A       $end
$var wire    3  acc  PI_ACK       $end
$var wire    1  acd  i_cache1.PI_IREQ       $end
$var wire   32  ace  NEXTPC_RD       $end
$upscope $end
$enddefinitions  $end

$comment
All initial values are dumped below at time 0 sec = 0 timescale units.
$end

$dumpvars
0aaa
0aab
1aac
0aad
b0 aae
b0 aaf
b111 aag
0aah
0aai
b0 aaj
1aak
0aal
0aam
0aan
b111 aao
b0 aap
b0 aaq
b0 aar
1aas
1aat
b1 aau
b1 aav
0aaw
b0 aax
1aay
b1000011 aaz
b0 aba
b0 abb
b0 abc
b0 abd
0abe
0abf
b0 abg
b0 abh
0abi
b0 abj
b0 abk
0abl
0abm
0abn
0abo
0abp
b0 abq
b0 abr
b0 abs
b0 abt
b0 abu
b0 abv
b0 abw
b0 abx
b0 aby
b0 abz
b0 aca
b0 acb
b111 acc
0acd
b0 ace
$end

#1000
1aaa
1aab
b111 aax
0aay
b100 abb
b11 abd
1abf
b111 abg
1abi
b111 abj
b1 abw
b1111111 aby

#2000
0aaa
b1 aae
1aah

#3000
1aaa
b10000000000000000000000010 aap
b100000000000000000000000100000001000011 aaz
b0 abb
b100 abc
b10000000000000000000000010000000 ace

#4000
0aaa
b0 aae

#5000
1aaa
b10111111110000000000000000 aap
b101111111100000000000000000000001000011 aaz
b0 abc
b10111111110000000000000000000000 ace

#6000
0aaa

#7000
1aaa
0aak

#8000
0aaa

#9000
1aaa
b10 aau
b11 aav

#10000
0aaa

#11000
1aaa
b11 aau
b1 aav

#12000
0aaa

#13000
1aaa
b0 aao
b0 aau
b111 aav
1aaw

#14000
0aaa

#15000
1aaa
0aab
b1 aau
b1 aav
0aaw
b0 aax
1aay
b0 abg
b0 abj

#16000
0aaa

#17000
1aaa
b10 aau
b11 aav
b10 aax
0aay
b10111111110000000000000000000000 aba
1abe
b10 abg

#18000
0aaa

#19000
1aaa
b11 aau
b1 aav
b10111111110000000000000000000000 abb
0abe
0abf
b10 abh
b1 abv
b0 abw
b1 abx
b1 abz
1acd

#20000
0aaa
b101111111100000000000000000000 aae
1aai
b1000 abx

#21000
1aaa
b11 aag
b0 aau
b111 aav
1aaw
b10111111110000000000000000000100 abb
b10111111110000000000000000000000 abc
b11 abh
b0 abv
b11111110 aby
b0 abz
b11 acc
0acd

#22000
0aaa
b101111111100000000000000000001 aae
b111100000111101100000000000000 aaf

#23000
1aaa
b1 aau
b1 aav
0aaw
b10111111110000000000000000001000 abb
b10111111110000000000000000000100 abc

#24000
0aaa
b101111111100000000000000000010 aae
b110111110111100000000000000000 aaf

#25000
1aaa
b10 aau
b11 aav
b10111111110000000000000000001100 abb
b10111111110000000000000000001000 abc

#26000
0aaa
b101111111100000000000000000011 aae
b111100000000010000000000000000 aaf
0aai

#27000
1aaa
1aam
1aan
b11 aau
b1 aav
b10111111110000000000000000000000 abb
b10111111110000000000000000001100 abc
b100 abh
0abi
b10 abw
b0 abx

#28000
0aaa
b10 aae
b110100001000011111111100111100 aaf

#29000
1aaa
b111 aag
b0 aau
b111 aav
1aaw
b10111111110000000000000000000100 abb
b10111111110000000000000000000000 abc
b0 abh
b111 acc

#30000
0aaa
b0 aae

#31000
1aaa
b1 aau
b1 aav
0aaw
b110 aax
b10111111110000000000000000001000 abb
b10111111110000000000000000000100 abc
b110 abg

#32000
0aaa

#33000
1aaa
0aac
0aas
0aat
b10 aau
b11 aav
b0 aax
b10111111110000000000000000001100 abb
b10111111110000000000000000001000 abc
b0 abg
b111100000111101100000000000000001101111101111000000000000000000011110000000001000000000000000000110100001000011111111100111100 abu

#34000
0aaa

#35000
1aaa
b1 aar
b11 aau
b1 aav
b101111111100000000000000000001001000011 aaz
b10111111110000000000000000000000 abb
b10111111110000000000000000001100 abc
b10111111110000000000000000000100 ace

#36000
0aaa

#37000
1aaa
b10 aar
b0 aau
b111 aav
1aaw
b101111111100000000000000000010001000011 aaz
b10111111110000000000000000000100 abb
b10111111110000000000000000000000 abc
b10111111110000000000000000001000 ace

#38000
0aaa

#39000
1aaa
b11 aar
b1 aau
b1 aav
0aaw
b101111111100000000000000000011001000011 aaz
b10111111110000000000000000001000 abb
b10111111110000000000000000000100 abc
b11000000000000000000000000000000 acb
b10111111110000000000000000001100 ace

#40000
0aaa

#41000
1aaa
1aac
b1 aaq
b0 aar
1aas
1aat
b10 aau
b11 aav
1aay
b101111111100000000000000000100001000011 aaz
b10111111110000000000000000001100 abb
b10111111110000000000000000001000 abc
b10111111110000000000000000010000 ace

#42000
0aaa

#43000
1aaa
b11 aau
b1 aav
b10 aax
0aay
b10111111110000000000000000010000 aba
b10111111110000000000000000000000 abb
b10111111110000000000000000001100 abc
1abe
b10 abg
b0 acb

#44000
0aaa

#45000
1aaa
0aam
0aan
b0 aau
b111 aav
1aaw
b10111111110000000000000000000100 abb
b10111111110000000000000000000000 abc
1abf
b1 abh
1abi
b1 abv
b1 abw
b1 abz
1acd

#46000
0aaa
b101111111100000000000000000001 aae

#47000
1aaa
b1 aau
b1 aav
0aaw
b10111111110000000000000000010000 abb
b10111111110000000000000000000100 abc
0abe
0abf
b10 abh
b0 abw

#48000
0aaa
b101111111100000000000000000100 aae
1aai
b1000 abx

#49000
1aaa
b11 aag
b10 aau
b11 aav
b10111111110000000000000000010100 abb
b10111111110000000000000000010000 abc
b11 abh
b0 abv
b0 abz
b11 acc
0acd

#50000
0aaa
b101111111100000000000000000101 aae
b1000000100000010110000000000000 aaf

#51000
1aaa
b11 aau
b1 aav
b10111111110000000000000000011000 abb
b10111111110000000000000000010100 abc

#52000
0aaa
b101111111100000000000000000110 aae
b111100000000010000000000000000 aaf

#53000
1aaa
b0 aau
b111 aav
1aaw
b10111111110000000000000000011100 abb
b10111111110000000000000000011000 abc

#54000
0aaa
b101111111100000000000000000111 aae
b110100001000010000000000000000 aaf
0aai

#55000
1aaa
1aam
1aan
b1 aau
b1 aav
0aaw
b10111111110000000000000000010000 abb
b10111111110000000000000000011100 abc
b100 abh
0abi
b10 abw
b0 abx

#56000
0aaa
b1 aae
b1000000100000010110100000000000 aaf

#57000
1aaa
b111 aag
b10 aau
b11 aav
b10111111110000000000000000010100 abb
b10111111110000000000000000010000 abc
b0 abh
b111 acc

#58000
0aaa
b0 aae

#59000
1aaa
b11 aau
b1 aav
b110 aax
b10111111110000000000000000011000 abb
b10111111110000000000000000010100 abc
b110 abg

#60000
0aaa

#61000
1aaa
0aac
0aas
0aat
b0 aau
b111 aav
1aaw
b0 aax
b10111111110000000000000000011100 abb
b10111111110000000000000000011000 abc
b0 abg

#62000
0aaa

#63000
1aaa
b1 aar
b1 aau
b1 aav
0aaw
b101111111100000000000000000101001000011 aaz
b10111111110000000000000000010000 abb
b10111111110000000000000000011100 abc
b10111111110000000000000000010100 ace

#64000
0aaa

#65000
1aaa
b10 aar
b10 aau
b11 aav
b101111111100000000000000000110001000011 aaz
b10111111110000000000000000010100 abb
b10111111110000000000000000010000 abc
b1111111100111100 acb
b10111111110000000000000000011000 ace

#66000
0aaa

#67000
1aaa
b11 aar
b11 aau
b1 aav
b101111111100000000000000000111001000011 aaz
b10111111110000000000000000011000 abb
b10111111110000000000000000010100 abc
b0 acb
b10111111110000000000000000011100 ace

#68000
0aaa

#69000
1aaa
1aac
b1111111100111100 aaj
b10 aaq
b0 aar
1aas
1aat
b0 aau
b111 aav
1aaw
1aay
b101111111100000000000000001000001000011 aaz
b10111111110000000000000000011100 abb
b10111111110000000000000000011000 abc
b10111111110000000000000000100000 ace

#70000
0aaa

#71000
1aaa
b1 aau
b1 aav
0aaw
b10 aax
0aay
b10111111110000000000000000100000 aba
b10111111110000000000000000010000 abb
b10111111110000000000000000011100 abc
1abe
b10 abg

#72000
0aaa

#73000
1aaa
b0 aaj
0aam
0aan
b10 aau
b11 aav
b10111111110000000000000000010100 abb
b10111111110000000000000000010000 abc
1abf
b1 abh
1abi
b1 abv
b1 abw
b1 abz
1acd

#74000
0aaa
b101111111100000000000000000101 aae

#75000
1aaa
b11 aau
b1 aav
b10111111110000000000000000100000 abb
b10111111110000000000000000010100 abc
0abe
0abf
b10 abh
b0 abw

#76000
0aaa
b101111111100000000000000001000 aae
1aai
b1000 abx

#77000
1aaa
b11 aag
b0 aau
b111 aav
1aaw
b10111111110000000000000000100100 abb
b10111111110000000000000000100000 abc
b11 abh
b0 abv
b0 abz
b11 acc
0acd

#78000
0aaa
b101111111100000000000000001001 aae
b111100000110100000000001000000 aaf

#79000
1aaa
b1 aau
b1 aav
0aaw
b10111111110000000000000000101000 abb
b10111111110000000000000000100100 abc

#80000
0aaa
b101111111100000000000000001010 aae
b110111010110100000000000000000 aaf

#81000
1aaa
b10 aau
b11 aav
b10111111110000000000000000101100 abb
b10111111110000000000000000101000 abc

#82000
0aaa
b101111111100000000000000001011 aae
b11010000000000000000001000 aaf
0aai

#83000
1aaa
1aam
1aan
b11 aau
b1 aav
b10111111110000000000000000100000 abb
b10111111110000000000000000101100 abc
b100 abh
0abi
b10 abw
b0 abx

#84000
0aaa
b1 aae
b1000010000000000000000000010000 aaf

#85000
1aaa
b111 aag
b0 aau
b111 aav
1aaw
b10111111110000000000000000100100 abb
b10111111110000000000000000100000 abc
b0 abh
b111 acc

#86000
0aaa
b0 aae

#87000
1aaa
b1 aau
b1 aav
0aaw
b110 aax
b10111111110000000000000000101000 abb
b10111111110000000000000000100100 abc
b110 abg

#88000
0aaa

#89000
1aaa
0aac
0aas
0aat
b10 aau
b11 aav
b0 aax
b10111111110000000000000000101100 abb
b10111111110000000000000000101000 abc
b0 abg

#90000
0aaa

#91000
1aaa
b1 aar
b11 aau
b1 aav
b101111111100000000000000001001001000011 aaz
b10111111110000000000000000100000 abb
b10111111110000000000000000101100 abc
b10111111110000000000000000100100 ace

#92000
0aaa

#93000
1aaa
b10 aar
b0 aau
b111 aav
1aaw
b101111111100000000000000001010001000011 aaz
b10111111110000000000000000100100 abb
b10111111110000000000000000100000 abc
b1111111100111100 acb
b10111111110000000000000000101000 ace

#94000
0aaa

#95000
1aaa
b11 aar
b1 aau
b1 aav
0aaw
b101111111100000000000000001011001000011 aaz
b10111111110000000000000000101000 abb
b10111111110000000000000000100100 abc
b10000000000000000000000 acb
b10111111110000000000000000101100 ace

#96000
0aaa

#97000
1aaa
b10 aau
b11 aav
b10111111110000000000000000101100 abb
b10111111110000000000000000101000 abc

#98000
0aaa

#99000
1aaa
1aac
b10000000000000000 aap
b0 aaq
b0 aar
1aas
1aat
b11 aau
b1 aav
1aay
b100000000000000000000001000011 aaz
b10111111110000000000000000100000 abb
b10111111110000000000000000101100 abc
b10000000000000000000000 ace

#100000
0aaa

#101000
1aaa
b0 aau
b111 aav
1aaw
b10 aax
0aay
b10000000000000000000000 aba
b10111111110000000000000000100100 abb
b10111111110000000000000000100000 abc
1abe
b10 abg

#102000
0aaa

#103000
1aaa
0aam
0aan
b1 aau
b1 aav
0aaw
b10111111110000000000000000101000 abb
b10111111110000000000000000100100 abc
1abf
b1 abh
1abi
b1 abv
b1 abw
b1 abz
1acd

#104000
0aaa
b101111111100000000000000001010 aae

#105000
1aaa
b10 aau
b11 aav
b10000000000000000000000 abb
b10111111110000000000000000101000 abc
0abe
0abf
b10 abh
b0 abw

#106000
0aaa
b100000000000000000000 aae
1aai
b10 abx

#107000
1aaa
b0 aaf
b11 aag
b11 aau
b1 aav
b10000000000000000000100 abb
b10000000000000000000000 abc
b11 abh
b0 abv
b0 abz
b11 acc
0acd

#108000
0aaa
b100000000000000000001 aae
b100100000000010001000100010001 aaf

#109000
1aaa
b0 aau
b111 aav
1aaw
b10000000000000000001000 abb
b10000000000000000000100 abc

#110000
0aaa
b100000000000000000010 aae
b100100000000100010001000100010 aaf

#111000
1aaa
b1 aau
b1 aav
0aaw
b10000000000000000001100 abb
b10000000000000000001000 abc

#112000
0aaa
b100000000000000000011 aae
b100100000000110011001100110011 aaf
0aai

#113000
1aaa
1aam
1aan
b10 aau
b11 aav
b10000000000000000000000 abb
b10000000000000000001100 abc
b100 abh
0abi
b10 abw
b0 abx

#114000
0aaa
b1 aae
b100100000001000100010001000100 aaf

#115000
1aaa
b111 aag
b11 aau
b1 aav
b10000000000000000000100 abb
b10000000000000000000000 abc
b0 abh
b111 acc

#116000
0aaa
b0 aae

#117000
1aaa
b0 aau
b111 aav
1aaw
b110 aax
b10000000000000000001000 abb
b10000000000000000000100 abc
b110 abg

#118000
0aaa

#119000
1aaa
0aac
0aas
0aat
b1 aau
b1 aav
0aaw
b0 aax
b10000000000000000001100 abb
b10000000000000000001000 abc
b0 abg
b100100000000010001000100010001001001000000001000100010001000100010010000000011001100110011001100100100000001000100010001000100 abu

#120000
0aaa

#121000
1aaa
b1 aar
b10 aau
b11 aav
b100000000000000000001001000011 aaz
b10000000000000000000000 abb
b10000000000000000001100 abc
b10000000000000000000100 ace

#122000
0aaa

#123000
1aaa
b10 aar
b11 aau
b1 aav
b100000000000000000010001000011 aaz
b10000000000000000000100 abb
b10000000000000000000000 abc
b0 acb
b10000000000000000001000 ace

#124000
0aaa

#125000
1aaa
b11 aar
b0 aau
b111 aav
1aaw
b100000000000000000011001000011 aaz
b10000000000000000001000 abb
b10000000000000000000100 abc
b1000100010001 acb
b10000000000000000001100 ace

#126000
0aaa

#127000
1aaa
1aac
b1 aaq
b0 aar
1aas
1aat
b1 aau
b1 aav
0aaw
1aay
b100000000000000000100001000011 aaz
b10000000000000000001100 abb
b10000000000000000001000 abc
b10001000100010 acb
b10000000000000000010000 ace

#128000
0aaa

#129000
1aaa
b1000100010001 aaj
b10 aau
b11 aav
b10 aax
0aay
b10000000000000000010000 aba
b10000000000000000000000 abb
b10000000000000000001100 abc
1abe
b10 abg
b11001100110011 acb

#130000
0aaa

#131000
1aaa
0aam
0aan
b11 aau
b1 aav
b10000000000000000000100 abb
b10000000000000000000000 abc
1abf
b1 abh
1abi
b1 abv
b1 abw
b1 abz
b0 acb
1acd

#132000
0aaa
b100000000000000000001 aae

#133000
1aaa
b0 aau
b111 aav
1aaw
b10000000000000000010000 abb
b10000000000000000000100 abc
0abe
0abf
b10 abh
b0 abw

#134000
0aaa
b100000000000000000100 aae
1aai
b10 abx

#135000
1aaa
b11 aag
b1 aau
b1 aav
0aaw
b10000000000000000010100 abb
b10000000000000000010000 abc
b11 abh
b0 abv
b0 abz
b11 acc
0acd

#136000
0aaa
b100000000000000000101 aae
b10101100000000010000000000000000 aaf

#137000
1aaa
b10 aau
b11 aav
b10000000000000000011000 abb
b10000000000000000010100 abc

#138000
0aaa
b100000000000000000110 aae
b10101100000000100000000000000001 aaf

#139000
1aaa
b11 aau
b1 aav
b10000000000000000011100 abb
b10000000000000000011000 abc

#140000
0aaa
b100000000000000000111 aae
b10101100000000110000000000000010 aaf
0aai

#141000
1aaa
1aam
1aan
b0 aau
b111 aav
1aaw
b10000000000000000010000 abb
b10000000000000000011100 abc
b100 abh
0abi
b10 abw
b0 abx

#142000
0aaa
b1 aae
b10101100000001000000000000000011 aaf

#143000
1aaa
b111 aag
b1 aau
b1 aav
0aaw
b10000000000000000010100 abb
b10000000000000000010000 abc
b0 abh
b111 acc

#144000
0aaa
b0 aae

#145000
1aaa
b10 aau
b11 aav
b110 aax
b10000000000000000011000 abb
b10000000000000000010100 abc
b110 abg

#146000
0aaa

#147000
1aaa
0aac
0aas
0aat
b11 aau
b1 aav
b0 aax
b10000000000000000011100 abb
b10000000000000000011000 abc
b0 abg

#148000
0aaa

#149000
1aaa
b1 aar
b0 aau
b111 aav
1aaw
b100000000000000000101001000011 aaz
b10000000000000000010000 abb
b10000000000000000011100 abc
b10000000000000000010100 ace

#150000
0aaa

#151000
1aaa
b10 aar
b1 aau
b1 aav
0aaw
b100000000000000000110001000011 aaz
b10000000000000000010100 abb
b10000000000000000010000 abc
b100010001000100 acb
b10000000000000000011000 ace

#152000
0aaa

#153000
1aaa
1aad
b11 aar
b10 aau
b11 aav
b100000000000000000111001000011 aaz
b10000000000000000011000 abb
b10000000000000000010100 abc
b0 acb
b10000000000000000011100 ace

#154000
0aaa

#155000
1aaa
1aab
1aac
b100 aao
b10 aaq
b0 aar
1aas
1aat
b11 aau
b1 aav
1aay
b100000000000000001000001000011 aaz
b10000000000000000011100 abb
b10000000000000000011000 abc
b1 acb
b10000000000000000100000 ace

#156000
0aaa

#157000
1aaa
0aan
b0 aao
b0 aau
b111 aav
1aaw
b10 aax
0aay
b10000000000000000100000 aba
b10000000000000000010000 abb
b10000000000000000011100 abc
1abe
b10 abg
b100 abj
b10 abk
b10 abv
b0 abw
b1 abx
b10 abz

#158000
0aaa
0aah

#159000
1aaa
0aab
b11 aag
0aam
b1 aau
b1 aav
0aaw
b10000000000000000010100 abb
b10000000000000000010000 abc
1abf
b1 abh
1abi
b0 abj
b100 abk
b1 abv
b1 abw
b0 abx
b11111101 aby
b1 abz
b11 acc
1acd

#160000
0aaa
b100000000000000000101 aae
b1000100010001 aaf
1aah
b1000100010001 aca

#161000
1aaa
1aab
b111 aag
b100 aao
b10 aau
b11 aav
b10000000000000000100000 abb
b10000000000000000010100 abc
0abe
0abf
b10 abh
b0 abk
b0 abw
b11111110 aby
b10 acb
b111 acc

#162000
0aaa
b100000000000000001000 aae
1aai
b10 abx

#163000
1aaa
b11 aag
b0 aao
b11 aau
b1 aav
b10000000000000000100100 abb
b10000000000000000100000 abc
b11 abh
b100 abj
b1 abk
b10 abv
b10 abz
b11 acc
0acd

#164000
0aaa
b100000000000000001001 aae
b1000000100000000000000001000 aaf

#165000
1aaa
0aab
b0 aau
b111 aav
1aaw
b10000000000000000101000 abb
b10000000000000000100100 abc
b0 abj

#166000
0aaa
b100000000000000001010 aae
b100001 aaf

#167000
1aaa
0aad
b1 aau
b1 aav
0aaw
b10000000000000000101100 abb
b10000000000000000101000 abc
b11001100110011 acb

#168000
0aaa
b100000000000000001011 aae
b0 aaf
0aai

#169000
1aaa
1aam
1aan
b10 aau
b11 aav
b10000000000000000100000 abb
b10000000000000000101100 abc
b100 abh
0abi
b10 abw
b0 abx

#170000
0aaa
b0 aae

#171000
1aaa
b111 aag
0aan
b11 aau
b1 aav
b10000000000000000100100 abb
b10000000000000000100000 abc
b0 abh
b10 abk
b0 abw
b11111101 aby
b111 acc

#172000
0aaa
0aah
b1 abx

#173000
1aaa
b11 aag
1aah
0aam
b0 aau
b111 aav
1aaw
b110 aax
b10000000000000000101000 abb
b10000000000000000100100 abc
b110 abg
b100 abk
b0 abv
b100 abw
b0 abx
b0 abz
b11 acc

#174000
0aaa
b11001100110011 aaf
b11001100110011 aca

#175000
1aaa
0aac
b111 aag
0aas
0aat
b1 aau
b1 aav
0aaw
b0 aax
b10000000000000000101100 abb
b10000000000000000101000 abc
b0 abg
b0 abk
b111 acc

#176000
0aaa

#177000
1aaa
b1 aar
b10 aau
b11 aav
b100000000000000001001001000011 aaz
b10000000000000000100000 abb
b10000000000000000101100 abc
b10000000000000000100100 ace

#178000
0aaa

#179000
1aaa
1aad
b0 aar
b11 aau
b1 aav
b100000000000000001000001000011 aaz
b10000000000000000100100 abb
b10000000000000000100000 abc
b11 acb
b10000000000000000100000 ace

#180000
0aaa

#181000
1aaa
0aad
b1 aar
b0 aau
b111 aav
1aaw
b100000000000000001001001000011 aaz
b10000000000000000101000 abb
b10000000000000000100100 abc
b0 acb
b10000000000000000100100 ace

#182000
0aaa

#183000
1aaa
1aam
1aan
b0 aar
b1 aau
b1 aav
0aaw
b100000000000000001000001000011 aaz
b10000000000000000101100 abb
b10000000000000000101000 abc
b1 abk
b10 abv
b10 abw
b10 abz
b10000000000000000100000 ace

#184000
0aaa

#185000
1aaa
0aan
b1 aar
b10 aau
b11 aav
b100000000000000001001001000011 aaz
b10000000000000000100000 abb
b10000000000000000101100 abc
b10 abk
b0 abw
b10000000000000000100100 ace

#186000
0aaa
0aah
b1 abx

#187000
1aaa
b11 aag
1aah
0aam
b0 aar
b11 aau
b1 aav
b100000000000000001000001000011 aaz
b10000000000000000100100 abb
b10000000000000000100000 abc
b100 abk
b0 abv
b100 abw
b0 abx
b0 abz
b11 acc
b10000000000000000100000 ace

#188000
0aaa
b100010001000100 aaf
b100010001000100 aca

#189000
1aaa
b111 aag
b1 aar
b0 aau
b111 aav
1aaw
b100000000000000001001001000011 aaz
b10000000000000000101000 abb
b10000000000000000100100 abc
b0 abk
b111 acc
b10000000000000000100100 ace

#190000
0aaa

#191000
1aaa
b0 aar
b1 aau
b1 aav
0aaw
b100000000000000001000001000011 aaz
b10000000000000000101100 abb
b10000000000000000101000 abc
b10000000000000000100000 ace

#192000
0aaa

#193000
1aaa
b1 aar
b10 aau
b11 aav
b100000000000000001001001000011 aaz
b10000000000000000100000 abb
b10000000000000000101100 abc
b10000000000000000100100 ace

#194000
0aaa

#195000
1aaa
b0 aar
b11 aau
b1 aav
b100000000000000001000001000011 aaz
b10000000000000000100100 abb
b10000000000000000100000 abc
b10000000000000000100000 ace

#196000
0aaa

#197000
1aaa
b1 aar
b0 aau
b111 aav
1aaw
b100000000000000001001001000011 aaz
b10000000000000000101000 abb
b10000000000000000100100 abc
b10000000000000000100100 ace

#198000
0aaa

#199000
1aaa
b0 aar
b1 aau
b1 aav
0aaw
b100000000000000001000001000011 aaz
b10000000000000000101100 abb
b10000000000000000101000 abc
b10000000000000000100000 ace

#200000
0aaa

#201000
1aaa
b1 aar
b10 aau
b11 aav
b100000000000000001001001000011 aaz
b10000000000000000100000 abb
b10000000000000000101100 abc
b10000000000000000100100 ace

#202000
0aaa

#203000
1aaa
b0 aar
b11 aau
b1 aav
b100000000000000001000001000011 aaz
b10000000000000000100100 abb
b10000000000000000100000 abc
b10000000000000000100000 ace

#204000
0aaa

#205000
1aaa
b1 aar
b0 aau
b111 aav
1aaw
b100000000000000001001001000011 aaz
b10000000000000000101000 abb
b10000000000000000100100 abc
b10000000000000000100100 ace

#206000
0aaa

#207000
1aaa
b0 aar
b1 aau
b1 aav
0aaw
b100000000000000001000001000011 aaz
b10000000000000000101100 abb
b10000000000000000101000 abc
b10000000000000000100000 ace

#208000
0aaa

#209000
1aaa
b1 aar
b10 aau
b11 aav
b100000000000000001001001000011 aaz
b10000000000000000100000 abb
b10000000000000000101100 abc
b10000000000000000100100 ace

#210000
0aaa

#211000
1aaa
b0 aar
b11 aau
b1 aav
b100000000000000001000001000011 aaz
b10000000000000000100100 abb
b10000000000000000100000 abc
b10000000000000000100000 ace

#212000
0aaa

#213000
1aaa
b1 aar
b0 aau
b111 aav
1aaw
b100000000000000001001001000011 aaz
b10000000000000000101000 abb
b10000000000000000100100 abc
b10000000000000000100100 ace

#214000
0aaa

#215000
1aaa
b0 aar
b1 aau
b1 aav
0aaw
b100000000000000001000001000011 aaz
b10000000000000000101100 abb
b10000000000000000101000 abc
b10000000000000000100000 ace

#216000
0aaa

#217000
1aaa
b1 aar
b10 aau
b11 aav
b100000000000000001001001000011 aaz
b10000000000000000100000 abb
b10000000000000000101100 abc
b10000000000000000100100 ace

#218000
0aaa

#219000
1aaa
b0 aar
b11 aau
b1 aav
b100000000000000001000001000011 aaz
b10000000000000000100100 abb
b10000000000000000100000 abc
b10000000000000000100000 ace

#220000
0aaa

#221000
1aaa
b1 aar
b0 aau
b111 aav
1aaw
b100000000000000001001001000011 aaz
b10000000000000000101000 abb
b10000000000000000100100 abc
b10000000000000000100100 ace

#222000
0aaa

#223000
1aaa
b0 aar
b1 aau
b1 aav
0aaw
b100000000000000001000001000011 aaz
b10000000000000000101100 abb
b10000000000000000101000 abc
b10000000000000000100000 ace

#224000
0aaa

#225000
1aaa
b1 aar
b10 aau
b11 aav
b100000000000000001001001000011 aaz
b10000000000000000100000 abb
b10000000000000000101100 abc
b10000000000000000100100 ace

#226000
0aaa

#227000
1aaa
b0 aar
b11 aau
b1 aav
b100000000000000001000001000011 aaz
b10000000000000000100100 abb
b10000000000000000100000 abc
b10000000000000000100000 ace

#228000
0aaa

#229000
1aaa
b1 aar
b0 aau
b111 aav
1aaw
b100000000000000001001001000011 aaz
b10000000000000000101000 abb
b10000000000000000100100 abc
b10000000000000000100100 ace

#230000
0aaa

#231000
1aaa
b0 aar
b1 aau
b1 aav
0aaw
b100000000000000001000001000011 aaz
b10000000000000000101100 abb
b10000000000000000101000 abc
b10000000000000000100000 ace

#232000
0aaa

#233000
1aaa
b1 aar
b10 aau
b11 aav
b100000000000000001001001000011 aaz
b10000000000000000100000 abb
b10000000000000000101100 abc
b10000000000000000100100 ace

#234000
0aaa

#235000
1aaa
b0 aar
b11 aau
b1 aav
b100000000000000001000001000011 aaz
b10000000000000000100100 abb
b10000000000000000100000 abc
b10000000000000000100000 ace

#236000
0aaa

#237000
1aaa
b1 aar
b0 aau
b111 aav
1aaw
b100000000000000001001001000011 aaz
b10000000000000000101000 abb
b10000000000000000100100 abc
b10000000000000000100100 ace

#238000
0aaa

#239000
1aaa
b0 aar
b1 aau
b1 aav
0aaw
b100000000000000001000001000011 aaz
b10000000000000000101100 abb
b10000000000000000101000 abc
b10000000000000000100000 ace

#240000
0aaa

#241000
1aaa
b1 aar
b10 aau
b11 aav
b100000000000000001001001000011 aaz
b10000000000000000100000 abb
b10000000000000000101100 abc
b10000000000000000100100 ace

#242000
0aaa

#243000
1aaa
b0 aar
b11 aau
b1 aav
b100000000000000001000001000011 aaz
b10000000000000000100100 abb
b10000000000000000100000 abc
b10000000000000000100000 ace

#244000
0aaa

#245000
1aaa
b1 aar
b0 aau
b111 aav
1aaw
b100000000000000001001001000011 aaz
b10000000000000000101000 abb
b10000000000000000100100 abc
b10000000000000000100100 ace

#246000
0aaa

#247000
1aaa
b0 aar
b1 aau
b1 aav
0aaw
b100000000000000001000001000011 aaz
b10000000000000000101100 abb
b10000000000000000101000 abc
b10000000000000000100000 ace

#248000
0aaa

#249000
1aaa
b1 aar
b10 aau
b11 aav
b100000000000000001001001000011 aaz
b10000000000000000100000 abb
b10000000000000000101100 abc
b10000000000000000100100 ace

#250000
0aaa

#251000
1aaa
b0 aar
b11 aau
b1 aav
b100000000000000001000001000011 aaz
b10000000000000000100100 abb
b10000000000000000100000 abc
b10000000000000000100000 ace

#252000
0aaa

#253000
1aaa
b1 aar
b0 aau
b111 aav
1aaw
b100000000000000001001001000011 aaz
b10000000000000000101000 abb
b10000000000000000100100 abc
b10000000000000000100100 ace

#254000
0aaa

#255000
1aaa
b0 aar
b1 aau
b1 aav
0aaw
b100000000000000001000001000011 aaz
b10000000000000000101100 abb
b10000000000000000101000 abc
b10000000000000000100000 ace

#256000
0aaa

#257000
1aaa
b1 aar
b10 aau
b11 aav
b100000000000000001001001000011 aaz
b10000000000000000100000 abb
b10000000000000000101100 abc
b10000000000000000100100 ace

#258000
0aaa

#259000
1aaa
b0 aar
b11 aau
b1 aav
b100000000000000001000001000011 aaz
b10000000000000000100100 abb
b10000000000000000100000 abc
b10000000000000000100000 ace

#260000
0aaa

